<?xml version="1.0" encoding="UTF-8" standalone="no"?>
<svg
   xmlns:osb="http://www.openswatchbook.org/uri/2009/osb"
   xmlns:dc="http://purl.org/dc/elements/1.1/"
   xmlns:cc="http://creativecommons.org/ns#"
   xmlns:rdf="http://www.w3.org/1999/02/22-rdf-syntax-ns#"
   xmlns:svg="http://www.w3.org/2000/svg"
   xmlns="http://www.w3.org/2000/svg"
   xmlns:xlink="http://www.w3.org/1999/xlink"
   version="1.1"
   id="svg10937"
   viewBox="0 0 225 159.3"
   height="1.77in"
   width="2.5in">
  <title
     id="title4139">snowdrift.coop symbol</title>
  <defs
     id="defs10939">
    <linearGradient
       id="Bright-Blue"
       osb:paint="solid"
       gradientTransform="matrix(0,0,0,0,-5152.6851,20570.758)">
      <stop
         style="stop-color:#c5f1fd;stop-opacity:1;"
         offset="0"
         id="stop4635" />
    </linearGradient>
    <linearGradient
       id="White"
       osb:paint="solid"
       gradientTransform="matrix(0,0,0,0,-867894.56,170805.06)">
      <stop
         style="stop-color:#ffffff;stop-opacity:1;"
         offset="0"
         id="stop4651" />
    </linearGradient>
    <linearGradient
       id="Dark-Blue"
       osb:paint="solid"
       gradientTransform="matrix(0,0,0,0,-3168.5498,-996.00253)">
      <stop
         style="stop-color:#09628e;stop-opacity:1;"
         offset="0"
         id="stop4629" />
    </linearGradient>
    <linearGradient
       xlink:href="#White"
       id="linearGradient6719"
       gradientUnits="userSpaceOnUse"
       gradientTransform="matrix(-7.6075558,0,0,1.2917696,-336.76977,988.64878)"
       x1="-66.162361"
       y1="-642.19818"
       x2="-66.162361"
       y2="-678.74103" />
    <linearGradient
       xlink:href="#Dark-Blue"
       id="linearGradient6721"
       gradientUnits="userSpaceOnUse"
       gradientTransform="translate(1251.8671,-480.34594)"
       x1="-733.03265"
       y1="311.70425"
       x2="-387.41806"
       y2="311.70425" />
    <linearGradient
       xlink:href="#White"
       id="linearGradient6723"
       gradientUnits="userSpaceOnUse"
       gradientTransform="translate(597.3443,498.48971)"
       x1="-718.45636"
       y1="-389.5014"
       x2="-436.09576"
       y2="-389.5014" />
    <linearGradient
       xlink:href="#Bright-Blue"
       id="linearGradient6725"
       gradientUnits="userSpaceOnUse"
       gradientTransform="matrix(0.92815701,0.68239835,-0.69757668,0.92945812,-294.6543,50.259753)"
       x1="152.38489"
       y1="-175.99765"
       x2="242.04123"
       y2="-175.99765" />
    <linearGradient
       xlink:href="#Dark-Blue"
       id="linearGradient6727"
       gradientUnits="userSpaceOnUse"
       gradientTransform="matrix(-0.91365298,-0.20366333,-0.20366332,0.91365298,1047.5852,264.93354)"
       x1="974.37823"
       y1="-58.740475"
       x2="1075.6625"
       y2="-58.740475" />
  </defs>
  <metadata
     id="metadata10942">
    <rdf:RDF>
      <cc:Work
         rdf:about="">
        <dc:format>image/svg+xml</dc:format>
        <dc:type
           rdf:resource="http://purl.org/dc/dcmitype/StillImage" />
        <dc:title>snowdrift.coop symbol</dc:title>
        <dc:creator>
          <cc:Agent>
            <dc:title>Robert Martinez</dc:title>
          </cc:Agent>
        </dc:creator>
        <dc:rights>
          <cc:Agent>
            <dc:title>snowdrift.coop </dc:title>
          </cc:Agent>
        </dc:rights>
      </cc:Work>
    </rdf:RDF>
  </metadata>
  <g
     style="display:inline"
     id="g9751-6"
     transform="matrix(0.82161718,0,0,0.82161718,710.04556,1429.5881)">
    <g
       transform="matrix(0.66000494,0,0,0.66000494,-1184.6406,-1464.1318)"
       style="display:inline"
       id="g9727-1">
      <path
         id="rect9729-5"
         transform="matrix(1.844095,0,0,1.844095,485.50506,-417.93143)"
         d="M 13.046875 110.49609 C 5.8183672 110.49609 0 121.37961 0 134.89844 C 0 148.41726 5.8183672 159.30078 13.046875 159.30078 L 211.95312 159.30078 C 219.18163 159.30078 225 148.41726 225 134.89844 C 225 121.37961 219.18163 110.49609 211.95312 110.49609 L 13.046875 110.49609 z "
         style="display:inline;opacity:1;fill:url(#linearGradient6719);fill-opacity:1;fill-rule:evenodd;stroke:none;stroke-width:0.23422074;stroke-linecap:round;stroke-linejoin:miter;stroke-miterlimit:4;stroke-dasharray:none;stroke-dashoffset:0;stroke-opacity:1" />
      <path
         d="m 755.2605,-164.30243 c -1.0813,0 -1.5451,-0.8868 -1.5451,-1.81363 l 0,-7.22227 4.1717,3e-5 c 0.2314,0 0.4196,-1.16721 0.4196,-2.6071 0,-1.4399 -0.1882,-2.60712 -0.4196,-2.60712 l -4.1717,0 0,-7.37652 c 0,-0.30367 -1.5302,-0.54993 -3.4175,-0.54993 -1.8874,0 -3.4173,0.2463 -3.4173,0.54993 l 0,7.37652 -2.8589,0 c -0.2318,0 -0.4197,1.16722 -0.4197,2.60712 0,1.43989 0.1889,2.6071 0.4197,2.6071 l 2.8589,-3e-5 0,7.60864 c 0,3.51451 1.3118,7.56807 6.7572,7.56807 2.82,0 5.0214,-1.23583 5.0214,-1.23583 0.2476,-0.11616 0.065,-1.37275 -0.4035,-2.89753 -0.468,-1.52483 -0.8532,-2.83636 -1.4133,-2.54161 -0.2583,0.16824 -0.8958,0.53414 -1.5801,0.53414 z m 33.8742,1.80386 c -0.6397,-1.31172 -1.33,-2.35021 -1.5409,-2.18865 0,0 -1.2756,0.92643 -3.3224,0.92643 -2.5877,0 -4.7114,-2.16268 -4.7114,-4.90477 0,-2.7035 2.1237,-4.86612 4.7114,-4.86612 2.0468,0 3.3224,0.92642 3.3224,0.92642 0.2475,0.14835 0.8953,-0.8596 1.535,-2.14993 0.6397,-1.29033 0.9899,-2.3634 0.7822,-2.52278 0,0 -2.2402,-1.85477 -6.6436,-1.85477 -5.7544,0 -10.9678,4.71268 -10.9678,10.54451 0,5.7932 5.2521,10.42661 10.9678,10.42661 4.4034,0 6.6436,-1.7755 6.6436,-1.7755 0.1938,-0.15822 -0.1351,-1.24975 -0.7763,-2.56145 z m -55.8478,4.30855 c 1.8874,0 3.4173,-0.24632 3.4173,-0.54992 l 0,-14.59839 4.5585,3e-5 c 0.2319,0 0.4196,-1.16721 0.4196,-2.6071 0,-1.4399 -0.1888,-2.60712 -0.4196,-2.60712 l -4.5585,0 0,-2.27836 c 0,-2.74209 0.3877,-3.90096 2.1256,-3.90096 1.1198,0 2.0462,0.54145 2.0462,0.54145 0.2319,0.12329 0.9246,-0.88797 1.5857,-2.22105 0.6612,-1.33306 1.0315,-2.4166 0.8086,-2.60636 0,0 -2.1621,-1.77737 -5.6378,-1.77737 -4.9435,0 -7.7634,3.97756 -7.7634,9.7709 l 0,2.47175 -2.8584,0 c -0.2318,0 -0.4197,1.16722 -0.4197,2.60712 0,1.43989 0.1888,2.6071 0.4197,2.6071 l 2.8584,-3e-5 0,14.59839 c 0,0.30365 1.5301,0.54992 3.4178,0.54992 z m -8.1523,-20.3625 c 0,-0.30365 -1.5304,-0.54992 -3.4178,-0.54992 -1.8873,0 -3.4172,0.24631 -3.4172,0.54992 l 0,19.81258 c 0,0.30365 1.5299,0.54992 3.4172,0.54992 1.8874,0 3.4178,-0.24632 3.4178,-0.54992 z m -8.4989,0.6557 c 0,0 -1.7774,-1.23592 -4.3264,-1.23592 -3.9007,0 -6.0634,3.43872 -6.0634,3.43872 l -0.079,0 0,-2.8585 c 0,-0.30365 -1.5301,-0.54992 -3.4175,-0.54992 -1.8873,0 -3.4174,0.24631 -3.4174,0.54992 l 0,19.81258 c 0,0.30365 1.5301,0.54992 3.4174,0.54992 1.8874,0 3.4175,-0.24632 3.4175,-0.54992 l 0,-10.42846 c 0,-0.50208 0.5027,-4.01519 4.0558,-4.01519 1.6562,0 2.7743,0.58258 3.273,0.88311 0.6182,0.37258 1.786,-1.68298 2.3754,-2.8761 0.5893,-1.19315 1.0409,-2.5325 0.7632,-2.72024 z m -19.9763,-11.55897 c 0,-0.30366 -1.5309,-0.55006 -3.4188,-0.55006 -1.8879,0 -3.4185,0.2463 -3.4185,0.55006 l 0,12.79481 c -1.622,-1.58346 -3.8239,-2.47176 -6.4885,-2.47176 -5.7932,0 -9.8483,4.71265 -9.8483,10.50585 0,5.79318 4.0551,10.46527 9.8483,10.46527 2.7034,0 5.0209,-1.19589 6.4885,-2.81801 l 0.079,0 0,2.23969 c 0,0.30048 1.5133,0.54385 3.3798,0.54385 1.8666,0 3.38,-0.24345 3.38,-0.54385 z m -98.12,12.98821 -0.038,0 -0.039,0 0,-2.08494 c 0,-0.30365 -1.5302,-0.54992 -3.4179,-0.54992 -1.8876,0 -3.4176,0.24631 -3.4176,0.54992 l 0,19.81258 c 0,0.30365 1.53,0.54992 3.4176,0.54992 1.8877,0 3.4179,-0.24632 3.4179,-0.54992 l 0,-11.20018 c 0,-1.96968 2.0085,-3.86234 4.0555,-3.86234 2.2012,0 3.5528,1.89266 3.5528,3.86234 l 0,11.20018 c 0,0.30365 1.5303,0.55006 3.4183,0.55006 1.888,0 3.4184,-0.24631 3.4184,-0.55006 l 0,-13.05493 c 0,-5.52281 -5.0593,-7.33787 -8.6897,-7.33787 -2.1627,0 -4.1334,1.1203 -5.6781,2.66516 z m 72.3991,-2.71896 c -2.1759,0 -3.8076,0.30973 -3.9399,0.63392 l -4.1133,10.08711 -4.5209,-10.08711 c -0.085,-0.19067 -1.0549,-0.37903 -2.3558,-0.37903 -1.301,0 -2.27,0.18818 -2.3556,0.37903 l -4.5211,10.08711 -4.1151,-10.08711 c -0.1321,-0.32401 -1.7637,-0.6338 -3.9388,-0.6338 -2.1756,0 -4.0924,0.31938 -3.9389,0.6338 l 9.6768,19.81258 c 0.09,0.18497 1.0374,0.37284 2.3172,0.37284 1.2797,0 2.2289,-0.18674 2.317,-0.37284 l 4.5585,-9.62486 4.5567,9.62486 c 0.09,0.18604 1.0376,0.37284 2.3171,0.37284 1.2795,0 2.2267,-0.18782 2.3172,-0.37284 l 9.6788,-19.81258 c 0.1532,-0.31437 -1.7639,-0.63392 -3.9399,-0.63392 z m 50.8752,-10.31214 c -2.24,0 -4.0556,1.81384 -4.0556,4.05389 0,2.24003 1.8156,4.05573 4.0556,4.05573 2.2401,0 4.054,-1.8157 4.054,-4.05573 0,-2.24005 -1.8139,-4.05389 -4.054,-4.05389 z m -141.9064,31.33694 c 4.0553,0 9.384,-0.92585 9.384,-6.75763 0,-4.05524 -3.3984,-5.52305 -6.0249,-6.3341 -1.6989,-0.54068 -3.0885,-0.85062 -3.0885,-1.89339 0,-0.92689 0.6175,-1.19721 2.1238,-1.19721 2.0853,0 4.4034,1.23593 4.4034,1.23593 0.1997,0.0995 0.8619,-0.82255 1.4807,-2.0595 0.6183,-1.23694 0.9583,-2.32032 0.7592,-2.41988 0,0 -2.8201,-1.54532 -6.6433,-1.54532 -5.2141,0 -8.6513,2.31751 -8.6513,6.37277 0,2.97382 2.0087,4.36483 4.0173,5.40761 2.2399,1.15865 4.402,1.27483 4.402,2.70382 0,1.3131 -1.1585,1.42926 -2.1239,1.42926 -2.2014,0 -4.9047,-2.28017 -4.9047,-2.28017 -0.2064,-0.12376 -0.9986,0.82267 -1.7668,2.11351 -0.7681,1.29088 -1.2074,2.39697 -1.0143,2.56106 0,0 2.8581,2.66324 7.6473,2.66324 z m 46.9668,-20.9711 c -6.6819,0 -11.9336,4.32644 -11.9336,10.50585 0,6.10215 4.7884,10.46525 11.9336,10.46525 6.8357,0 11.8187,-4.3631 11.8187,-10.46525 0,-6.17941 -5.2532,-10.50585 -11.8187,-10.50585 z m 175.4,0 c -6.6817,0 -11.9333,4.32644 -11.9333,10.50585 0,6.10215 4.7885,10.46525 11.9333,10.46525 6.8361,0 11.8191,-4.3631 11.8191,-10.46525 0,-6.17941 -5.2532,-10.50585 -11.8191,-10.50585 z m 25.163,0 c -6.6815,0 -11.9348,4.32644 -11.9348,10.50585 0,6.10215 4.79,10.46525 11.9348,10.46525 6.836,0 11.8169,-4.3631 11.8169,-10.46525 0,-6.17941 -5.2509,-10.50585 -11.8169,-10.50585 z m 20.6749,18.49941 c 1.6221,1.58344 3.8238,2.47169 6.4887,2.47169 5.7931,0 9.8483,-4.71072 9.8483,-10.50392 0,-5.79321 -4.0552,-10.46718 -9.8483,-10.46718 -2.7037,0 -5.0214,1.19779 -6.4891,2.81987 l -0.081,0 0,-2.23965 c 0,-0.3001 -1.5124,-0.5437 -3.3788,-0.5437 -1.8659,0 -3.3787,0.24346 -3.3787,0.5437 l 0,28.56513 c 0,0.30366 1.53,0.54991 3.418,0.54991 1.8873,0 3.4168,-0.2463 3.4168,-0.54991 z m -221.2768,-12.66619 c 2.5492,0 4.5953,1.9306 4.5953,4.67273 0,2.70349 -1.9304,4.63405 -4.5953,4.63405 -2.7808,0 -4.6341,-1.93056 -4.6341,-4.63405 0,-2.74213 2.0465,-4.67273 4.6341,-4.67273 z m 53.9105,4.67273 c 0,2.70349 1.8551,4.63405 4.6357,4.63405 2.6651,0 4.5955,-1.93056 4.5955,-4.63405 0,-2.74213 -2.0463,-4.67273 -4.5955,-4.67273 -2.5873,0 -4.6357,1.9306 -4.6357,4.67273 z m 121.4897,-4.67273 c 2.5492,0 4.5951,1.9306 4.5951,4.67273 0,2.70349 -1.9298,4.63405 -4.5951,4.63405 -2.7804,0 -4.634,-1.93056 -4.634,-4.63405 0,-2.74213 2.0468,-4.67273 4.634,-4.67273 z m 25.1631,0 c 2.5491,0 4.5958,1.9306 4.5958,4.67273 0,2.70349 -1.9311,4.63405 -4.5958,4.63405 -2.7805,0 -4.6339,-1.93056 -4.6339,-4.63405 0,-2.74213 2.0464,-4.67273 4.6339,-4.67273 z m 25.1559,0 c 2.7804,0 4.634,1.93056 4.634,4.63406 0,2.74209 -2.0466,4.67272 -4.634,4.67272 -2.549,0 -4.5973,-1.93063 -4.5973,-4.67272 0,-2.7035 1.9325,-4.63406 4.5973,-4.63406 z m -86.4656,6.29538 c -2.433,0 -4.4022,1.96888 -4.4022,4.44066 0,2.43315 1.9692,4.40196 4.4022,4.40196 2.4716,0 4.4407,-1.96881 4.4407,-4.40196 0,-2.47178 -1.9691,-4.44066 -4.4407,-4.44066 z m -217.3887,5.83929 c 3.0816,-3.4307 0.8847,-8.51968 -4.9068,-11.36688 0.2067,0.18534 1.307,-0.70368 2.4591,-1.98571 1.1517,-1.28199 1.9181,-2.47145 1.7118,-2.65682 -5.7914,-2.84721 -12.9839,-2.37438 -16.0658,1.05599 -3.0816,3.43068 -0.8847,8.51961 4.907,11.36673 -0.2064,-0.18536 -1.3072,0.7037 -2.4592,1.98572 -1.1515,1.282 -1.9182,2.4715 -1.7119,2.65689 5.792,2.84714 12.9842,2.37433 16.0658,-1.05592 z m -26.8103,-23.8608 c -6.7526,7.51783 -1.9384,18.66949 10.7531,24.90866 -0.4525,-0.4061 -2.8649,1.54202 -5.3887,4.35137 -2.5242,2.80936 -4.2034,5.41595 -3.7517,5.82214 12.6918,6.23921 28.4532,5.20311 35.2064,-2.31387 6.7528,-7.51788 1.9386,-18.66969 -10.753,-24.9089 0.4521,0.40614 2.8645,-1.542 5.3883,-4.35134 2.5241,-2.80934 4.2037,-5.41599 3.7516,-5.82214 -12.6914,-6.23921 -28.4526,-5.20309 -35.2059,2.31408 z"
         style="font-style:normal;font-variant:normal;font-weight:bold;font-stretch:normal;font-size:11.36749935px;line-height:125%;font-family:Hussar;-inkscape-font-specification:'Hussar Bold';letter-spacing:0px;word-spacing:0px;display:inline;opacity:1;fill:url(#linearGradient6721);fill-opacity:1;fill-rule:evenodd;stroke:none;stroke-width:0.28418744px;stroke-linecap:butt;stroke-linejoin:miter;stroke-opacity:1"
         id="path9731-7" />
    </g>
    <g
       style="display:inline"
       id="g22094-2"
       transform="matrix(0.81495163,0,0,0.81495163,359.04627,-1636.5154)">
      <g
         transform="translate(-505.69909,-240.53701)"
         id="g22096-0">
        <g
           id="g22098-2"
           transform="translate(-850,198)">
          <path
             style="color:#000000;font-style:normal;font-variant:normal;font-weight:normal;font-stretch:normal;font-size:medium;line-height:normal;font-family:sans-serif;text-indent:0;text-align:start;text-decoration:none;text-decoration-line:none;text-decoration-style:solid;text-decoration-color:#000000;letter-spacing:normal;word-spacing:normal;text-transform:none;direction:ltr;block-progression:tb;writing-mode:lr-tb;baseline-shift:baseline;text-anchor:start;white-space:normal;clip-rule:nonzero;display:inline;overflow:visible;visibility:visible;opacity:1;isolation:auto;mix-blend-mode:normal;color-interpolation:sRGB;color-interpolation-filters:linearRGB;solid-color:#000000;solid-opacity:1;fill:url(#linearGradient6723);fill-opacity:1;fill-rule:evenodd;stroke:none;stroke-width:9.89999962;stroke-linecap:butt;stroke-linejoin:miter;stroke-miterlimit:4;stroke-dasharray:none;stroke-dashoffset:0;stroke-opacity:1;color-rendering:auto;image-rendering:auto;shape-rendering:auto;text-rendering:auto;enable-background:accumulate"
             d="m 105.8653,-84.364837 0,0.002 c -7.6769,0.22075 -13.7874,6.50713 -13.789,14.1875 -8e-4,0.72606 0.053,1.45028 0.164,2.16797 0.046,0.29789 0.085,0.60109 0.1153,0.91211 0.3502,3.70732 -0.2189,8.56427 -5.7891,16.41016 -2.0121,2.83425 -4.5673,5.70301 -7.3848,8.51367 -2.9983,-8.8956 -8.4751,-17.05597 -17.3144,-21.22071 -2.9676,-1.39807 -8.4169,-2.61373 -12.6836,-2.75585 -0.4634,-0.0159 -0.9004,-0.0253 -1.3067,-0.0293 l -0.016,0 c -6.5327,-0.0637 -14.1702,1.67949 -19.2812,5.49609 -4.0016,2.98812 -8.0032,6.1603 -10.7754,10.66015 -3.989,0 -8.5949,0.0815 -11.25,0.21094 -7.617,-8.55532 -20.004,-12.50356 -31.3985,-10.57422 -7.2602,1.22937 -14.5823,4.93655 -19.9336,10.01953 -3.0487,2.89606 -5.6288,6.16965 -7.7441,9.71484 -3.3002,-0.11655 -7.5208,0.78034 -10.3965,2.98438 -2.7567,2.56703 -4.5427,4.70869 -5.2812,8.03711 -3.8226,0.50331 -4.6672,0.73966 -7.0625,1.50195 -1.9617,0.62424 -4.7285,1.25985 -7.6582,8.1211 -1.465,3.43063 -1.3166,9.09758 0.3554,12.46679 1.6719,3.36922 3.5872,4.77719 4.8946,5.73047 0.061,0.0438 0.1342,0.0622 0.1953,0.10547 -0.7649,0.71023 -1.5503,1.39172 -2.2578,2.18555 -4.3406,4.87 -7.3733,13.41777 -7.0274,19.93945 0.2638,4.9646 3.0086,12.06286 6.1211,15.98047 6.0825,7.6559 17.1988,16.07562 29.4609,13.42383 3.562189,19.786671 5.908786,34.46951 -2.82898,46.651197 l 158.79182,0.51392 c -18.108168,-25.372912 3.22419,-51.410686 17.77396,-80.751077 0.5102,0.25706 0.8753,0.44063 1.4238,0.7168 0.038,0.0193 0.075,0.0376 0.1133,0.0566 5.5226,2.71963 11.0545,5.38644 16.5879,8.01757 0.2509,0.11936 0.5213,0.2474 0.8105,0.38477 2.6405,1.25363 5.6035,1.66317 8.4844,1.16992 0.535,-0.0916 1.0584,-0.19644 1.5684,-0.31054 6.9201,-1.54861 12.5076,-4.93217 17.584,-9.06055 5.1198,-4.1636 9.7923,-9.37113 13.5078,-15.58008 7.1679,-11.97828 10.4756,-29.39766 1.623,-44.87305 -0.2225,-0.38896 -0.5612,-0.99578 -1.0488,-1.78125 -0.01,-0.0159 -0.021,-0.031 -0.029,-0.0469 -0.2252,-0.35979 -0.5384,-0.6526 -0.793,-0.99219 -0.3618,-0.51904 -0.7578,-1.01428 -1.1855,-1.48047 -0.1605,-0.16651 -0.3187,-0.32904 -0.4864,-0.48828 -1.103,-1.09401 -2.377,-2.00067 -3.7734,-2.68164 l -13.4668,-6.50586 -0.01,0 -0.06,-0.0293 c -20.8558,-10.21316 -18.7398,-9.27441 -49.1348,-24.78125 -0.5175,-0.26415 -1.0392,-0.52993 -1.5625,-0.79687 -2.1181,-1.07968 -4.4731,-1.61045 -6.8496,-1.54297 z"
             id="path22106-9" />
          <ellipse
             style="opacity:1;fill:#e8f0f4;fill-opacity:1;fill-rule:nonzero;stroke:none;stroke-width:0.04652396;stroke-linecap:butt;stroke-linejoin:miter;stroke-miterlimit:4;stroke-dasharray:none;stroke-dashoffset:0;stroke-opacity:1"
             id="ellipse22108-7"
             cx="-444.04736"
             cy="-463.76749"
             rx="44.974014"
             ry="35.950069"
             transform="matrix(0.99780871,-0.06616473,-0.99285671,-0.11931283,0,0)" />
          <path
             style="opacity:1;fill:url(#linearGradient6725);fill-opacity:1;fill-rule:nonzero;stroke:none;stroke-width:0.05583056;stroke-linecap:butt;stroke-linejoin:miter;stroke-miterlimit:4;stroke-dasharray:none;stroke-dashoffset:0;stroke-opacity:1"
             d="m 35.3295,-27.976817 c 21.914,17.11882 25.2821,49.99082 7.5801,73.98239 -16.145,21.80738 -44.6853,29.23998 -67.1133,17.47799 0.7383,0.64481 1.496,1.26702 2.2722,1.86585 22.1435,13.13602 59.7644,11.68472 78.0422,-12.66738 18.2774,-24.35287 11.1247,-58.62601 -11.8545,-75.52082 -2.779,-2.01998 -5.7694,-3.74118 -8.9267,-5.13803 z"
             id="path22110-3" />
          <path
             style="fill:url(#linearGradient6727);fill-opacity:1;fill-rule:evenodd;stroke:none;stroke-width:0.26458332px;stroke-linecap:butt;stroke-linejoin:miter;stroke-opacity:1"
             d="m 105.6563,-72.276947 c 0.2573,1.14806 0.4447,2.31161 0.5606,3.48242 0.8433,8.52627 -2.1276,17.26663 -8.2852,26.00586 -5.1508,7.3103 -11.8936,13.71152 -18.0742,18.74414 -1.0821,0.88121 -2.1783,1.74438 -3.2871,2.5918 1.2831,0.64378 2.5665,1.28795 3.8496,1.93164 9.4654,4.74848 20.563,10.30639 31.1699,15.62109 -0.7362,1.00636 -1.4819,2.01656 -2.1855,3.01758 -2.0667,2.93994 -3.9543,5.86803 -5.9199,8.63477 -9.223,12.98133 -16.4315,23.75322 -21.875,32.15429 -0.044,-0.0234 -0.081,-0.049 -0.125,-0.0723 -6.9684,-3.65004 -9.2911,3.98242 -9.2911,3.98242 l -6.9043,-5.0957 c 1.1717,-3.54536 2.0241,-7.26161 2.5098,-11.10742 0.9084,-7.19269 -0.871,-18.89227 -4.1074,-26.99219 -3.1143,-7.79443 -7.3139,-13.94554 -13.7012,-20.07617 -3.663,-3.51586 -10.2588,-8.3738 -13.1289,-9.66797 -0.9991,-0.45056 -1.1127,-0.67562 -0.9023,-1.79688 0.3943,-2.10205 -1.8811,-3.81445 -5.0664,-3.81445 -0.6206,0 -1.2246,-0.15599 -1.3418,-0.3457 -0.1173,-0.18971 0.2979,-1.55436 0.9218,-3.03321 3.1857,-7.55095 7.8652,-10.93502 13.2461,-9.58007 6.6349,1.67068 10.1064,6.62199 13.8262,19.72265 1.0879,3.83138 2.2786,7.42393 2.6445,7.98242 1.4697,2.243 3.7978,0.67864 5.5528,-3.72851 1.1919,-2.99307 1.2853,-8.77418 0.2011,-12.43164 -2.1371,-7.20942 -5.7893,-12.16482 -10.6543,-14.45703 -2.4682,-1.16291 -3.1846,-1.30715 -7.2714,-1.44336 -0.3419,-0.0115 -0.6764,-0.0181 -1.002,-0.0215 -4.8838,-0.0496 -8.0069,0.82756 -11.5234,3.17578 -3.9433,2.63323 -8.509,8.1655 -9.8907,11.98633 l -0.4921,1.36524 -10.5274,0.002 c -9.4144,0.003 -12.6167,0.19605 -15.9824,0.9668 -0.9142,0.20932 -1.1231,-0.007 -2.1973,-2.28711 -3.5831,-7.60509 -11.4721,-11.13308 -21.209,-9.48438 -5.1783,0.87684 -8.9284,2.76592 -12.8183,6.46094 -4.3854,4.16573 -7.6417,9.77602 -8.9902,15.48828 -0.549,2.32477 -0.1371,4.24007 1.2246,5.68945 2.3425,2.49351 4.8513,0.50508 10.7675,-8.53906 6.2047,-9.48499 10.3538,-13.47011 15.6016,-14.97851 4.0305,-1.15854 7.8264,-0.0866 10.2949,2.9082 1.3862,1.68171 3.0542,5.55977 3.4473,8.01562 l 0.2598,1.61719 -3.8457,1.77344 c -10.6271,4.90141 -19.4649,12.57097 -25.4903,21.98632 l -7.5058,-3.12305 c -0.9958,-0.41439 -4.1049,-2.11467 -7.0313,-3.52539 -6.2166,-2.99681 -6.1271,-2.8777 -6.1035,-8.07227 0.021,-4.24026 -0.2283,-5.2065 -1.4004,-5.44725 -1.4726,-0.30236 -2.1154,1.55719 -2.168,6.27929 l -0.029,2.58008 -3.1093,0.004 c -3.6772,0.004 -7.6193,0.87275 -9.9161,2.18164 -1.8982,1.08186 -2.1961,1.7781 -1.1015,2.57617 0.6302,0.45951 1.6852,0.38562 5.7734,-0.40039 2.7513,-0.52883 5.0802,-0.94541 5.1758,-0.92578 0.096,0.0214 -0.8506,1.20066 -2.1035,2.62305 -2.8583,3.24506 -3.2261,3.97738 -2.5606,5.10547 0.2853,0.48332 0.6379,0.90378 0.7832,0.93359 0.1454,0.0299 1.7709,-1.42207 3.6133,-3.22656 l 3.3516,-3.28125 0.7676,4.22461 c 1.0132,5.57598 1.5196,7.00094 2.5097,7.06055 0.6433,0.0385 0.8305,-0.22393 1.0547,-1.47265 0.2198,-1.22623 -0.3103,-5.75342 -1.1133,-9.50391 -0.103,-0.48149 0.821,-0.088 3.8418,1.64063 2.1869,1.25137 5.3598,2.87045 7.0528,3.59764 l 8.1718,3.61524 c -0.3758,0.69167 -0.7397,1.39013 -1.0859,2.09765 l -1.6797,3.4336 -6.4238,-0.13671 c -12.9364,-0.27676 -21.6727,2.43117 -26.9512,8.35351 -2.8051,3.14727 -3.7496,5.81693 -3.5293,9.9707 0.1851,3.49024 0.8529,5.21477 3.1309,8.08204 3.3219,4.18127 9.4313,7.73509 15.3222,8.91406 2.5703,0.51433 4.833,0.63773 9.3379,0.50977 l 5.9473,-0.16797 1.1094,3.5625 c 1.3137,4.21428 3.9148,9.45459 6.5449,13.1875 4.3813,6.21861 12.2581,12.68842 19.0059,15.61133 3.5089,1.51994 9.0656,3.21971 11.9375,3.65039 1.2362,0.18537 1.8095,0.44942 1.6835,0.77734 -0.1048,0.27327 -0.028,1.22294 0.1719,2.11133 l 0.3633,1.61523 -5.2969,0.48828 c -6.4008,0.58883 -12.0278,1.51792 -13.8828,2.29297 -1.1514,0.48114 -1.3485,0.74963 -1.2402,1.68946 0.2121,1.84104 1.771,2.31721 8.0781,2.46679 8.7181,0.20675 21.5604,-1.78815 23.2051,-3.60547 0.9905,-1.09449 0.2375,-1.77993 -3.1504,-2.87109 -3.0304,-0.97598 -4.7676,-2.23956 -4.7676,-3.46875 0,-0.7164 0.3088,-0.75144 5.2168,-0.57422 7.0966,0.25627 16.4199,-0.80722 22.5156,-2.56641 0.7893,-0.22774 0.8769,-0.0565 1.084,2.11133 0.1239,1.29666 -0.5455,4.20902 -0.4746,4.53516 0.1194,0.54954 -0.3274,0.63192 -6.0976,1.10937 -8.3726,0.69282 -10.1934,1.83951 -11.2364,3.72461 -1.1761,2.12557 1.4143,2.05639 5.8594,2.58594 6.3406,0.75534 19.634,-0.33753 24.2109,-1.99023 3.9685,-1.43298 3.1814,-2.72309 -2.3027,-3.77344 -4.0933,-0.78399 -5.3076,-1.06729 -6.4316,-2.49609 -1.0531,-1.33907 -0.2302,-3.56426 0.7949,-5.47657 0.4446,-0.8294 0.8142,-1.6924 0.8223,-1.91797 0.01,-0.22556 1.4168,-1.04626 3.1308,-1.82422 11.3301,-5.14247 20.2161,-14.71887 25.2285,-26.67382 l 6.4551,6.26953 c 0,0 0.01,2.92769 2.0606,5.5957 -5.5214,9.03291 -8.7917,14.95055 -9.9629,17.08789 -2.6215,4.78322 -2.8097,5.34523 -2.7344,5.00781 0.03,-0.12743 0.4195,-0.99716 -0.094,0.0918 -0.1229,0.26108 -0.3581,0.76939 -0.58,1.27735 -0.1168,0.26751 -0.2442,0.56611 -0.3653,0.88085 -0.1065,0.27665 -0.2592,0.69483 -0.3652,1.08399 -1.3638,5.12314 6.3009,7.19904 7.709,2.08789 0,0.0171 0.016,-0.0531 0.1,-0.26563 0.071,-0.17862 0.1613,-0.39531 0.2519,-0.60742 0.1814,-0.42345 0.3638,-0.81995 0.4805,-1.07226 0.434,-0.9339 0.107,-0.24316 0.01,-0.11914 0.1266,-0.15545 -0.3433,0.22652 2.2383,-4.85352 1.1236,-2.21065 3.9983,-7.72358 9.3457,-16.73047 4.4417,1.49588 6.4317,0.18454 8.1679,-4.15625 1.225,-3.06213 1.6893,-6.49988 0.2481,-9.54297 5.3769,-8.50321 12.6873,-19.65102 22.2461,-33.27734 1.935,-2.75836 4.0813,-5.48478 6.2011,-8.35352 0.95,-1.28557 1.8974,-2.61312 2.8575,-3.9414 4.4562,2.23234 8.1449,4.08374 12.8027,6.41601 5.7262,2.86724 11.4758,5.68605 17.2422,8.47071 0.3286,0.15891 0.6574,0.31595 0.9863,0.47461 0.3845,-0.0565 0.7683,-0.12383 1.1484,-0.20508 4.0045,-0.85546 8.3568,-3.21161 12.3399,-6.40039 4.0249,-3.22227 7.8638,-7.44512 10.7988,-12.27149 2.8126,-4.62498 4.8372,-9.87301 5.3574,-15.38476 0.5225,-5.53558 -0.4809,-11.26871 -3.6035,-16.82618 -0.1702,-0.30295 -0.3523,-0.60814 -0.5312,-0.9121 0.3273,-0.361 0.2135,-0.93548 -0.2266,-1.14454 -12.2142,-6.1167 -32.7585,-16.25561 -65.4512,-32.24023 -1.0735,-0.5249 -2.1471,-1.0495 -3.2207,-1.57422 l 0,0 z m -90.7285,40.41797 c 0.778,0 1.6065,0.019 2.4961,0.0488 4.1336,0.13882 6.5366,0.39958 7.4746,0.81055 0.7606,0.33321 1.7566,0.61525 2.2129,0.62695 1.1848,0.0303 5.6238,1.56665 8.4649,2.92969 13.6084,6.5289 23.7737,21.77018 27.9277,41.875 2.242,10.85109 0.8322,20.10043 -4.6973,30.80664 -2.5568,4.95048 -5.1036,8.31447 -9.4531,12.49023 -7.6664,7.36006 -16.9098,11.53756 -29.6777,13.41211 -5.1343,0.75378 -15.75,1.04419 -19.6621,0.53711 -15.8829,-2.05865 -27.8742,-10.19021 -34.461,-23.36523 -1.2804,-2.56115 -3.7285,-9.19053 -3.7285,-10.09571 0,-0.31219 1.2115,-0.90277 2.9141,-1.41992 7.1375,-2.16797 13.8853,-6.8491 15.5234,-10.76953 2.3565,-5.63994 -3.8478,-16.02906 -12.0117,-20.11328 -1.5943,-0.79764 -3.1477,-1.44922 -3.4512,-1.44922 -0.3035,0 -0.5511,-0.22801 -0.5508,-0.50586 0,-0.86889 3.3539,-7.0421 5.1914,-9.56055 4.6073,-6.31439 21.3275,-18.56263 31.5137,-23.08398 5.4739,-2.42973 8.5286,-3.1835 13.9746,-3.17383 z m -26.6426,15.76953 c -1.3147,-2.1e-4 -2.7505,3.01805 -5.2636,10.63086 -2.4717,7.48733 -3.0267,10.34674 -2.1993,11.34375 0.2863,0.34478 0.7204,0.56444 0.9649,0.48633 1.2454,-0.39785 5.3336,-10.43275 7.1543,-17.56055 0.9077,-3.55338 0.9192,-3.76435 0.2461,-4.4375 -0.3022,-0.30219 -0.599,-0.46283 -0.9024,-0.46289 z m 9.8633,2.46289 c -0.1375,-0.005 -0.2583,0.0494 -0.3711,0.16211 -1.2421,1.24213 -5.6445,14.67699 -5.6445,17.22656 0,0.68458 0.3021,1.57789 0.6699,1.98438 0.3679,0.40648 0.7413,0.74023 0.8321,0.74023 0.7157,0 3.7785,-8.79961 5.3437,-15.35351 0.8152,-3.41447 0.8143,-3.4354 0.022,-4.22852 -0.3503,-0.35023 -0.6225,-0.52328 -0.8516,-0.53125 z m 47.4824,26.98242 c -0.9617,0 -5.0399,1.79621 -16.4257,7.23438 -10.6036,4.3262 -20.5479,9.91962 -28.586,13.58398 -21.3488,9.71305 -28.8908,13.42944 -29.0234,14.30078 -0.1138,0.74778 0.071,0.84961 1.5664,0.84961 1.7949,0 4.6117,-1.10353 14.8984,-5.83203 3.5462,-1.63009 5.9301,-2.51591 6.086,-2.26367 0.1409,0.22802 1.8607,1.23345 3.8222,2.23438 3.2461,1.65634 3.8268,1.82031 6.4649,1.82031 2.5146,0 3.1464,-0.15833 4.7754,-1.19141 1.5146,-0.96055 2.731,-2.35561 4.1816,-4.79492 0.041,-0.0686 0.7529,0.15942 1.582,0.50586 0.8292,0.34641 2.4789,0.63086 3.6661,0.63086 l 2.1582,0 1.6308,2.40234 c 0.8974,1.32142 1.6309,2.52123 1.6309,2.66602 0,0.14479 -0.7369,1.10049 -1.6387,2.125 -3.4863,3.96059 -7.6562,12.23892 -7.6562,15.20117 0,0.94873 1.3719,3.04588 1.7402,2.66016 0.1062,-0.11115 0.9612,-2.38352 1.9004,-5.05078 1.9565,-5.55645 3.2326,-8.24895 4.9394,-10.41602 2.2884,-2.90557 6.3745,-5.03913 10.9532,-5.7207 l 1.9531,-0.29102 -2.8301,3.5 c -1.5568,1.92453 -3.345,4.47912 -3.9727,5.67774 l -1.1406,2.17968 0.9102,0.91016 0.9101,0.91016 4.7461,-4.66993 c 5.9348,-5.83768 12.3001,-11.73705 12.4746,-11.5625 0.2793,0.27931 -2.8081,9.03585 -3.5918,10.1875 -0.4538,0.66694 -1.9335,2.36231 -3.289,3.76953 -2.5745,2.67261 -4.7065,3.94239 -11.3555,6.76172 -6.2657,2.65682 -8.0293,4.11659 -6.4316,5.32422 1.7753,1.34197 7.9137,-0.16645 12.9668,-3.18554 11.4153,-6.8205 20.673,-28.40398 17.8633,-41.64649 -1.1101,-5.23085 -4.3099,-8.81055 -7.879,-8.81055 z m -22.5664,14.14454 c 0.7098,0 0.9942,0.95553 0.9942,3.34179 0,2.46253 -1.1111,4.35025 -3.1289,5.3125 -1.6082,0.76687 -5.491,0.85299 -6.0664,0.13477 -0.5847,-0.7298 -2.1996,-3.99437 -2.0469,-4.13867 0.3904,-0.36897 9.8252,-4.6504 10.248,-4.65039 z m -14.1621,6.55273 c 0.052,0.0634 0.4265,0.82426 0.8301,1.68945 0.7136,1.52977 0.7123,1.61348 -0.047,3.03125 -0.4982,0.93052 -1.433,1.78486 -2.584,2.36524 -2.0513,1.03444 -4.5562,1.1717 -6.1582,0.33593 -1.3314,-0.69464 -2.9638,-2.17286 -2.6953,-2.4414 0.324,-0.32392 10.5519,-5.10517 10.6543,-4.98047 z"
             id="path22112-1" />
        </g>
      </g>
    </g>
  </g>
</svg>
