<?xml version="1.0" encoding="UTF-8" standalone="no"?>
<!-- Created with Inkscape (http://www.inkscape.org/) -->

<svg
   xmlns:osb="http://www.openswatchbook.org/uri/2009/osb"
   xmlns:dc="http://purl.org/dc/elements/1.1/"
   xmlns:cc="http://creativecommons.org/ns#"
   xmlns:rdf="http://www.w3.org/1999/02/22-rdf-syntax-ns#"
   xmlns:svg="http://www.w3.org/2000/svg"
   xmlns="http://www.w3.org/2000/svg"
   xmlns:xlink="http://www.w3.org/1999/xlink"
   xmlns:sodipodi="http://sodipodi.sourceforge.net/DTD/sodipodi-0.dtd"
   xmlns:inkscape="http://www.inkscape.org/namespaces/inkscape"
   width="25.175543mm"
   height="30.133541mm"
   viewBox="0 0 89.204679 106.77239"
   id="svg4998"
   version="1.1"
   inkscape:version="0.91 r13725"
   sodipodi:docname="bright-back.svg">
  <defs
     id="defs5000">
    <linearGradient
       inkscape:collect="always"
       xlink:href="#Dark-Blue"
       id="linearGradient13692"
       gradientUnits="userSpaceOnUse"
       gradientTransform="matrix(-0.27409591,-0.061099,-0.061099,0.27409589,141.54544,198.06837)"
       x1="974.37823"
       y1="-58.740475"
       x2="1075.6625"
       y2="-58.740475" />
    <linearGradient
       gradientTransform="matrix(0,0,0,0,183.70688,473.6967)"
       osb:paint="solid"
       id="Dark-Blue">
      <stop
         id="stop4629"
         offset="0"
         style="stop-color:#09628e;stop-opacity:1;" />
    </linearGradient>
    <linearGradient
       inkscape:collect="always"
       xlink:href="#Dark-Blue"
       id="linearGradient13722"
       gradientUnits="userSpaceOnUse"
       gradientTransform="translate(-6697.0349,2911.4027)" />
    <linearGradient
       inkscape:collect="always"
       xlink:href="#Dark-Blue"
       id="linearGradient5652"
       gradientUnits="userSpaceOnUse"
       gradientTransform="translate(-6697.0349,2911.4027)" />
    <linearGradient
       inkscape:collect="always"
       xlink:href="#Dark-Blue"
       id="linearGradient5654"
       gradientUnits="userSpaceOnUse"
       gradientTransform="translate(-6697.0349,2911.4027)" />
    <linearGradient
       inkscape:collect="always"
       xlink:href="#Dark-Blue"
       id="linearGradient5656"
       gradientUnits="userSpaceOnUse"
       gradientTransform="translate(-6697.0349,2911.4027)" />
    <linearGradient
       inkscape:collect="always"
       xlink:href="#Dark-Blue"
       id="linearGradient5658"
       gradientUnits="userSpaceOnUse"
       gradientTransform="translate(-6697.0349,2911.4027)" />
    <linearGradient
       inkscape:collect="always"
       xlink:href="#Dark-Blue"
       id="linearGradient5660"
       gradientUnits="userSpaceOnUse"
       gradientTransform="translate(-6697.0349,2911.4027)" />
    <linearGradient
       inkscape:collect="always"
       xlink:href="#Dark-Blue"
       id="linearGradient5662"
       gradientUnits="userSpaceOnUse"
       gradientTransform="translate(-6697.0349,2911.4027)" />
    <linearGradient
       inkscape:collect="always"
       xlink:href="#Dark-Blue"
       id="linearGradient5664"
       gradientUnits="userSpaceOnUse"
       gradientTransform="translate(-6697.0349,2911.4027)" />
    <linearGradient
       inkscape:collect="always"
       xlink:href="#Dark-Blue"
       id="linearGradient5666"
       gradientUnits="userSpaceOnUse"
       gradientTransform="translate(-6697.0349,2911.4027)" />
    <linearGradient
       inkscape:collect="always"
       xlink:href="#Dark-Blue"
       id="linearGradient5668"
       gradientUnits="userSpaceOnUse"
       gradientTransform="translate(-6697.0349,2911.4027)" />
    <linearGradient
       inkscape:collect="always"
       xlink:href="#Dark-Blue"
       id="linearGradient5670"
       gradientUnits="userSpaceOnUse"
       gradientTransform="translate(-6697.0349,2911.4027)" />
    <linearGradient
       inkscape:collect="always"
       xlink:href="#Dark-Blue"
       id="linearGradient5672"
       gradientUnits="userSpaceOnUse"
       gradientTransform="translate(-6697.0349,2911.4027)" />
    <linearGradient
       inkscape:collect="always"
       xlink:href="#Dark-Blue"
       id="linearGradient5674"
       gradientUnits="userSpaceOnUse"
       gradientTransform="translate(-6697.0349,2911.4027)" />
    <linearGradient
       inkscape:collect="always"
       xlink:href="#Dark-Blue"
       id="linearGradient5676"
       gradientUnits="userSpaceOnUse"
       gradientTransform="translate(-6697.0349,2911.4027)" />
    <linearGradient
       inkscape:collect="always"
       xlink:href="#Dark-Blue"
       id="linearGradient5678"
       gradientUnits="userSpaceOnUse"
       gradientTransform="translate(-6697.0349,2911.4027)" />
  </defs>
  <sodipodi:namedview
     id="base"
     pagecolor="#ffffff"
     bordercolor="#666666"
     borderopacity="1.0"
     inkscape:pageopacity="0.0"
     inkscape:pageshadow="2"
     inkscape:zoom="2.8"
     inkscape:cx="52.271102"
     inkscape:cy="40.435436"
     inkscape:document-units="px"
     inkscape:current-layer="layer1"
     showgrid="false"
     fit-margin-top="0"
     fit-margin-left="0"
     fit-margin-right="0"
     fit-margin-bottom="0" />
  <metadata
     id="metadata5003">
    <rdf:RDF>
      <cc:Work
         rdf:about="">
        <dc:format>image/svg+xml</dc:format>
        <dc:type
           rdf:resource="http://purl.org/dc/dcmitype/StillImage" />
        <dc:title></dc:title>
      </cc:Work>
    </rdf:RDF>
  </metadata>
  <g
     inkscape:label="Layer 1"
     inkscape:groupmode="layer"
     id="layer1"
     transform="translate(210.31662,-56.118861)">
    <g
       id="g5726">
      <path
         sodipodi:nodetypes="ccsccscccccccsssccscssscsssccscccccssccssscccccsccccccccccccccccccccccccssscccccscccccccsccsscccscssscscsccccccccccccccsccscccssscccccccsssssscssccscccccsccsccccscsccccsccsssccssccsccssscssccccccccccscscscscccccscccccc"
         id="path4514"
         d="m -140.76009,99.09264 c 0.0691,0.30843 0.11946,0.62106 0.1506,0.93561 0.22656,2.29071 -0.57162,4.63899 -2.22597,6.98694 -1.38384,1.96404 -3.19542,3.68388 -4.85595,5.03598 -0.29073,0.23673 -0.58524,0.46866 -0.88314,0.69633 0.34473,0.17295 0.68952,0.34602 1.03425,0.51894 2.54307,1.27578 5.10507,2.55747 8.28714,4.15188 -0.22086,0.30192 -0.44457,0.60498 -0.65565,0.90528 -0.62001,0.88197 -1.18629,1.7604 -1.77597,2.59044 -2.7669,3.89439 -4.92945,7.12596 -6.5625,9.64626 -0.0132,-0.007 -0.0243,-0.0147 -0.0375,-0.0216 -2.09052,-1.095 -2.78734,1.19475 -2.78734,1.19475 l -2.07129,-1.52871 c 0.35151,-1.06362 0.60723,-2.17848 0.75294,-3.33225 0.27252,-2.15778 -0.2613,-5.66766 -1.23222,-8.09763 -0.93429,-2.33835 -2.19417,-4.18368 -4.11036,-6.02286 -1.0989,-1.05477 -3.07764,-2.51214 -3.93867,-2.9004 -0.29973,-0.13515 -0.33381,-0.20268 -0.27069,-0.53907 0.11829,-0.6306 -0.56433,-1.14432 -1.51992,-1.14432 -0.18618,0 -0.36738,-0.0468 -0.40254,-0.10371 -0.0352,-0.0569 0.0894,-0.46632 0.27654,-0.90996 0.95571,-2.2653 2.35956,-3.2805 3.97383,-2.87403 1.99047,0.50121 3.03192,1.9866 4.14786,5.91681 0.32637,1.14939 0.68358,2.22717 0.79335,2.39472 0.44091,0.6729 1.13934,0.20358 1.66584,-1.11855 0.35757,-0.89793 0.38559,-2.63226 0.0603,-3.72951 -0.64113,-2.16282 -1.73679,-3.64944 -3.19629,-4.3371 -0.74046,-0.34887 -0.95538,-0.39216 -2.18142,-0.43302 -0.10257,-0.004 -0.20292,-0.005 -0.3006,-0.006 -1.46514,-0.015 -2.40207,0.24828 -3.45702,0.95274 -1.18299,0.78996 -2.5527,2.44965 -2.96721,3.59589 l -0.14763,0.40959 -3.15822,0 c -2.82432,0 -3.78501,0.0588 -4.79472,0.29004 -0.27426,0.0628 -0.33693,-0.003 -0.65919,-0.68613 -1.07493,-2.28153 -3.44163,-3.33993 -6.3627,-2.84532 -1.55349,0.26304 -2.67852,0.82977 -3.84549,1.93827 -1.31562,1.24974 -2.29251,2.93283 -2.69706,4.64649 -0.1647,0.69744 -0.0411,1.27203 0.36738,1.70685 0.70275,0.74805 1.45539,0.1515 3.23025,-2.56173 1.86141,-2.8455 3.10614,-4.04103 4.68048,-4.49355 1.20915,-0.34755 2.34792,-0.0261 3.08847,0.87246 0.41586,0.50451 0.91626,1.66794 1.03419,2.40468 l 0.0779,0.48516 -1.15371,0.53202 c -3.18813,1.47045 -5.83947,3.7713 -7.64709,6.59592 l -2.25174,-0.93693 c -0.29874,-0.12432 -1.23147,-0.63441 -2.10939,-1.05762 -1.86498,-0.89904 -1.83813,-0.86331 -1.83105,-2.42166 0.006,-1.27209 -0.0685,-1.56195 -0.42012,-1.63419 -0.44178,-0.0907 -0.63462,0.46716 -0.6504,1.88379 l -0.009,0.77403 -0.93279,0 c -1.10316,0 -2.28579,0.26181 -2.97483,0.65448 -0.56946,0.32457 -0.65883,0.53343 -0.33045,0.77286 0.18906,0.13785 0.50556,0.11568 1.73202,-0.12012 0.82539,-0.15864 1.52406,-0.28362 1.55274,-0.27774 0.0288,0.006 -0.25518,0.36021 -0.63105,0.78693 -0.85749,0.9735 -0.96783,1.19319 -0.76818,1.53162 0.0856,0.14502 0.19137,0.27114 0.23496,0.28008 0.0436,0.009 0.53127,-0.4266 1.08399,-0.96795 l 1.00548,-0.98439 0.23028,1.26738 c 0.30396,1.6728 0.45588,2.1003 0.75291,2.11818 0.19299,0.0114 0.24915,-0.0672 0.31641,-0.44181 0.0659,-0.36786 -0.0931,-1.72602 -0.33399,-2.85117 -0.0309,-0.14445 0.2463,-0.0264 1.15254,0.49218 0.65607,0.37542 1.60794,0.86115 2.11584,1.07931 l 2.45154,1.08456 c -0.11274,0.20751 -0.22191,0.41706 -0.32577,0.62931 l -0.50391,1.03008 -1.92714,-0.041 c -3.88092,-0.083 -6.50181,0.72933 -8.08536,2.50605 -0.84153,0.94416 -1.12488,1.74507 -1.05879,2.99121 0.0555,1.04706 0.25587,1.56441 0.93927,2.4246 0.99657,1.25439 2.82939,2.32053 4.59666,2.67423 0.77109,0.15429 1.4499,0.19131 2.80137,0.15291 l 1.78419,-0.0504 0.33282,1.06875 c 0.39411,1.26429 1.17444,2.83638 1.96347,3.95625 1.31439,1.86558 3.67743,3.80652 5.70177,4.68339 1.05267,0.45597 2.71968,0.96591 3.58125,1.09512 0.37086,0.0556 0.54285,0.13482 0.50505,0.23319 -0.0314,0.082 -0.008,0.3669 0.0516,0.63342 l 0.10899,0.48456 -1.58907,0.14649 c -1.92024,0.17664 -3.60834,0.45537 -4.16484,0.68787 -0.34542,0.14436 -0.40455,0.22491 -0.37206,0.50685 0.0636,0.5523 0.5313,0.69516 2.42343,0.74004 2.61543,0.062 6.46812,-0.53646 6.96153,-1.08165 0.29715,-0.32835 0.0712,-0.53397 -0.94512,-0.86133 -0.90912,-0.29277 -1.43028,-0.67185 -1.43028,-1.04061 0,-0.21492 0.0926,-0.22545 1.56504,-0.17226 2.12898,0.0769 4.92597,-0.24219 6.75468,-0.76992 0.23679,-0.0683 0.26307,-0.0171 0.3252,0.63339 0.0372,0.38898 -0.16365,1.2627 -0.14238,1.36053 0.0358,0.16488 -0.0982,0.1896 -1.82928,0.33282 -2.51178,0.20784 -3.05802,0.55185 -3.37092,1.11738 -0.35283,0.63768 0.42429,0.61692 1.75782,0.7758 1.90218,0.22659 5.8902,-0.10128 7.26327,-0.59709 1.19055,-0.42987 0.95442,-0.81693 -0.69081,-1.13202 -1.22799,-0.2352 -1.59228,-0.32019 -1.92948,-0.74883 -0.31593,-0.40173 -0.0691,-1.06929 0.23847,-1.64298 0.13338,-0.24882 0.24426,-0.50772 0.24669,-0.57537 0.003,-0.0677 0.42504,-0.31389 0.93924,-0.54729 3.39903,-1.54272 6.06483,-4.41564 7.56855,-8.00214 l 1.93653,1.88088 c 0,0 0.003,0.87828 0.61818,1.67871 -1.65642,2.70987 -2.63751,4.48515 -2.98887,5.12634 -0.68808,1.30359 -0.73761,1.28112 -1.02252,1.91316 -0.035,0.0803 -0.0733,0.16983 -0.10959,0.26427 -0.032,0.083 -0.0778,0.20844 -0.10956,0.32517 -0.40914,1.53696 1.89027,2.15973 2.3127,0.62637 0,0.005 0.005,-0.0159 0.03,-0.0797 0.0213,-0.0536 0.0484,-0.11859 0.0756,-0.18222 0.4518,-1.014 0.27477,-0.73905 0.81864,-1.81347 0.33708,-0.66321 1.19949,-2.31708 2.80372,-5.01915 1.33251,0.44877 1.92951,0.0554 2.45037,-1.24689 0.3675,-0.91863 0.50679,-1.94994 0.0744,-2.86287 1.61307,-2.55096 3.80619,-5.8953 6.67383,-9.98322 0.5805,-0.82749 1.22439,-1.64541 1.86033,-2.50605 0.285,-0.38568 0.56922,-0.78393 0.85725,-1.18242 1.33686,0.66972 2.07408,1.04145 3.3255,1.66806 1.53843,0.77034 3.08319,1.52766 4.63242,2.2758 0.0883,0.0427 0.17664,0.0849 0.26499,0.1275 0.10332,-0.0153 0.20643,-0.0332 0.30855,-0.0551 1.07589,-0.22983 2.2452,-0.86283 3.31533,-1.71957 1.08138,-0.86574 2.11275,-2.00028 2.9013,-3.29697 0.75567,-1.2426 1.2996,-2.65257 1.43937,-4.1334 0.14037,-1.48725 -0.31392,-3.5649 -1.15287,-5.058 -6.40731,-3.18594 -13.05777,-6.45519 -18.46875,-9.10017 l 0,0 z m -26.74288,9.95268 c 1.24008,0.0416 1.96098,0.11988 2.24238,0.24318 0.22818,0.1 0.52698,0.18456 0.66387,0.18807 0.35544,0.009 1.68714,0.47001 2.53947,0.87891 4.08252,1.95867 7.13211,6.53106 8.37831,12.5625 0.6726,3.25533 0.24966,6.03012 -1.40919,9.24201 -0.76704,1.48512 -1.53108,2.49432 -2.83593,3.74706 -2.29992,2.208 -5.07294,3.46125 -8.90331,4.02363 -1.54029,0.22614 -4.725,0.31326 -5.89863,0.16113 -4.76487,-0.61758 -8.36226,-3.05706 -10.3383,-7.00956 -0.38412,-0.76836 -1.11855,-2.75718 -1.11855,-3.02871 0,-0.0937 0.36345,-0.27084 0.87423,-0.426 2.14125,-0.65037 4.16559,-2.05473 4.65702,-3.23085 0.70695,-1.69197 -1.15434,-4.8087 -3.60351,-6.03399 -0.47829,-0.23928 -0.94431,-0.43476 -1.03536,-0.43476 -0.091,0 -0.16533,-0.0684 -0.16524,-0.15174 0,-0.26067 1.00617,-2.11263 1.55742,-2.86818 1.38219,-1.89432 6.39825,-5.56878 9.45411,-6.9252 1.92576,-0.78717 3.19044,-0.98655 4.94121,-0.9375 z m -8.74161,4.71618 c -0.39441,-9e-5 -0.82515,0.9054 -1.57908,3.18924 -0.74151,2.24619 -0.90801,3.10404 -0.65979,3.40314 0.0859,0.10341 0.21612,0.16932 0.28947,0.14589 0.37362,-0.11937 1.60008,-3.12984 2.14629,-5.26818 0.27231,-1.06599 0.27576,-1.12929 0.0738,-1.33125 -0.0907,-0.0906 -0.1797,-0.13884 -0.27072,-0.13884 z m 2.95899,0.73884 c -0.0412,-0.003 -0.0775,0.0147 -0.11133,0.0487 -0.37263,0.37263 -1.69335,4.40307 -1.69335,5.16795 0,0.20538 0.0906,0.47337 0.20097,0.59532 0.11037,0.12195 0.22239,0.22206 0.24963,0.22206 0.21471,0 1.13355,-2.63988 1.60311,-4.60605 0.24456,-1.02435 0.24429,-1.03062 0.007,-1.26855 -0.10509,-0.10506 -0.18675,-0.15699 -0.25548,-0.15939 z m 14.24472,8.09475 c -0.28851,0 -1.51197,0.53886 -4.92771,2.17029 -3.18108,1.29786 -6.16437,2.97591 -8.5758,4.0752 -6.40464,2.91393 -8.66724,4.02885 -8.70702,4.29024 -0.0341,0.22434 0.0213,0.25488 0.46992,0.25488 0.53847,0 1.38351,-0.33105 4.46952,-1.7496 1.06386,-0.48903 1.77903,-0.75477 1.8258,-0.67911 0.0423,0.0684 0.55821,0.37005 1.14666,0.67032 0.97383,0.49689 1.14804,0.54609 1.93947,0.54609 0.75438,0 0.94392,-0.0475 1.43262,-0.35742 0.45438,-0.28818 0.8193,-0.70668 1.25448,-1.43847 0.0123,-0.0207 0.22587,0.0478 0.4746,0.15174 0.24876,0.10392 0.74367,0.18927 1.09983,0.18927 l 0.64746,0 0.48924,0.72069 c 0.26922,0.39645 0.48927,0.75639 0.48927,0.79983 0,0.0434 -0.22107,0.33012 -0.49161,0.6375 -1.04589,1.18815 -2.29686,3.67167 -2.29686,4.56033 0,0.28464 0.41157,0.91377 0.52206,0.79806 0.0319,-0.0334 0.28836,-0.71505 0.57012,-1.51524 0.58695,-1.66692 0.96978,-2.47467 1.48182,-3.1248 0.68652,-0.87168 1.91235,-1.51173 3.28596,-1.71621 l 0.58593,-0.0873 -0.84903,1.05 c -0.46704,0.57735 -1.0035,1.34373 -1.19181,1.70331 l -0.34218,0.65391 c 0.13848,0.23199 0.33897,0.38106 0.54609,0.54609 l 1.42383,-1.40097 c 1.78044,-1.75131 3.69003,-3.52113 3.74238,-3.46875 0.0838,0.0838 -0.84243,2.71074 -1.07754,3.05625 -0.13614,0.20007 -0.58005,0.70869 -0.9867,1.13085 -0.77235,0.80178 -1.41195,1.18272 -3.40665,2.02851 -1.87971,0.79704 -2.40879,1.23498 -1.92948,1.59726 0.53259,0.4026 2.37411,-0.0499 3.89004,-0.95565 3.42459,-2.04615 6.2019,-8.5212 5.35899,-12.49395 -0.33303,-1.56924 -1.29297,-2.64315 -2.3637,-2.64315 z m -6.76992,4.24335 c 0.21294,0 0.29826,0.28665 0.29826,1.00254 0,0.73875 -0.33333,1.30506 -0.93867,1.59375 -0.48246,0.23007 -1.6473,0.2559 -1.81992,0.0404 -0.17541,-0.21894 -0.65988,-1.19832 -0.61407,-1.24161 0.11712,-0.1107 2.94756,-1.39512 3.0744,-1.39512 z m -4.24863,1.96581 c 0.0156,0.0189 0.12795,0.24729 0.24903,0.50685 0.21408,0.45894 0.21369,0.48405 -0.0141,0.90936 -0.14946,0.27918 -0.4299,0.53547 -0.7752,0.70959 -0.61539,0.31032 -1.36686,0.35151 -1.84746,0.10077 -0.39942,-0.20838 -0.88914,-0.65187 -0.80859,-0.73242 0.0972,-0.0972 3.16557,-1.53156 3.19629,-1.49415 z"
         style="display:inline;fill:url(#linearGradient13692);fill-opacity:1;fill-rule:evenodd;stroke:none;stroke-width:0.26458332px;stroke-linecap:butt;stroke-linejoin:miter;stroke-opacity:1"
         inkscape:connector-curvature="0" />
      <g
         transform="matrix(0.50956737,0,0,0.50956734,640.65064,52.488129)"
         id="g10486">
        <g
           inkscape:label="Layer 1"
           id="g10488"
           style="display:inline"
           transform="matrix(2.6961041,0,0,2.6961041,-4249.4327,-177.28837)">
          <path
             inkscape:connector-curvature="0"
             id="path10490"
             style="font-style:normal;font-variant:normal;font-weight:bold;font-stretch:normal;font-size:11.36749935px;line-height:125%;font-family:Hussar;-inkscape-font-specification:'Hussar Bold';letter-spacing:0px;word-spacing:0px;display:inline;opacity:1;fill:#13628e;fill-opacity:1;fill-rule:evenodd;stroke:none;stroke-width:0.28418744px;stroke-linecap:butt;stroke-linejoin:miter;stroke-opacity:1"
             d="m 1000.6774,73.439855 c -0.201,0 -0.2872,-0.164827 -0.2872,-0.337094 l 0,-1.342389 0.7754,7e-6 c 0.043,0 0.078,-0.21695 0.078,-0.484579 0,-0.267628 -0.035,-0.484578 -0.078,-0.484578 l -0.7754,0 0,-1.37106 c 0,-0.05644 -0.2844,-0.102212 -0.63521,-0.102212 -0.35078,0 -0.63517,0.04578 -0.63517,0.102212 l 0,1.37106 -0.53137,0 c -0.0431,0 -0.078,0.21695 -0.078,0.484578 0,0.267629 0.0351,0.484579 0.078,0.484579 l 0.53137,-7e-6 0,1.4142 c 0,0.653235 0.24385,1.406661 1.25598,1.406661 0.5241,0 0.9333,-0.229703 0.9333,-0.229703 0.046,-0.0216 0.012,-0.255147 -0.075,-0.538556 -0.087,-0.283415 -0.1586,-0.527188 -0.2627,-0.472402 -0.048,0.03127 -0.1665,0.09928 -0.2937,0.09928 z m 6.2961,0.33528 c -0.1189,-0.243807 -0.2472,-0.436829 -0.2864,-0.406799 0,0 -0.2371,0.172194 -0.6175,0.172194 -0.481,0 -0.8757,-0.401976 -0.8757,-0.911642 0,-0.502492 0.3947,-0.904454 0.8757,-0.904454 0.3804,0 0.6175,0.172194 0.6175,0.172194 0.046,0.02756 0.1664,-0.159773 0.2853,-0.399605 0.1189,-0.239831 0.184,-0.439279 0.1454,-0.468904 0,0 -0.4164,-0.344739 -1.2348,-0.344739 -1.0696,0 -2.0386,0.875935 -2.0386,1.959883 0,1.076768 0.9762,1.93797 2.0386,1.93797 0.8184,0 1.2348,-0.330006 1.2348,-0.330006 0.036,-0.02941 -0.025,-0.232293 -0.1443,-0.476092 z m -10.38032,0.800818 c 0.35084,0 0.63517,-0.04578 0.63517,-0.102211 l 0,-2.71337 0.84729,7e-6 c 0.0431,0 0.078,-0.21695 0.078,-0.484579 0,-0.267628 -0.0351,-0.484578 -0.078,-0.484578 l -0.84729,0 0,-0.423473 c 0,-0.509666 0.0721,-0.725066 0.39509,-0.725066 0.20815,0 0.38032,0.100642 0.38032,0.100642 0.0431,0.02292 0.17185,-0.165047 0.29473,-0.412821 0.12289,-0.247774 0.19172,-0.44917 0.15032,-0.484439 0,0 -0.40185,-0.330357 -1.04789,-0.330357 -0.91883,0 -1.44297,0.739302 -1.44297,1.816096 l 0,0.459418 -0.5313,0 c -0.0431,0 -0.078,0.21695 -0.078,0.484578 0,0.267629 0.0351,0.484579 0.078,0.484579 l 0.5313,-7e-6 0,2.71337 c 0,0.05644 0.28439,0.102211 0.63523,0.102211 z m -1.51525,-3.784731 c 0,-0.05644 -0.2844,-0.102212 -0.63524,-0.102212 -0.35077,0 -0.63517,0.04578 -0.63517,0.102212 l 0,3.68252 c 0,0.05644 0.2844,0.102211 0.63517,0.102211 0.35084,0 0.63524,-0.04578 0.63524,-0.102211 z m -1.57964,0.121873 c 0,0 -0.33037,-0.229715 -0.80417,-0.229715 -0.725,0 -1.12698,0.639144 -1.12698,0.639144 l -0.0146,0 0,-0.531302 c 0,-0.05644 -0.2844,-0.102212 -0.63524,-0.102212 -0.35077,0 -0.63517,0.04578 -0.63517,0.102212 l 0,3.68252 c 0,0.05644 0.2844,0.102211 0.63517,0.102211 0.35084,0 0.63524,-0.04578 0.63524,-0.102211 l 0,-1.938314 c 0,-0.09332 0.0934,-0.746298 0.75381,-0.746298 0.30785,0 0.51566,0.108286 0.60834,0.164145 0.11494,0.06925 0.33196,-0.312809 0.44153,-0.534575 0.10951,-0.221766 0.19344,-0.470706 0.14184,-0.505605 z m -3.71298,-2.14844 c 0,-0.05644 -0.28452,-0.102238 -0.63543,-0.102238 -0.35091,0 -0.63537,0.04578 -0.63537,0.102238 l 0,2.378143 c -0.30149,-0.294313 -0.71076,-0.459418 -1.20601,-0.459418 -1.07677,0 -1.83052,0.875928 -1.83052,1.952696 0,1.076767 0.75375,1.945157 1.83052,1.945157 0.50247,0 0.93321,-0.222276 1.20601,-0.523777 l 0.0146,0 0,0.416286 c 0,0.05585 0.28129,0.101085 0.62822,0.101085 0.34693,0 0.62821,-0.04525 0.62821,-0.101085 z m -18.23734,2.414088 -0.007,0 -0.007,0 0,-0.387521 c 0,-0.05644 -0.2844,-0.102212 -0.63524,-0.102212 -0.35084,0 -0.63524,0.04578 -0.63524,0.102212 l 0,3.68252 c 0,0.05644 0.2844,0.102211 0.63524,0.102211 0.35084,0 0.63524,-0.04578 0.63524,-0.102211 l 0,-2.081751 c 0,-0.366103 0.37336,-0.717885 0.75381,-0.717885 0.40914,0 0.66035,0.351782 0.66035,0.717885 l 0,2.081751 c 0,0.05644 0.28446,0.102238 0.63536,0.102238 0.35091,0 0.63537,-0.04578 0.63537,-0.102238 l 0,-2.42649 c 0,-1.026513 -0.94036,-1.363872 -1.61515,-1.363872 -0.40198,0 -0.76826,0.208225 -1.05537,0.495363 z m 13.45668,-0.505367 c -0.40444,0 -0.70771,0.05757 -0.73229,0.117826 l -0.76455,1.87487 -0.84027,-1.87487 c -0.0159,-0.03544 -0.19608,-0.07045 -0.43788,-0.07045 -0.2418,0 -0.42193,0.03498 -0.43783,0.07045 l -0.84033,1.87487 -0.76488,-1.87487 c -0.0245,-0.06022 -0.32779,-0.117799 -0.73209,-0.117799 -0.40436,0 -0.76064,0.05936 -0.73209,0.117799 l 1.79859,3.68252 c 0.0166,0.03438 0.19284,0.0693 0.43067,0.0693 0.23789,0 0.4143,-0.03471 0.43067,-0.0693 l 0.84729,-1.788949 0.84696,1.788949 c 0.0166,0.03458 0.19284,0.0693 0.43066,0.0693 0.23783,0 0.41384,-0.03491 0.43067,-0.0693 l 1.79899,-3.68252 c 0.0285,-0.05843 -0.32786,-0.117826 -0.73229,-0.117826 z m 9.45606,-1.916691 c -0.41636,0 -0.75381,0.337134 -0.75381,0.753486 0,0.416351 0.33745,0.75383 0.75381,0.75383 0.41636,0 0.75349,-0.337479 0.75349,-0.75383 0,-0.416352 -0.33713,-0.753486 -0.75349,-0.753486 z m -26.37583,5.824528 c 0.75375,0 1.7442,-0.172088 1.7442,-1.25603 0,-0.753737 -0.63166,-1.026553 -1.11983,-1.177303 -0.3158,-0.100496 -0.57409,-0.158103 -0.57409,-0.35192 0,-0.17228 0.1148,-0.222522 0.39476,-0.222522 0.38761,0 0.81847,0.229716 0.81847,0.229716 0.0371,0.01848 0.16019,-0.152883 0.27519,-0.382791 0.11494,-0.229908 0.17814,-0.431277 0.14111,-0.449779 0,0 -0.52415,-0.287224 -1.23477,-0.287224 -0.96912,0 -1.608,0.430753 -1.608,1.18449 0,0.55274 0.37337,0.811286 0.74667,1.005103 0.41635,0.215353 0.8182,0.236949 0.8182,0.502551 0,0.244064 -0.2153,0.265654 -0.39476,0.265654 -0.40914,0 -0.91161,-0.423811 -0.91161,-0.423811 -0.0384,-0.02299 -0.18563,0.15291 -0.32839,0.392834 -0.14276,0.239931 -0.22444,0.44552 -0.18853,0.47602 0,0 0.53123,0.495012 1.42138,0.495012 z m 8.7296,-3.897853 c -1.24191,0 -2.21805,0.804144 -2.21805,1.952696 0,1.134196 0.89001,1.945157 2.21805,1.945157 1.27054,0 2.19673,-0.810961 2.19673,-1.945157 0,-1.148552 -0.9764,-1.952696 -2.19673,-1.952696 z m 32.60122,0 c -1.2419,0 -2.218,0.804144 -2.218,1.952696 0,1.134196 0.89,1.945157 2.218,1.945157 1.2706,0 2.1968,-0.810961 2.1968,-1.945157 0,-1.148552 -0.9764,-1.952696 -2.1968,-1.952696 z m 4.677,0 c -1.2419,0 -2.2183,0.804144 -2.2183,1.952696 0,1.134196 0.8903,1.945157 2.2183,1.945157 1.2706,0 2.1964,-0.810961 2.1964,-1.945157 0,-1.148552 -0.976,-1.952696 -2.1964,-1.952696 z m 3.8428,3.438441 c 0.3015,0.294313 0.7107,0.459412 1.206,0.459412 1.0768,0 1.8305,-0.875577 1.8305,-1.952345 0,-1.076767 -0.7537,-1.945508 -1.8305,-1.945508 -0.5025,0 -0.9333,0.222627 -1.2061,0.524121 l -0.015,0 0,-0.416279 c 0,-0.05578 -0.2811,-0.101052 -0.628,-0.101052 -0.3468,0 -0.628,0.04525 -0.628,0.101052 l 0,5.309337 c 0,0.05644 0.2844,0.102211 0.6353,0.102211 0.3508,0 0.6351,-0.04578 0.6351,-0.102211 z m -41.12824,-2.354234 c 0.4738,0 0.85412,0.358836 0.85412,0.868509 0,0.502491 -0.35879,0.861321 -0.85412,0.861321 -0.51685,0 -0.86133,-0.35883 -0.86133,-0.861321 0,-0.509673 0.38039,-0.868509 0.86133,-0.868509 z m 10.02022,0.868509 c 0,0.502491 0.34481,0.861321 0.86167,0.861321 0.49532,0 0.85411,-0.35883 0.85411,-0.861321 0,-0.509673 -0.38032,-0.868509 -0.85411,-0.868509 -0.48095,0 -0.86167,0.358836 -0.86167,0.868509 z m 22.58102,-0.868509 c 0.4738,0 0.8541,0.358836 0.8541,0.868509 0,0.502491 -0.3587,0.861321 -0.8541,0.861321 -0.5168,0 -0.8613,-0.35883 -0.8613,-0.861321 0,-0.509673 0.3804,-0.868509 0.8613,-0.868509 z m 4.677,0 c 0.4738,0 0.8542,0.358836 0.8542,0.868509 0,0.502491 -0.3589,0.861321 -0.8542,0.861321 -0.5168,0 -0.8613,-0.35883 -0.8613,-0.861321 0,-0.509673 0.3804,-0.868509 0.8613,-0.868509 z m 4.6757,0 c 0.5168,0 0.8613,0.358829 0.8613,0.861321 0,0.509666 -0.3804,0.868509 -0.8613,0.868509 -0.4738,0 -0.8545,-0.358843 -0.8545,-0.868509 0,-0.502492 0.3592,-0.861321 0.8545,-0.861321 z m -16.0712,1.170108 c -0.4522,0 -0.8182,0.365951 -0.8182,0.825376 0,0.452244 0.366,0.818182 0.8182,0.818182 0.4594,0 0.8254,-0.365938 0.8254,-0.818182 0,-0.459425 -0.366,-0.825376 -0.8254,-0.825376 z m -40.40552,1.085333 c 0.57277,-0.637653 0.16443,-1.583532 -0.91201,-2.112734 0.0384,0.03445 0.24293,-0.13079 0.45703,-0.369078 0.21411,-0.238281 0.35654,-0.459365 0.31818,-0.493819 -1.07643,-0.529202 -2.41328,-0.44132 -2.98611,0.196274 -0.57277,0.637654 -0.16443,1.583519 0.91207,2.112707 -0.0384,-0.03445 -0.24299,0.130797 -0.45709,0.369085 -0.21405,0.238282 -0.35654,0.459372 -0.31819,0.493827 1.07651,0.529195 2.41336,0.441313 2.98612,-0.196262 z m -4.98318,-4.434952 c -1.2551,1.397327 -0.36031,3.470055 1.99865,4.629717 -0.0841,-0.07548 -0.53248,0.286614 -1.00157,0.808781 -0.46916,0.522166 -0.78131,1.006652 -0.69731,1.082147 2.35896,1.159668 5.28851,0.96709 6.54374,-0.430072 1.2551,-1.397333 0.36032,-3.470094 -1.99865,-4.629762 0.084,0.07549 0.53242,-0.286608 1.00151,-0.808775 0.46916,-0.522166 0.78131,-1.006659 0.69731,-1.082146 -2.35896,-1.159668 -5.28844,-0.96709 -6.54368,0.43011 z" />
        </g>
      </g>
      <g
         transform="matrix(0.63773834,0,0,0.6377383,-407.70465,-236.82698)"
         id="g10514"
         style="display:inline">
        <g
           transform="translate(-3.2252415,-94.338314)"
           id="g10516">
          <g
             id="text10518"
             style="font-style:normal;font-variant:normal;font-weight:bold;font-stretch:normal;font-size:12.29141808px;line-height:125%;font-family:Nina;-inkscape-font-specification:'Nina Bold';letter-spacing:0px;word-spacing:0px;fill:url(#linearGradient13722);fill-opacity:1;stroke:none;stroke-width:1px;stroke-linecap:butt;stroke-linejoin:miter;stroke-opacity:1"
             transform="translate(0.75000001,-3.5)">
            <path
               inkscape:connector-curvature="0"
               id="path10645"
               style="fill:url(#linearGradient5652);fill-opacity:1"
               d="m 324.84566,714.9472 q -0.0872,0.0973 -0.23578,0.30109 -0.33241,0.0157 -1.24538,-0.059 -0.13867,-0.0203 -0.19968,-0.0129 -0.75649,0.092 -1.43927,0.48463 -0.68426,0.38041 -1.34116,0.78225 0.0745,0.51098 0.23582,1.53145 0.12828,-0.0651 1.06317,-0.62461 0.71642,-0.42146 1.01552,-0.50738 0.57857,-0.23134 1.15914,-0.141 l 0.21419,0.23397 q -0.0152,-0.0229 -0.0196,-0.0595 0.17611,0.22621 0.20134,0.43364 0.0564,0.46365 -1.18566,1.24623 -0.86762,0.50176 -1.74892,0.99281 -0.18631,0.097 -0.44914,0.27752 0.31298,1.24965 0.73052,3.15522 0.15205,1.04636 -0.42306,1.6116 -0.38451,0.0963 -0.98701,-0.27616 -0.38289,-1.31544 -1.08473,-4.84562 -0.6329,-3.1671 -0.7175,-3.86259 -0.0579,-0.47585 0.26182,-0.79953 0.24468,-0.22788 0.50091,-0.25905 0.20743,-0.0252 0.43563,0.12036 0.24041,0.1441 0.27701,0.13965 0.41402,-0.26086 0.84948,-0.54909 1.02656,-0.62015 2.02708,-0.74186 0.14642,-0.0178 0.30026,0.0254 0.25738,0.0801 0.25738,0.0801 0.0961,-0.0241 0.19374,-0.0359 0.51247,-0.0623 0.9537,0.20592 0.44124,0.26826 0.49022,0.67091 0.0341,0.28063 -0.09,0.48146 z" />
            <path
               inkscape:connector-curvature="0"
               id="path10647"
               style="fill:url(#linearGradient5654);fill-opacity:1"
               d="m 332.62957,723.72001 q -0.20427,-0.066 -2.21197,-1.85329 -1.51953,-1.35455 -2.2181,-1.91444 0.16333,1.75012 0.1647,2.13293 -0.0165,1.55816 -0.64998,1.76999 l -0.45251,0.0454 q -0.4501,-0.0536 -0.60479,-1.59461 -0.11909,-1.18631 0.005,-1.79176 l -0.12646,-1.25969 q -0.32048,-0.11606 -0.9639,-0.37266 l -0.0933,-0.92947 q 0.43154,-0.50039 0.94765,-0.52749 l -0.36066,-2.85445 q 0.19908,-0.72411 1.33509,-1.2211 1.05286,-0.46394 2.6183,-0.62109 0.88055,-0.0884 1.85909,0.18397 1.51184,0.41648 1.63825,1.55264 0.15828,1.33061 -1.91302,2.72445 -1.44649,0.97287 -2.96531,1.47122 l 0.10501,-0.43055 q 0.0269,0.022 0.77564,0.58921 3.92954,2.9656 4.02899,3.95623 0.0945,0.9417 -0.60258,1.01168 -0.2446,0.0246 -0.46724,-0.10133 l 0.15167,0.0342 z m -2.57443,-9.40177 q -0.39135,0.0393 -1.1752,0.35269 -0.66524,0.26443 -1.07487,0.49085 l 0.276,2.1341 q 1.36475,-0.43348 2.32955,-0.91328 1.57497,-0.80047 1.4683,-1.49389 -0.065,-0.52466 -0.81478,-0.60999 -0.28743,-0.0329 -1.009,0.0395 z" />
            <path
               inkscape:connector-curvature="0"
               id="path10649"
               style="fill:url(#linearGradient5656);fill-opacity:1"
               d="m 335.30466,713.03358 q 0.18276,-0.0273 1.51471,-0.6296 1.43819,-0.66033 2.19772,-0.72249 0.14701,-0.012 0.46151,-0.0871 0.3145,-0.0751 0.49926,-0.0779 0.75028,-0.0244 1.28297,0.75828 -0.23063,0.64783 -1.39163,0.92783 -1.04051,0.24548 -2.08202,0.4787 -1.17949,0.35551 -1.69589,0.9774 -0.67487,0.79518 -0.48908,2.16122 0.0408,0.046 0.15101,0.037 -0.0122,0.001 1.6567,-0.70288 1.73944,-0.74664 2.46322,-0.79354 0.41207,0.21292 0.40016,0.6702 -0.0441,0.81756 -1.33305,1.34235 -1.15198,0.39025 -2.30497,0.76826 -1.18372,0.45452 -1.05407,1.13453 0.10737,0.55851 0.23868,0.80674 0.21583,0.37698 0.63235,0.34289 0.55127,-0.0451 1.37951,-0.32255 1.03148,-0.35573 1.19842,-0.72703 l 1.15733,0.12727 q 0.0448,0.095 0.0538,0.20525 0.0642,0.78403 -1.458,1.62389 -1.29842,0.71055 -2.13145,0.77872 -1.1883,0.0973 -1.96076,-0.75214 -0.67569,-0.72165 -0.7599,-1.75069 -0.0231,-0.28176 0.0181,-0.53178 0.0414,-0.39803 0.0287,-1.45758 -0.0144,-1.98436 0.0427,-2.64266 0.16412,-1.91263 0.88289,-2.02079 0.25525,-0.0456 0.40103,0.0782 z" />
            <path
               inkscape:connector-curvature="0"
               id="path10651"
               style="fill:url(#linearGradient5658);fill-opacity:1"
               d="m 343.32463,716.9994 q 0.30165,-0.0942 1.68552,-0.76617 1.21794,-0.57461 1.43869,-0.58944 l 1.09148,-0.0733 0.0709,1.05469 q -1.15231,1.00136 -2.47001,1.55803 -0.64988,0.22845 -1.92347,0.70824 -0.0163,0.12429 0.0167,0.61484 0.056,0.83393 0.29903,1.15022 0.24217,0.30403 0.79404,0.26694 0.62545,-0.042 1.65047,-0.55439 1.48847,-0.76524 1.59638,-0.80945 l 0.34842,0.23529 q -0.0139,-0.0237 -0.0156,-0.0482 0.16694,0.28444 0.18095,0.49292 0.0363,0.53961 -0.81944,1.18842 -0.64566,0.47456 -1.65027,0.92396 -0.83787,0.36427 -1.05861,0.37911 -1.79051,0.12031 -2.49847,-1.24882 -0.41003,-0.78552 -0.5254,-2.50244 -0.0832,-1.23864 0.14799,-3.11437 0.34523,-2.74572 1.25274,-2.8067 0.12264,-0.008 0.32298,0.0399 0.21178,0.035 0.32216,0.0276 0.36791,-0.0247 1.83845,-0.69021 1.54164,-0.70723 2.24068,-0.7542 0.29433,-0.0198 0.50456,0.17552 0.22249,0.19448 0.23815,0.42749 0.0124,0.18396 -0.1176,0.2666 -0.55963,0.83835 -1.57732,1.27631 -0.96298,0.33572 -1.92677,0.65919 -0.77087,0.26122 -1.06336,0.67508 -0.42977,0.57092 -0.39395,1.83739 z" />
            <path
               inkscape:connector-curvature="0"
               id="path10653"
               style="fill:url(#linearGradient5660);fill-opacity:1"
               d="m 357.47371,712.59863 q -0.0106,0.0374 -0.0207,0.0871 -0.49118,0.0218 -1.49019,0.52138 -0.99902,0.49957 -1.55159,0.5241 -0.38066,0.0169 -0.60576,-0.34221 -0.17162,-0.26306 -0.18525,-0.57005 -0.0224,-0.50345 1.56963,-1.2262 1.26644,-0.57297 3.14957,-1.11179 1.68884,-0.48098 2.26596,-0.5066 1.31389,-0.0583 1.34987,0.75211 0.0196,0.44206 -0.54879,0.66414 -0.24177,0.0969 -1.10869,0.24608 -0.63417,0.12657 -0.72532,0.29057 -1.32439,2.59331 -1.03496,9.11363 0.0442,0.99463 -1.1101,1.04587 -0.17191,0.008 -0.35719,-0.009 -0.35851,-0.86993 -0.3765,-1.27515 -0.0621,-1.39985 0.38334,-4.11409 0.44493,-2.72653 0.39671,-4.09008 z" />
            <path
               inkscape:connector-curvature="0"
               id="path10655"
               style="fill:url(#linearGradient5662);fill-opacity:1"
               d="m 366.96346,715.37508 q 0.007,-0.17239 0.0856,-1.1465 0.0723,-0.80172 0.0563,-1.29312 -0.032,-0.98279 -0.39318,-1.49984 0.16799,-0.12845 0.33158,-0.39203 0.22261,-0.3393 0.50516,-0.3485 0.57739,-0.0188 1.12324,0.50453 l 0.18003,5.52821 q 0.0388,1.19164 0.48809,2.14854 0.0401,0.0971 0.0421,0.15851 0.0216,0.66338 -0.10393,0.96262 -0.15959,0.38643 -0.74126,0.65133 -0.10857,0.065 -0.20685,0.0682 -0.61424,0.02 -0.86012,-1.86587 -0.0597,-0.69904 -0.27726,-2.09392 -1.46578,0.30599 -2.08391,0.58437 -0.50917,0.22565 -0.60973,0.53637 -0.078,0.2485 0.0558,0.95742 0.18263,1.07628 0.20383,1.72738 0.0248,0.76166 -0.23507,1.08987 -0.0234,0.0376 -0.12393,0.34838 l -0.70944,-0.25975 q -0.409,-0.0974 -0.84831,-3.3912 -0.13188,-1.02874 -0.46302,-4.39988 -0.14869,-1.5447 -0.21931,-1.82525 -0.0139,-0.0487 -0.0159,-0.11017 -0.0108,-0.33169 0.32398,-0.62545 0.34666,-0.30643 0.65378,-0.31644 0.31941,-0.0104 0.59859,0.6323 0.27919,0.6427 0.3833,1.57395 0.0846,0.71053 0.15332,2.4423 0.0515,0.0721 0.17439,0.0681 0.0123,-4e-4 0.6467,-0.15634 0.37803,-0.0984 0.75566,-0.20908 0.46323,-0.12576 0.78264,-0.13616 0.17199,-0.006 0.34717,0.0871 z" />
            <path
               inkscape:connector-curvature="0"
               id="path10657"
               style="fill:url(#linearGradient5664);fill-opacity:1"
               d="m 371.67822,715.70097 q 0.30561,-0.0804 1.7185,-0.68901 1.24273,-0.51883 1.46392,-0.52365 l 1.09368,-0.0238 0.023,1.05681 q -1.1965,0.94813 -2.53807,1.44452 -0.65957,0.19878 -1.95359,0.62037 -0.0219,0.12342 -0.0112,0.61496 0.0182,0.83562 0.24661,1.16259 0.22815,0.31469 0.78113,0.30265 0.62672,-0.0136 1.6739,-0.47904 1.52161,-0.69702 1.63141,-0.7363 l 0.33741,0.25084 q -0.0128,-0.0243 -0.0134,-0.0489 0.15388,0.29171 0.15843,0.50062 0.0118,0.54069 -0.87245,1.15007 -0.6665,0.44481 -1.69044,0.84823 -0.85351,0.32594 -1.0747,0.33076 -1.79413,0.0391 -2.43932,-1.36074 -0.37402,-0.80329 -0.41148,-2.52368 -0.027,-1.24114 0.28895,-3.10446 0.46928,-2.72726 1.37863,-2.74706 0.12288,-0.003 0.32084,0.0545 0.20997,0.0446 0.32057,0.0422 0.36865,-0.008 1.86783,-0.6062 1.57211,-0.63665 2.27256,-0.6519 0.29492,-0.006 0.49608,0.1982 0.21346,0.20436 0.21854,0.43784 0.004,0.18433 -0.12956,0.261 -0.59703,0.81213 -1.63353,1.20353 -0.97719,0.29175 -1.95465,0.57121 -0.78192,0.22603 -1.09286,0.62622 -0.45519,0.55086 -0.47679,1.81764 z" />
            <path
               inkscape:connector-curvature="0"
               id="path10659"
               style="fill:url(#linearGradient5666);fill-opacity:1"
               d="m 385.7834,720.8068 q -1.54893,-0.056 -2.41676,-2.16709 -0.65698,-1.571 -0.6124,-2.87405 0.0667,-1.99146 0.94649,-3.48183 1.07532,-1.79834 2.89444,-1.80474 1.00789,-0.004 1.61419,1.13743 0.45776,0.8465 0.46031,1.57169 0.002,0.61457 -0.27803,1.32846 -0.31676,0.80006 -0.71008,0.80145 -1.03248,0.004 -1.03589,-0.96739 -10e-4,-0.30728 0.10755,-0.87307 0.12092,-0.56583 0.1204,-0.71333 -0.002,-0.47936 -0.55479,-0.47742 -1.05706,0.004 -1.59221,1.61579 -0.34057,1.02139 -0.33763,1.85721 0.004,1.02018 0.31425,1.97782 0.43504,1.37512 1.30772,1.37205 0.66374,-0.002 1.08073,-0.26193 0.17169,-0.11123 0.63708,-0.59223 0.39189,-0.407 0.82144,-0.59288 0.3577,0.35519 0.35935,0.82226 0.004,1.15539 -1.23503,1.82349 -0.96915,0.53194 -1.89113,0.49831 z" />
            <path
               inkscape:connector-curvature="0"
               id="path10661"
               style="fill:url(#linearGradient5668);fill-opacity:1"
               d="m 392.00748,720.43039 q -2.66717,-0.019 -2.64007,-3.82921 0.0141,-1.97887 1.0463,-3.66779 1.26865,-2.09286 3.38272,-2.07782 1.47493,0.0105 2.40215,0.98813 0.93951,0.97773 0.92832,2.55099 -0.007,0.94642 -0.7791,2.39135 -0.80959,1.49383 -1.92296,2.49383 -1.26199,1.15874 -2.41736,1.15052 z m 2.35387,-7.77621 q -0.0492,-3.5e-4 -0.20983,0.12143 -0.16057,0.10948 -0.36952,0.10799 -0.34415,-0.002 -0.52668,-0.26187 l -0.0244,-0.0248 q -0.99584,0.0298 -1.63239,1.38965 -0.56175,1.21288 -0.57303,2.79844 -0.006,0.90954 0.10135,1.30364 0.21573,0.77592 0.89183,0.76843 1.10638,-0.0167 2.27267,-1.54488 1.16629,-1.52817 1.17591,-2.88019 0.003,-0.49165 -0.22628,-1.02183 -0.31423,-0.75203 -0.87962,-0.75605 z" />
            <path
               inkscape:connector-curvature="0"
               id="path10663"
               style="fill:url(#linearGradient5670);fill-opacity:1"
               d="m 407.58054,717.8026 q -0.1338,1.07902 -0.45631,1.78517 -0.34813,0.75477 -0.79052,0.74528 -0.31951,-0.007 -0.59529,-0.33242 -0.26323,-0.33759 -0.25638,-0.6571 0.006,-0.25806 0.21719,-0.95429 0.2773,-0.89153 0.30425,-1.0016 0.0857,-1.12923 0.0999,-1.79282 0.0169,-0.78647 -0.017,-1.50026 -0.64728,0.94507 -1.52588,2.93018 -0.93145,2.1561 -1.454,3.01778 -0.47408,0.32177 -0.73214,0.31623 -0.31951,-0.007 -0.58142,-0.40589 -0.33791,-0.86784 -0.40553,-2.87326 -0.0939,-2.49774 -0.17987,-3.07742 -0.55809,0.79945 -1.16555,2.7535 -0.92269,2.89394 -0.96166,2.99146 -0.52107,1.36577 -1.11093,1.35312 -0.15975,-0.003 -0.43896,-0.16925 0.0246,5.3e-4 0.0246,5.3e-4 l -0.25226,-0.27588 q -0.12674,-0.39614 -0.12305,-0.56818 0.008,-0.39323 0.85386,-2.55118 0.93619,-2.37729 1.83225,-4.03008 1.127,-2.10273 1.72915,-2.08981 1.03224,0.0222 1.43008,4.97297 0.84322,-1.48181 1.69872,-2.96335 1.40104,-2.26897 1.95403,-2.2571 0.46697,0.01 0.75003,0.56933 0.26006,0.48505 0.32947,1.26108 0.0185,0.28316 -0.015,1.84382 -0.0411,1.91702 -0.16185,2.95944 z" />
            <path
               inkscape:connector-curvature="0"
               id="path10665"
               style="fill:url(#linearGradient5672);fill-opacity:1"
               d="m 418.40408,718.21494 q -0.15283,1.07649 -0.48775,1.77683 -0.36141,0.74852 -0.80356,0.73122 -0.31933,-0.0125 -0.58933,-0.34288 -0.25723,-0.34219 -0.24473,-0.66152 0.0101,-0.25792 0.23399,-0.95031 0.293,-0.8865 0.32189,-0.99607 0.10562,-1.12755 0.13157,-1.79078 0.0308,-0.78605 0.01,-1.50033 -0.66387,0.9335 -1.57737,2.90279 -0.96936,2.13932 -1.50704,2.99164 -0.4797,0.31335 -0.73762,0.30326 -0.31933,-0.0125 -0.57416,-0.41609 -0.32254,-0.87367 -0.35475,-2.87997 -0.0498,-2.49902 -0.12551,-3.08011 -0.57212,0.78947 -1.21398,2.73248 -0.97363,2.87721 -1.01432,2.97402 -0.5451,1.35637 -1.13464,1.3333 -0.15966,-0.006 -0.4359,-0.17697 0.0246,9.7e-4 0.0246,9.7e-4 l -0.24735,-0.2803 q -0.11972,-0.39831 -0.113,-0.57026 0.0154,-0.39302 0.89877,-2.53571 0.97801,-2.36039 1.9031,-3.99711 1.16395,-2.0825 1.76577,-2.05896 1.03169,0.0404 1.34208,4.99744 0.86924,-1.46669 1.75076,-2.9329 1.44088,-2.24388 1.99357,-2.22226 0.46672,0.0183 0.73986,0.58249 0.25147,0.48957 0.30717,1.2667 0.0135,0.28345 -0.0475,1.84326 -0.075,1.916 -0.21406,2.95613 z" />
            <path
               inkscape:connector-curvature="0"
               id="path10667"
               style="fill:url(#linearGradient5674);fill-opacity:1"
               d="m 421.68976,721.28172 q -2.66299,-0.1505 -2.44799,-3.95477 0.11167,-1.97577 1.22594,-3.61171 1.37033,-2.02774 3.48108,-1.90845 1.47262,0.0832 2.35049,1.10541 0.89014,1.02288 0.80136,2.59367 -0.0534,0.94494 -0.89609,2.35001 -0.88229,1.45208 -2.04362,2.39595 -1.31762,1.09509 -2.47117,1.02989 z m 2.73455,-7.65065 q -0.0491,-0.003 -0.21556,0.11093 -0.16577,0.10143 -0.3744,0.0896 -0.34361,-0.0194 -0.51312,-0.28753 l -0.0232,-0.0259 q -0.9961,-0.0194 -1.69894,1.30744 -0.6209,1.1837 -0.71037,2.76677 -0.0513,0.90811 0.0369,1.30705 0.1772,0.78561 0.85284,0.81149 1.10586,0.0379 2.3461,-1.43091 1.24025,-1.46879 1.31654,-2.81869 0.0277,-0.49087 -0.1756,-1.03174 -0.27676,-0.76661 -0.84126,-0.79852 z" />
            <path
               inkscape:connector-curvature="0"
               id="path10669"
               style="fill:url(#linearGradient5676);fill-opacity:1"
               d="m 429.73473,716.19929 q -0.10944,0.9779 -0.38462,2.69535 -0.38459,1.69702 -1.61719,1.8645 -0.43673,-0.42677 -0.41129,-0.76998 0.01,-0.13484 0.37232,-1.36515 0.35869,-1.18128 0.40866,-1.85546 0.1308,-1.76513 -0.23054,-2.87651 -0.079,-0.26469 -0.0645,-0.46081 0.0263,-0.35548 0.5203,-0.70095 0.40361,-0.29054 0.67873,-0.3441 0.83672,-0.14753 2.45781,3.42364 0.75221,1.65801 0.85935,1.87548 0.63146,1.29163 1.05412,1.74201 0.11941,-0.44718 0.14757,-0.82717 0.29969,-1.71563 0.20984,-2.83155 0.009,-0.12258 -0.28143,-1.52453 -0.31048,-1.46504 -0.29776,-1.63665 0.0391,-0.52709 0.21022,-0.67463 0.18342,-0.14664 0.74728,-0.10485 0.82127,0.0609 1.08223,2.69313 0.17155,1.6766 0.098,2.66949 -0.13716,1.85092 -0.32832,2.60092 -0.45405,1.80279 -1.52048,1.72376 -1.1032,-0.0817 -3.52646,-4.96953 l -0.18386,-0.34641 z" />
            <path
               inkscape:connector-curvature="0"
               id="path10671"
               style="fill:url(#linearGradient5678);fill-opacity:1"
               d="m 441.22626,716.22055 q -0.33726,0.0428 -0.54532,0.0235 -0.57523,-0.0534 -0.51845,-0.66531 0.0193,-0.20806 0.0966,-0.50949 0.40073,-0.0616 0.62923,-0.26257 -0.0865,-0.13147 -0.64954,-0.18371 -2.26419,-0.21006 -2.37269,0.69334 -0.0835,0.63415 1.04434,1.51648 1.06012,0.81432 2.12023,1.62864 1.13759,1.0437 1.02997,2.07063 -0.0886,0.95463 -1.56051,1.3859 -1.09115,0.31847 -1.98458,0.23557 -3.26778,-0.30317 -3.09518,-2.16348 0.0329,-0.35493 0.29587,-0.52804 0.26295,-0.17311 0.61787,-0.14018 0.47732,0.0443 0.71705,0.38747 0.0532,0.0914 0.17425,0.25071 0.33196,0.41347 1.4457,0.5168 0.79553,0.0738 0.80776,0.0749 0.34723,-0.0172 0.7795,-0.28566 -0.2603,-0.6537 -1.43485,-1.56505 -1.54235,-1.2047 -1.8911,-1.57035 -0.91956,-0.99878 -0.82191,-2.05133 0.12491,-1.34627 1.87859,-1.88719 1.3729,-0.42811 2.76018,-0.21299 0.72979,0.11708 1.34325,0.55667 0.79792,0.58014 0.72639,1.35119 -0.05,0.53851 -0.66948,0.96246 -0.50027,0.33625 -0.92321,0.37108 z" />
          </g>
        </g>
      </g>
      <g
         transform="matrix(0.50956737,0,0,0.50956734,653.59781,369.93551)"
         id="g10486-0"
         style="display:inline">
        <g
           inkscape:label="Layer 1"
           id="g10488-9"
           style="display:inline"
           transform="matrix(2.6961041,0,0,2.6961041,-4249.4327,-177.28837)" />
      </g>
    </g>
  </g>
</svg>
