<?xml version="1.0" encoding="UTF-8" standalone="no"?>
<!-- Created with Inkscape (http://www.inkscape.org/) -->

<svg
   xmlns:osb="http://www.openswatchbook.org/uri/2009/osb"
   xmlns:dc="http://purl.org/dc/elements/1.1/"
   xmlns:cc="http://creativecommons.org/ns#"
   xmlns:rdf="http://www.w3.org/1999/02/22-rdf-syntax-ns#"
   xmlns:svg="http://www.w3.org/2000/svg"
   xmlns="http://www.w3.org/2000/svg"
   xmlns:xlink="http://www.w3.org/1999/xlink"
   xmlns:sodipodi="http://sodipodi.sourceforge.net/DTD/sodipodi-0.dtd"
   xmlns:inkscape="http://www.inkscape.org/namespaces/inkscape"
   id="svg25565"
   version="1.1"
   inkscape:version="0.91 r13725"
   width="300"
   height="90"
   viewBox="0 0 300 90"
   sodipodi:docname="crowdmatch_hover.svg"
   inkscape:export-filename="/home/mray/Projects/Snowdrift.coop/Seafile/mray/prototype-mvp/static/img/project/crowdmatch_hover.png"
   inkscape:export-xdpi="90"
   inkscape:export-ydpi="90">
  <metadata
     id="metadata25571">
    <rdf:RDF>
      <cc:Work
         rdf:about="">
        <dc:format>image/svg+xml</dc:format>
        <dc:type
           rdf:resource="http://purl.org/dc/dcmitype/StillImage" />
        <dc:title />
      </cc:Work>
    </rdf:RDF>
  </metadata>
  <defs
     id="defs25569">
    <linearGradient
       inkscape:collect="always"
       xlink:href="#linearGradient7390"
       id="linearGradient6458"
       gradientUnits="userSpaceOnUse"
       gradientTransform="matrix(0.91452408,0,0,0.58117456,1265.0476,211.49989)"
       x1="168.56194"
       y1="2218.3196"
       x2="178.29027"
       y2="2218.3196" />
    <linearGradient
       id="linearGradient7390"
       osb:paint="solid">
      <stop
         style="stop-color:#47cfec;stop-opacity:1;"
         offset="0"
         id="stop7392" />
    </linearGradient>
    <linearGradient
       id="linearGradient12392"
       osb:paint="solid"
       gradientTransform="matrix(0.07000434,0,0,0.07000434,-9.5601408e-8,510.33158)">
      <stop
         style="stop-color:#09628e;stop-opacity:1;"
         offset="0"
         id="stop12394" />
    </linearGradient>
    <linearGradient
       inkscape:collect="always"
       xlink:href="#linearGradient6794"
       id="linearGradient6463"
       gradientUnits="userSpaceOnUse"
       gradientTransform="matrix(0.07110898,0,0,0.11505675,800.16898,1703.7951)"
       x1="325.27524"
       y1="2070.6223"
       x2="351.61154"
       y2="2070.6223" />
    <linearGradient
       id="linearGradient6794"
       osb:paint="solid">
      <stop
         style="stop-color:#5ecce6;stop-opacity:1;"
         offset="0"
         id="stop6796" />
    </linearGradient>
    <linearGradient
       inkscape:collect="always"
       xlink:href="#linearGradient7390"
       id="linearGradient7271"
       gradientUnits="userSpaceOnUse"
       gradientTransform="matrix(0.91452408,0,0,0.8717587,1265.0476,-655.08456)"
       x1="168.56194"
       y1="2218.3196"
       x2="178.29027"
       y2="2218.3196" />
    <linearGradient
       inkscape:collect="always"
       xlink:href="#linearGradient7390"
       id="linearGradient26282"
       gradientUnits="userSpaceOnUse"
       gradientTransform="matrix(0.91452408,0,0,0.8717587,1265.0476,-655.08456)"
       x1="168.56194"
       y1="2218.3196"
       x2="178.29027"
       y2="2218.3196" />
    <linearGradient
       inkscape:collect="always"
       xlink:href="#linearGradient7390"
       id="linearGradient26286"
       gradientUnits="userSpaceOnUse"
       gradientTransform="matrix(0.91452408,0,0,0.8717587,1265.0476,-655.08456)"
       x1="168.56194"
       y1="2218.3196"
       x2="178.29027"
       y2="2218.3196" />
    <linearGradient
       inkscape:collect="always"
       xlink:href="#linearGradient6794"
       id="linearGradient26290"
       gradientUnits="userSpaceOnUse"
       gradientTransform="matrix(0.07110898,0,0,0.11505675,800.16898,1703.7951)"
       x1="325.27524"
       y1="2070.6223"
       x2="351.61154"
       y2="2070.6223" />
    <linearGradient
       inkscape:collect="always"
       xlink:href="#linearGradient6794"
       id="linearGradient26294"
       gradientUnits="userSpaceOnUse"
       gradientTransform="matrix(0.07110898,0,0,0.11505675,800.16898,1703.7951)"
       x1="325.27524"
       y1="2070.6223"
       x2="351.61154"
       y2="2070.6223" />
    <linearGradient
       inkscape:collect="always"
       xlink:href="#linearGradient7390"
       id="linearGradient26296"
       gradientUnits="userSpaceOnUse"
       gradientTransform="matrix(0.91452408,0,0,0.58117456,1265.0476,211.49989)"
       x1="168.56194"
       y1="2218.3196"
       x2="178.29027"
       y2="2218.3196" />
    <linearGradient
       inkscape:collect="always"
       xlink:href="#linearGradient6794"
       id="linearGradient26300"
       gradientUnits="userSpaceOnUse"
       gradientTransform="matrix(0.07110898,0,0,0.11505675,800.16898,1703.7951)"
       x1="325.27524"
       y1="2070.6223"
       x2="351.61154"
       y2="2070.6223" />
    <linearGradient
       inkscape:collect="always"
       xlink:href="#linearGradient12392"
       id="linearGradient26413"
       gradientUnits="userSpaceOnUse"
       gradientTransform="translate(164.09026,-85.723139)"
       x1="655.49359"
       y1="2011.8206"
       x2="662.51208"
       y2="2011.8206" />
    <linearGradient
       inkscape:collect="always"
       xlink:href="#linearGradient12392"
       id="linearGradient26415"
       gradientUnits="userSpaceOnUse"
       gradientTransform="translate(164.09026,-85.723139)"
       x1="655.49359"
       y1="2011.8206"
       x2="662.51208"
       y2="2011.8206" />
    <linearGradient
       inkscape:collect="always"
       xlink:href="#linearGradient12392"
       id="linearGradient26417"
       gradientUnits="userSpaceOnUse"
       gradientTransform="translate(164.09026,-85.723139)"
       x1="655.49359"
       y1="2011.8206"
       x2="662.51208"
       y2="2011.8206" />
    <linearGradient
       inkscape:collect="always"
       xlink:href="#linearGradient12392"
       id="linearGradient26497"
       gradientUnits="userSpaceOnUse"
       gradientTransform="translate(164.09026,-77.870103)"
       x1="655.49359"
       y1="2011.8206"
       x2="662.51208"
       y2="2011.8206" />
    <linearGradient
       inkscape:collect="always"
       xlink:href="#linearGradient12392"
       id="linearGradient26499"
       gradientUnits="userSpaceOnUse"
       gradientTransform="translate(164.09026,-77.870103)"
       x1="655.49359"
       y1="2011.8206"
       x2="662.51208"
       y2="2011.8206" />
  </defs>
  <sodipodi:namedview
     pagecolor="#ffffff"
     bordercolor="#666666"
     borderopacity="1"
     objecttolerance="10"
     gridtolerance="10"
     guidetolerance="10"
     inkscape:pageopacity="0"
     inkscape:pageshadow="2"
     inkscape:window-width="640"
     inkscape:window-height="480"
     id="namedview25567"
     showgrid="false"
     inkscape:snap-page="true"
     inkscape:snap-global="true"
     inkscape:snap-bbox="true"
     inkscape:bbox-nodes="true"
     inkscape:zoom="1"
     inkscape:cx="275.34597"
     inkscape:cy="10.533374"
     inkscape:current-layer="svg25565">
    <inkscape:grid
       type="xygrid"
       id="grid26401"
       empspacing="30" />
  </sodipodi:namedview>
  <rect
     style="color:#000000;clip-rule:nonzero;display:inline;overflow:visible;visibility:visible;opacity:1;isolation:auto;mix-blend-mode:normal;color-interpolation:sRGB;color-interpolation-filters:linearRGB;solid-color:#000000;solid-opacity:1;fill:#ffffff;fill-opacity:1;fill-rule:nonzero;stroke:none;stroke-width:3.77952743px;stroke-linecap:butt;stroke-linejoin:miter;stroke-miterlimit:4;stroke-dasharray:none;stroke-dashoffset:0;stroke-opacity:1;marker:none;marker-start:none;marker-mid:none;marker-end:none;paint-order:stroke fill markers;color-rendering:auto;image-rendering:auto;shape-rendering:auto;text-rendering:auto;enable-background:accumulate"
     id="rect8199"
     width="300"
     height="90"
     x="0.00088500977"
     y="-8.4763204e-05"
     inkscape:export-filename="/home/mray/Projects/Snowdrift.coop/Seafile/mray/prototype-mvp/static/img/project/crowdmatch_hover.png"
     inkscape:export-xdpi="90.109489"
     inkscape:export-ydpi="90.109489" />
  <g
     style="display:inline;opacity:1"
     id="g7014"
     transform="matrix(3.7795277,0,0,3.7795274,-479.09533,-7828.5856)"
     inkscape:export-filename="/home/mray/Projects/Snowdrift.coop/Seafile/mray/prototype-mvp/static/img/project/crowdmatch_hover.png"
     inkscape:export-xdpi="90.109489"
     inkscape:export-ydpi="90.109489">
    <g
       id="g7080"
       transform="translate(-0.09881781,0.14025181)">
      <rect
         style="color:#000000;clip-rule:nonzero;display:inline;overflow:visible;visibility:visible;opacity:1;isolation:auto;mix-blend-mode:normal;color-interpolation:sRGB;color-interpolation-filters:linearRGB;solid-color:#000000;solid-opacity:1;fill:#beeef8;fill-opacity:0.19444448;fill-rule:nonzero;stroke:none;stroke-width:2;stroke-linecap:round;stroke-linejoin:miter;stroke-miterlimit:4;stroke-dasharray:none;stroke-dashoffset:0;stroke-opacity:1;marker:none;marker-start:none;marker-mid:none;marker-end:none;paint-order:stroke fill markers;color-rendering:auto;image-rendering:auto;shape-rendering:auto;text-rendering:auto;enable-background:accumulate"
         id="rect7016"
         width="23.8125"
         height="23.8125"
         x="126.85945"
         y="2071.1731"
         inkscape:export-filename="/home/mray/Projects/Snowdrift.coop/Seafile/mray/prototype-mvp/static/img/project/crowdmatch_hover.png"
         inkscape:export-xdpi="90"
         inkscape:export-ydpi="90" />
      <g
         id="g7259"
         transform="translate(-674.8278,150.298)"
         style="display:inline;opacity:1"
         inkscape:export-filename="/home/mray/Projects/Snowdrift.coop/Seafile/mray/prototype-mvp/static/img/project/crowdmatch_hover.png"
         inkscape:export-xdpi="90"
         inkscape:export-ydpi="90">
        <path
           id="path7261"
           d="m 817.56248,1920.8751 0,23.8124 7.9375,0 0,-23.8124 -7.9375,0 z"
           style="color:#000000;clip-rule:nonzero;display:inline;overflow:visible;visibility:visible;opacity:0.35200004;isolation:auto;mix-blend-mode:normal;color-interpolation:sRGB;color-interpolation-filters:linearRGB;solid-color:#000000;solid-opacity:1;fill:url(#linearGradient26282);fill-opacity:1;fill-rule:nonzero;stroke:none;stroke-width:1.47142351px;stroke-linecap:butt;stroke-linejoin:miter;stroke-miterlimit:4;stroke-dasharray:none;stroke-dashoffset:0;stroke-opacity:1;marker:none;marker-start:none;marker-mid:none;marker-end:none;paint-order:stroke fill markers;color-rendering:auto;image-rendering:auto;shape-rendering:auto;text-rendering:auto;enable-background:accumulate"
           inkscape:connector-curvature="0" />
        <text
           xml:space="preserve"
           style="color:#000000;font-style:normal;font-variant:normal;font-weight:500;font-stretch:normal;font-size:3.17499995px;line-height:125%;font-family:rubik;-inkscape-font-specification:'rubik Medium';letter-spacing:0px;word-spacing:0px;clip-rule:nonzero;display:inline;overflow:visible;visibility:visible;opacity:1;isolation:auto;mix-blend-mode:normal;color-interpolation:sRGB;color-interpolation-filters:linearRGB;solid-color:#000000;solid-opacity:1;fill:url(#linearGradient26413);fill-opacity:1;fill-rule:nonzero;stroke:none;stroke-width:1px;stroke-linecap:butt;stroke-linejoin:miter;stroke-miterlimit:4;stroke-dasharray:none;stroke-dashoffset:0;stroke-opacity:1;color-rendering:auto;image-rendering:auto;shape-rendering:auto;text-rendering:auto;enable-background:accumulate"
           x="819.4632"
           y="1926.6951"
           id="text7263"
           sodipodi:linespacing="125%"><tspan
             sodipodi:role="line"
             id="tspan7265"
             x="819.4632"
             y="1926.6951"
             style="font-style:normal;font-variant:normal;font-weight:500;font-stretch:normal;font-size:5.29166651px;font-family:rubik;-inkscape-font-specification:'rubik Medium';fill:url(#linearGradient26413);fill-opacity:1">$</tspan></text>
        <path
           sodipodi:nodetypes="ccccc"
           inkscape:connector-curvature="0"
           style="color:#000000;clip-rule:nonzero;display:inline;overflow:visible;visibility:visible;opacity:1;isolation:auto;mix-blend-mode:normal;color-interpolation:sRGB;color-interpolation-filters:linearRGB;solid-color:#000000;solid-opacity:1;fill:#ffffff;fill-opacity:1;fill-rule:nonzero;stroke:none;stroke-width:1.47142351px;stroke-linecap:butt;stroke-linejoin:miter;stroke-miterlimit:4;stroke-dasharray:none;stroke-dashoffset:0;stroke-opacity:1;marker:none;marker-start:none;marker-mid:none;marker-end:none;paint-order:stroke fill markers;color-rendering:auto;image-rendering:auto;shape-rendering:auto;text-rendering:auto;enable-background:accumulate"
           d="m 824.95248,1920.8751 0,23.8124 8.485,0 0,-23.8124 z"
           id="path7269" />
      </g>
      <g
         style="display:inline;opacity:1"
         transform="translate(-682.7653,150.298)"
         id="g7018"
         inkscape:export-filename="/home/mray/Projects/Snowdrift.coop/Seafile/mray/prototype-mvp/static/img/project/crowdmatch_hover.png"
         inkscape:export-xdpi="90"
         inkscape:export-ydpi="90">
        <path
           inkscape:connector-curvature="0"
           style="color:#000000;clip-rule:nonzero;display:inline;overflow:visible;visibility:visible;opacity:0.35200004;isolation:auto;mix-blend-mode:normal;color-interpolation:sRGB;color-interpolation-filters:linearRGB;solid-color:#000000;solid-opacity:1;fill:url(#linearGradient26286);fill-opacity:1;fill-rule:nonzero;stroke:none;stroke-width:1.47142351px;stroke-linecap:butt;stroke-linejoin:miter;stroke-miterlimit:4;stroke-dasharray:none;stroke-dashoffset:0;stroke-opacity:1;marker:none;marker-start:none;marker-mid:none;marker-end:none;paint-order:stroke fill markers;color-rendering:auto;image-rendering:auto;shape-rendering:auto;text-rendering:auto;enable-background:accumulate"
           d="m 817.56248,1920.8751 0,23.8124 7.9375,0 0,-23.8124 -7.9375,0 z"
           id="path7020" />
        <text
           sodipodi:linespacing="125%"
           id="text7022"
           y="1926.6951"
           x="819.4632"
           style="color:#000000;font-style:normal;font-variant:normal;font-weight:500;font-stretch:normal;font-size:3.17499995px;line-height:125%;font-family:rubik;-inkscape-font-specification:'rubik Medium';letter-spacing:0px;word-spacing:0px;clip-rule:nonzero;display:inline;overflow:visible;visibility:visible;opacity:1;isolation:auto;mix-blend-mode:normal;color-interpolation:sRGB;color-interpolation-filters:linearRGB;solid-color:#000000;solid-opacity:1;fill:url(#linearGradient26415);fill-opacity:1;fill-rule:nonzero;stroke:none;stroke-width:1px;stroke-linecap:butt;stroke-linejoin:miter;stroke-miterlimit:4;stroke-dasharray:none;stroke-dashoffset:0;stroke-opacity:1;color-rendering:auto;image-rendering:auto;shape-rendering:auto;text-rendering:auto;enable-background:accumulate"
           xml:space="preserve"><tspan
             style="font-style:normal;font-variant:normal;font-weight:500;font-stretch:normal;font-size:5.29166651px;font-family:rubik;-inkscape-font-specification:'rubik Medium';fill:url(#linearGradient26415);fill-opacity:1"
             y="1926.6951"
             x="819.4632"
             id="tspan7024"
             sodipodi:role="line">$</tspan></text>
        <path
           style="color:#000000;clip-rule:nonzero;display:inline;overflow:visible;visibility:visible;opacity:1;isolation:auto;mix-blend-mode:normal;color-interpolation:sRGB;color-interpolation-filters:linearRGB;solid-color:#000000;solid-opacity:1;fill:url(#linearGradient26290);fill-opacity:1;fill-rule:nonzero;stroke:none;stroke-width:0.17787457px;stroke-linecap:butt;stroke-linejoin:miter;stroke-miterlimit:4;stroke-dasharray:none;stroke-dashoffset:0;stroke-opacity:1;marker:none;marker-start:none;marker-mid:none;marker-end:none;paint-order:stroke fill markers;color-rendering:auto;image-rendering:auto;shape-rendering:auto;text-rendering:auto;enable-background:accumulate"
           d="m 821.26665,1938.924 c -0.84821,-10e-5 -1.53583,0.6875 -1.53574,1.5357 -4e-5,0.8482 0.68756,1.5358 1.53574,1.5357 0.84817,10e-5 1.53577,-0.6875 1.53573,-1.5357 9e-5,-0.8482 -0.68753,-1.5358 -1.53573,-1.5357 z m 0,3.0798 c -1.48214,10e-5 -2.68364,1.2016 -2.68374,2.6837 l 5.36748,0 c -10e-5,-1.4821 -1.2016,-2.6836 -2.68374,-2.6837 z"
           id="path7026"
           inkscape:connector-curvature="0"
           sodipodi:nodetypes="ccccccccc" />
        <path
           id="path7028"
           d="m 824.95248,1920.8751 0,23.8124 0.5475,0 0,-23.8124 z"
           style="color:#000000;clip-rule:nonzero;display:inline;overflow:visible;visibility:visible;opacity:1;isolation:auto;mix-blend-mode:normal;color-interpolation:sRGB;color-interpolation-filters:linearRGB;solid-color:#000000;solid-opacity:1;fill:#ffffff;fill-opacity:1;fill-rule:nonzero;stroke:none;stroke-width:1.47142351px;stroke-linecap:butt;stroke-linejoin:miter;stroke-miterlimit:4;stroke-dasharray:none;stroke-dashoffset:0;stroke-opacity:1;marker:none;marker-start:none;marker-mid:none;marker-end:none;paint-order:stroke fill markers;color-rendering:auto;image-rendering:auto;shape-rendering:auto;text-rendering:auto;enable-background:accumulate"
           inkscape:connector-curvature="0"
           sodipodi:nodetypes="ccccc" />
      </g>
      <g
         id="g7030"
         transform="translate(-690.7028,150.298)"
         style="display:inline;opacity:1"
         inkscape:export-filename="/home/mray/Projects/Snowdrift.coop/Seafile/mray/prototype-mvp/static/img/project/crowdmatch_hover.png"
         inkscape:export-xdpi="90"
         inkscape:export-ydpi="90">
        <path
           id="path7032"
           d="m 817.56248,1920.8751 0,23.8124 7.9375,0 0,-23.8124 -7.9375,0 z"
           style="color:#000000;clip-rule:nonzero;display:inline;overflow:visible;visibility:visible;opacity:0.35200004;isolation:auto;mix-blend-mode:normal;color-interpolation:sRGB;color-interpolation-filters:linearRGB;solid-color:#000000;solid-opacity:1;fill:url(#linearGradient7271);fill-opacity:1;fill-rule:nonzero;stroke:none;stroke-width:1.47142351px;stroke-linecap:butt;stroke-linejoin:miter;stroke-miterlimit:4;stroke-dasharray:none;stroke-dashoffset:0;stroke-opacity:1;marker:none;marker-start:none;marker-mid:none;marker-end:none;paint-order:stroke fill markers;color-rendering:auto;image-rendering:auto;shape-rendering:auto;text-rendering:auto;enable-background:accumulate"
           inkscape:connector-curvature="0" />
        <text
           xml:space="preserve"
           style="color:#000000;font-style:normal;font-variant:normal;font-weight:500;font-stretch:normal;font-size:3.17499995px;line-height:125%;font-family:rubik;-inkscape-font-specification:'rubik Medium';letter-spacing:0px;word-spacing:0px;clip-rule:nonzero;display:inline;overflow:visible;visibility:visible;opacity:1;isolation:auto;mix-blend-mode:normal;color-interpolation:sRGB;color-interpolation-filters:linearRGB;solid-color:#000000;solid-opacity:1;fill:url(#linearGradient26417);fill-opacity:1;fill-rule:nonzero;stroke:none;stroke-width:1px;stroke-linecap:butt;stroke-linejoin:miter;stroke-miterlimit:4;stroke-dasharray:none;stroke-dashoffset:0;stroke-opacity:1;color-rendering:auto;image-rendering:auto;shape-rendering:auto;text-rendering:auto;enable-background:accumulate"
           x="819.4632"
           y="1926.6951"
           id="text7034"
           sodipodi:linespacing="125%"><tspan
             sodipodi:role="line"
             id="tspan7036"
             x="819.4632"
             y="1926.6951"
             style="font-style:normal;font-variant:normal;font-weight:500;font-stretch:normal;font-size:5.29166651px;font-family:rubik;-inkscape-font-specification:'rubik Medium';fill:url(#linearGradient26417);fill-opacity:1">$</tspan></text>
        <path
           sodipodi:nodetypes="ccccccccc"
           inkscape:connector-curvature="0"
           id="path7038"
           d="m 821.26665,1938.924 c -0.84821,-10e-5 -1.53583,0.6875 -1.53574,1.5357 -4e-5,0.8482 0.68756,1.5358 1.53574,1.5357 0.84817,10e-5 1.53577,-0.6875 1.53573,-1.5357 9e-5,-0.8482 -0.68753,-1.5358 -1.53573,-1.5357 z m 0,3.0798 c -1.48214,10e-5 -2.68364,1.2016 -2.68374,2.6837 l 5.36748,0 c -10e-5,-1.4821 -1.2016,-2.6836 -2.68374,-2.6837 z"
           style="color:#000000;clip-rule:nonzero;display:inline;overflow:visible;visibility:visible;opacity:1;isolation:auto;mix-blend-mode:normal;color-interpolation:sRGB;color-interpolation-filters:linearRGB;solid-color:#000000;solid-opacity:1;fill:url(#linearGradient26294);fill-opacity:1;fill-rule:nonzero;stroke:none;stroke-width:0.17787457px;stroke-linecap:butt;stroke-linejoin:miter;stroke-miterlimit:4;stroke-dasharray:none;stroke-dashoffset:0;stroke-opacity:1;marker:none;marker-start:none;marker-mid:none;marker-end:none;paint-order:stroke fill markers;color-rendering:auto;image-rendering:auto;shape-rendering:auto;text-rendering:auto;enable-background:accumulate" />
        <path
           sodipodi:nodetypes="ccccc"
           inkscape:connector-curvature="0"
           style="color:#000000;clip-rule:nonzero;display:inline;overflow:visible;visibility:visible;opacity:1;isolation:auto;mix-blend-mode:normal;color-interpolation:sRGB;color-interpolation-filters:linearRGB;solid-color:#000000;solid-opacity:1;fill:#ffffff;fill-opacity:1;fill-rule:nonzero;stroke:none;stroke-width:1.47142351px;stroke-linecap:butt;stroke-linejoin:miter;stroke-miterlimit:4;stroke-dasharray:none;stroke-dashoffset:0;stroke-opacity:1;marker:none;marker-start:none;marker-mid:none;marker-end:none;paint-order:stroke fill markers;color-rendering:auto;image-rendering:auto;shape-rendering:auto;text-rendering:auto;enable-background:accumulate"
           d="m 824.95248,1920.8751 0,23.8124 0.5475,0 0,-23.8124 z"
           id="path7040" />
      </g>
      <path
         sodipodi:nodetypes="ccccccccc"
         inkscape:connector-curvature="0"
         id="path7267"
         d="m 146.98612,2089.222 c -0.84821,-1e-4 -1.53583,0.6875 -1.53574,1.5357 -4e-5,0.8482 0.68756,1.5358 1.53574,1.5357 0.84817,1e-4 1.53577,-0.6875 1.53573,-1.5357 9e-5,-0.8482 -0.68753,-1.5358 -1.53573,-1.5357 z m 0,3.0798 c -1.48214,10e-5 -2.68364,1.2016 -2.68374,2.6837 l 5.36748,0 c -1e-4,-1.4821 -1.2016,-2.6836 -2.68374,-2.6837 z"
         style="color:#000000;clip-rule:nonzero;display:inline;overflow:visible;visibility:visible;opacity:1;isolation:auto;mix-blend-mode:normal;color-interpolation:sRGB;color-interpolation-filters:linearRGB;solid-color:#000000;solid-opacity:1;fill:#095f8a;fill-opacity:1;fill-rule:nonzero;stroke:none;stroke-width:0.17787457px;stroke-linecap:butt;stroke-linejoin:miter;stroke-miterlimit:4;stroke-dasharray:none;stroke-dashoffset:0;stroke-opacity:1;marker:none;marker-start:none;marker-mid:none;marker-end:none;paint-order:stroke fill markers;color-rendering:auto;image-rendering:auto;shape-rendering:auto;text-rendering:auto;enable-background:accumulate"
         inkscape:export-filename="/home/mray/Projects/Snowdrift.coop/Seafile/mray/prototype-mvp/static/img/project/crowdmatch_hover.png"
         inkscape:export-xdpi="90"
         inkscape:export-ydpi="90" />
    </g>
  </g>
  <rect
     inkscape:export-ydpi="90"
     inkscape:export-xdpi="90"
     inkscape:export-filename="/home/mray/Projects/Snowdrift.coop/Seafile/mray/prototype-mvp/static/img/project/crowdmatch_hover.png"
     y="-0.00044249083"
     x="150.00084"
     height="90"
     width="90"
     id="rect5122-3"
     style="color:#000000;clip-rule:nonzero;display:inline;overflow:visible;visibility:visible;opacity:1;isolation:auto;mix-blend-mode:normal;color-interpolation:sRGB;color-interpolation-filters:linearRGB;solid-color:#000000;solid-opacity:1;fill:#beeef8;fill-opacity:0.19444448;fill-rule:nonzero;stroke:none;stroke-width:2;stroke-linecap:round;stroke-linejoin:miter;stroke-miterlimit:4;stroke-dasharray:none;stroke-dashoffset:0;stroke-opacity:1;marker:none;marker-start:none;marker-mid:none;marker-end:none;paint-order:stroke fill markers;color-rendering:auto;image-rendering:auto;shape-rendering:auto;text-rendering:auto;enable-background:accumulate" />
  <g
     inkscape:export-ydpi="90"
     inkscape:export-xdpi="90"
     inkscape:export-filename="/home/mray/Projects/Snowdrift.coop/Seafile/mray/prototype-mvp/static/img/project/crowdmatch_hover.png"
     id="g4997-5"
     transform="matrix(3.7795277,0,0,3.7795274,-2909.9983,-7259.9996)"
     style="display:inline;opacity:1">
    <path
       id="path4999-6"
       d="m 817.56248,1928.8125 0,15.875 7.9375,0 0,-15.875 -7.9375,0 z"
       style="color:#000000;clip-rule:nonzero;display:inline;overflow:visible;visibility:visible;opacity:0.35200004;isolation:auto;mix-blend-mode:normal;color-interpolation:sRGB;color-interpolation-filters:linearRGB;solid-color:#000000;solid-opacity:1;fill:url(#linearGradient26296);fill-opacity:1;fill-rule:nonzero;stroke:none;stroke-width:1.47142351px;stroke-linecap:butt;stroke-linejoin:miter;stroke-miterlimit:4;stroke-dasharray:none;stroke-dashoffset:0;stroke-opacity:1;marker:none;marker-start:none;marker-mid:none;marker-end:none;paint-order:stroke fill markers;color-rendering:auto;image-rendering:auto;shape-rendering:auto;text-rendering:auto;enable-background:accumulate"
       inkscape:connector-curvature="0" />
    <text
       xml:space="preserve"
       style="color:#000000;font-style:normal;font-variant:normal;font-weight:500;font-stretch:normal;font-size:3.17499995px;line-height:125%;font-family:rubik;-inkscape-font-specification:'rubik Medium';letter-spacing:0px;word-spacing:0px;clip-rule:nonzero;display:inline;overflow:visible;visibility:visible;opacity:1;isolation:auto;mix-blend-mode:normal;color-interpolation:sRGB;color-interpolation-filters:linearRGB;solid-color:#000000;solid-opacity:1;fill:url(#linearGradient26497);fill-opacity:1;fill-rule:nonzero;stroke:none;stroke-width:1px;stroke-linecap:butt;stroke-linejoin:miter;stroke-miterlimit:4;stroke-dasharray:none;stroke-dashoffset:0;stroke-opacity:1;color-rendering:auto;image-rendering:auto;shape-rendering:auto;text-rendering:auto;enable-background:accumulate"
       x="819.4632"
       y="1934.549"
       id="text5001-2"
       sodipodi:linespacing="125%"><tspan
         sodipodi:role="line"
         id="tspan5003-9"
         x="819.4632"
         y="1934.549"
         style="font-style:normal;font-variant:normal;font-weight:500;font-stretch:normal;font-size:5.29166651px;font-family:rubik;-inkscape-font-specification:'rubik Medium';fill:url(#linearGradient26497);fill-opacity:1">$</tspan></text>
    <path
       sodipodi:nodetypes="ccccccccc"
       inkscape:connector-curvature="0"
       id="path5005-1"
       d="m 821.26665,1938.924 c -0.84821,-10e-5 -1.53583,0.6875 -1.53574,1.5357 -4e-5,0.8482 0.68756,1.5358 1.53574,1.5357 0.84817,10e-5 1.53577,-0.6875 1.53573,-1.5357 9e-5,-0.8482 -0.68753,-1.5358 -1.53573,-1.5357 z m 0,3.0798 c -1.48214,10e-5 -2.68364,1.2016 -2.68374,2.6837 l 5.36748,0 c -10e-5,-1.4821 -1.2016,-2.6836 -2.68374,-2.6837 z"
       style="color:#000000;clip-rule:nonzero;display:inline;overflow:visible;visibility:visible;opacity:1;isolation:auto;mix-blend-mode:normal;color-interpolation:sRGB;color-interpolation-filters:linearRGB;solid-color:#000000;solid-opacity:1;fill:url(#linearGradient26300);fill-opacity:1;fill-rule:nonzero;stroke:none;stroke-width:0.17787457px;stroke-linecap:butt;stroke-linejoin:miter;stroke-miterlimit:4;stroke-dasharray:none;stroke-dashoffset:0;stroke-opacity:1;marker:none;marker-start:none;marker-mid:none;marker-end:none;paint-order:stroke fill markers;color-rendering:auto;image-rendering:auto;shape-rendering:auto;text-rendering:auto;enable-background:accumulate" />
    <path
       sodipodi:nodetypes="ccccc"
       inkscape:connector-curvature="0"
       style="color:#000000;clip-rule:nonzero;display:inline;overflow:visible;visibility:visible;opacity:1;isolation:auto;mix-blend-mode:normal;color-interpolation:sRGB;color-interpolation-filters:linearRGB;solid-color:#000000;solid-opacity:1;fill:#ffffff;fill-opacity:1;fill-rule:nonzero;stroke:none;stroke-width:1.47142351px;stroke-linecap:butt;stroke-linejoin:miter;stroke-miterlimit:4;stroke-dasharray:none;stroke-dashoffset:0;stroke-opacity:1;marker:none;marker-start:none;marker-mid:none;marker-end:none;paint-order:stroke fill markers;color-rendering:auto;image-rendering:auto;shape-rendering:auto;text-rendering:auto;enable-background:accumulate"
       d="m 824.95248,1928.8125 0,15.875 0.5475,0 0,-15.875 z"
       id="path5007-2" />
  </g>
  <g
     inkscape:export-ydpi="90"
     inkscape:export-xdpi="90"
     inkscape:export-filename="/home/mray/Projects/Snowdrift.coop/Seafile/mray/prototype-mvp/static/img/project/crowdmatch_hover.png"
     style="display:inline;opacity:1"
     transform="matrix(3.7795277,0,0,3.7795274,-2939.9983,-7259.9996)"
     id="g5009-7">
    <path
       inkscape:connector-curvature="0"
       style="color:#000000;clip-rule:nonzero;display:inline;overflow:visible;visibility:visible;opacity:0.35200004;isolation:auto;mix-blend-mode:normal;color-interpolation:sRGB;color-interpolation-filters:linearRGB;solid-color:#000000;solid-opacity:1;fill:url(#linearGradient6458);fill-opacity:1;fill-rule:nonzero;stroke:none;stroke-width:1.47142351px;stroke-linecap:butt;stroke-linejoin:miter;stroke-miterlimit:4;stroke-dasharray:none;stroke-dashoffset:0;stroke-opacity:1;marker:none;marker-start:none;marker-mid:none;marker-end:none;paint-order:stroke fill markers;color-rendering:auto;image-rendering:auto;shape-rendering:auto;text-rendering:auto;enable-background:accumulate"
       d="m 817.56248,1928.8125 0,15.875 7.9375,0 0,-15.875 -7.9375,0 z"
       id="path5011-0" />
    <text
       sodipodi:linespacing="125%"
       id="text5013-9"
       y="1934.549"
       x="819.4632"
       style="color:#000000;font-style:normal;font-variant:normal;font-weight:500;font-stretch:normal;font-size:3.17499995px;line-height:125%;font-family:rubik;-inkscape-font-specification:'rubik Medium';letter-spacing:0px;word-spacing:0px;clip-rule:nonzero;display:inline;overflow:visible;visibility:visible;opacity:1;isolation:auto;mix-blend-mode:normal;color-interpolation:sRGB;color-interpolation-filters:linearRGB;solid-color:#000000;solid-opacity:1;fill:url(#linearGradient26499);fill-opacity:1;fill-rule:nonzero;stroke:none;stroke-width:1px;stroke-linecap:butt;stroke-linejoin:miter;stroke-miterlimit:4;stroke-dasharray:none;stroke-dashoffset:0;stroke-opacity:1;color-rendering:auto;image-rendering:auto;shape-rendering:auto;text-rendering:auto;enable-background:accumulate"
       xml:space="preserve"><tspan
         style="font-style:normal;font-variant:normal;font-weight:500;font-stretch:normal;font-size:5.29166651px;font-family:rubik;-inkscape-font-specification:'rubik Medium';fill:url(#linearGradient26499);fill-opacity:1"
         y="1934.549"
         x="819.4632"
         id="tspan5015-3"
         sodipodi:role="line">$</tspan></text>
    <path
       style="color:#000000;clip-rule:nonzero;display:inline;overflow:visible;visibility:visible;opacity:1;isolation:auto;mix-blend-mode:normal;color-interpolation:sRGB;color-interpolation-filters:linearRGB;solid-color:#000000;solid-opacity:1;fill:url(#linearGradient6463);fill-opacity:1;fill-rule:nonzero;stroke:none;stroke-width:0.17787457px;stroke-linecap:butt;stroke-linejoin:miter;stroke-miterlimit:4;stroke-dasharray:none;stroke-dashoffset:0;stroke-opacity:1;marker:none;marker-start:none;marker-mid:none;marker-end:none;paint-order:stroke fill markers;color-rendering:auto;image-rendering:auto;shape-rendering:auto;text-rendering:auto;enable-background:accumulate"
       d="m 821.26665,1938.924 c -0.84821,-10e-5 -1.53583,0.6875 -1.53574,1.5357 -4e-5,0.8482 0.68756,1.5358 1.53574,1.5357 0.84817,10e-5 1.53577,-0.6875 1.53573,-1.5357 9e-5,-0.8482 -0.68753,-1.5358 -1.53573,-1.5357 z m 0,3.0798 c -1.48214,10e-5 -2.68364,1.2016 -2.68374,2.6837 l 5.36748,0 c -10e-5,-1.4821 -1.2016,-2.6836 -2.68374,-2.6837 z"
       id="path5017-6"
       inkscape:connector-curvature="0"
       sodipodi:nodetypes="ccccccccc" />
    <path
       id="path5019-0"
       d="m 824.95248,1928.8125 0,15.875 0.5475,0 0,-15.875 z"
       style="color:#000000;clip-rule:nonzero;display:inline;overflow:visible;visibility:visible;opacity:1;isolation:auto;mix-blend-mode:normal;color-interpolation:sRGB;color-interpolation-filters:linearRGB;solid-color:#000000;solid-opacity:1;fill:#ffffff;fill-opacity:1;fill-rule:nonzero;stroke:none;stroke-width:1.47142351px;stroke-linecap:butt;stroke-linejoin:miter;stroke-miterlimit:4;stroke-dasharray:none;stroke-dashoffset:0;stroke-opacity:1;marker:none;marker-start:none;marker-mid:none;marker-end:none;paint-order:stroke fill markers;color-rendering:auto;image-rendering:auto;shape-rendering:auto;text-rendering:auto;enable-background:accumulate"
       inkscape:connector-curvature="0"
       sodipodi:nodetypes="ccccc" />
  </g>
  <g
     inkscape:export-ydpi="90"
     inkscape:export-xdpi="90"
     inkscape:export-filename="/home/mray/Projects/Snowdrift.coop/Seafile/mray/prototype-mvp/static/img/project/crowdmatch_hover.png"
     id="g5217-2"
     transform="matrix(3.7795277,0,0,3.7795274,-2941.2954,-10748.241)" />
  <g
     id="g26473">
    <rect
       y="0"
       x="150"
       height="90"
       width="150"
       id="rect26468"
       style="color:#000000;clip-rule:nonzero;display:inline;overflow:visible;visibility:visible;opacity:1;isolation:auto;mix-blend-mode:normal;color-interpolation:sRGB;color-interpolation-filters:linearRGB;solid-color:#000000;solid-opacity:1;fill:none;fill-opacity:1;fill-rule:nonzero;stroke:none;stroke-width:3.77952743px;stroke-linecap:butt;stroke-linejoin:miter;stroke-miterlimit:4;stroke-dasharray:none;stroke-dashoffset:0;stroke-opacity:1;marker:none;marker-start:none;marker-mid:none;marker-end:none;paint-order:stroke fill markers;color-rendering:auto;image-rendering:auto;shape-rendering:auto;text-rendering:auto;enable-background:accumulate" />
  </g>
  <path
     sodipodi:nodetypes="cccc"
     inkscape:connector-curvature="0"
     id="path26522"
     d="m 97.99671,57.417254 0,-26.548912 -23.5601,13.274078 z"
     style="color:#000000;clip-rule:nonzero;display:inline;overflow:visible;visibility:visible;opacity:1;isolation:auto;mix-blend-mode:normal;color-interpolation:sRGB;color-interpolation-filters:linearRGB;solid-color:#000000;solid-opacity:1;fill:#ffffff;fill-opacity:1;fill-rule:nonzero;stroke:none;stroke-width:1.58749998;stroke-linecap:butt;stroke-linejoin:miter;stroke-miterlimit:4;stroke-dasharray:none;stroke-dashoffset:0;stroke-opacity:1;marker:none;marker-start:none;marker-mid:none;marker-end:none;paint-order:stroke fill markers;color-rendering:auto;image-rendering:auto;shape-rendering:auto;text-rendering:auto;enable-background:accumulate" />
  <path
     style="color:#000000;font-style:normal;font-variant:normal;font-weight:normal;font-stretch:normal;font-size:medium;line-height:normal;font-family:sans-serif;text-indent:0;text-align:start;text-decoration:none;text-decoration-line:none;text-decoration-style:solid;text-decoration-color:#000000;letter-spacing:normal;word-spacing:normal;text-transform:none;direction:ltr;block-progression:tb;writing-mode:lr-tb;baseline-shift:baseline;text-anchor:start;white-space:normal;clip-rule:nonzero;display:inline;overflow:visible;visibility:visible;opacity:1;isolation:auto;mix-blend-mode:normal;color-interpolation:sRGB;color-interpolation-filters:linearRGB;solid-color:#000000;solid-opacity:1;fill:#44a76b;fill-opacity:1;fill-rule:nonzero;stroke:none;stroke-width:1.2950381;stroke-linecap:butt;stroke-linejoin:miter;stroke-miterlimit:4;stroke-dasharray:none;stroke-dashoffset:0;stroke-opacity:1;marker:none;paint-order:stroke fill markers;color-rendering:auto;image-rendering:auto;shape-rendering:auto;text-rendering:auto;enable-background:accumulate"
     d="m 94.456415,40.162955 0,7.962331 34.108725,0 0,-7.962331 z"
     id="path26524"
     inkscape:connector-curvature="0"
     sodipodi:nodetypes="ccccc" />
  <path
     style="color:#000000;clip-rule:nonzero;display:inline;overflow:visible;visibility:visible;opacity:1;isolation:auto;mix-blend-mode:normal;color-interpolation:sRGB;color-interpolation-filters:linearRGB;solid-color:#000000;solid-opacity:1;fill:#44a76b;fill-opacity:1;fill-rule:nonzero;stroke:none;stroke-width:1.58749998;stroke-linecap:butt;stroke-linejoin:miter;stroke-miterlimit:4;stroke-dasharray:none;stroke-dashoffset:0;stroke-opacity:1;marker:none;marker-start:none;marker-mid:none;marker-end:none;paint-order:stroke fill markers;color-rendering:auto;image-rendering:auto;shape-rendering:auto;text-rendering:auto;enable-background:accumulate"
     d="m 95.74672,53.332341 0,-18.379086 -16.3101,9.189165 z"
     id="path26526"
     inkscape:connector-curvature="0"
     sodipodi:nodetypes="cccc" />
  <rect
     style="color:#000000;clip-rule:nonzero;display:inline;overflow:visible;visibility:visible;opacity:1;isolation:auto;mix-blend-mode:normal;color-interpolation:sRGB;color-interpolation-filters:linearRGB;solid-color:#000000;solid-opacity:1;fill:none;fill-opacity:1;fill-rule:nonzero;stroke:none;stroke-width:3.77952743px;stroke-linecap:butt;stroke-linejoin:miter;stroke-miterlimit:4;stroke-dasharray:none;stroke-dashoffset:0;stroke-opacity:1;marker:none;marker-start:none;marker-mid:none;marker-end:none;paint-order:stroke fill markers;color-rendering:auto;image-rendering:auto;shape-rendering:auto;text-rendering:auto;enable-background:accumulate"
     id="rect26528"
     width="150"
     height="90"
     x="0"
     y="0" />
  <rect
     style="color:#000000;clip-rule:nonzero;display:inline;overflow:visible;visibility:visible;opacity:0.34100001;isolation:auto;mix-blend-mode:normal;color-interpolation:sRGB;color-interpolation-filters:linearRGB;solid-color:#000000;solid-opacity:1;fill:#000000;fill-opacity:0;fill-rule:nonzero;stroke:none;stroke-width:0;stroke-linecap:butt;stroke-linejoin:miter;stroke-miterlimit:4;stroke-dasharray:none;stroke-dashoffset:0;stroke-opacity:1;marker:none;marker-start:none;marker-mid:none;marker-end:none;paint-order:stroke fill markers;color-rendering:auto;image-rendering:auto;shape-rendering:auto;text-rendering:auto;enable-background:accumulate"
     id="rect3264"
     width="30"
     height="30"
     x="120"
     y="0" />
  <g
     id="g3290"
     transform="translate(-54.281708,27.208628)">
    <path
       style="color:#000000;clip-rule:nonzero;display:inline;overflow:visible;visibility:visible;opacity:1;isolation:auto;mix-blend-mode:normal;color-interpolation:sRGB;color-interpolation-filters:linearRGB;solid-color:#000000;solid-opacity:1;fill:#ffffff;fill-opacity:1;fill-rule:nonzero;stroke:none;stroke-width:1.58749998;stroke-linecap:butt;stroke-linejoin:miter;stroke-miterlimit:4;stroke-dasharray:none;stroke-dashoffset:0;stroke-opacity:1;marker:none;marker-start:none;marker-mid:none;marker-end:none;paint-order:stroke fill markers;color-rendering:auto;image-rendering:auto;shape-rendering:auto;text-rendering:auto;enable-background:accumulate"
       d="m 316.27841,30.208627 0,-26.5489121 -23.5601,13.2740781 z"
       id="path26522-3"
       inkscape:connector-curvature="0"
       sodipodi:nodetypes="cccc" />
    <g
       id="g3296"
       style="opacity:0.22099998">
      <path
         style="color:#000000;font-style:normal;font-variant:normal;font-weight:normal;font-stretch:normal;font-size:medium;line-height:normal;font-family:sans-serif;text-indent:0;text-align:start;text-decoration:none;text-decoration-line:none;text-decoration-style:solid;text-decoration-color:#000000;letter-spacing:normal;word-spacing:normal;text-transform:none;direction:ltr;block-progression:tb;writing-mode:lr-tb;baseline-shift:baseline;text-anchor:start;white-space:normal;clip-rule:nonzero;display:inline;overflow:visible;visibility:visible;opacity:1;isolation:auto;mix-blend-mode:normal;color-interpolation:sRGB;color-interpolation-filters:linearRGB;solid-color:#000000;solid-opacity:1;fill:#44a76b;fill-opacity:1;fill-rule:nonzero;stroke:none;stroke-width:1.2950381;stroke-linecap:butt;stroke-linejoin:miter;stroke-miterlimit:4;stroke-dasharray:none;stroke-dashoffset:0;stroke-opacity:1;marker:none;paint-order:stroke fill markers;color-rendering:auto;image-rendering:auto;shape-rendering:auto;text-rendering:auto;enable-background:accumulate"
         d="m 312.73811,12.954328 0,7.962331 34.10873,0 0,-7.962331 z"
         id="path26524-6"
         inkscape:connector-curvature="0"
         sodipodi:nodetypes="ccccc" />
      <path
         style="color:#000000;clip-rule:nonzero;display:inline;overflow:visible;visibility:visible;opacity:1;isolation:auto;mix-blend-mode:normal;color-interpolation:sRGB;color-interpolation-filters:linearRGB;solid-color:#000000;solid-opacity:1;fill:#44a76b;fill-opacity:1;fill-rule:nonzero;stroke:none;stroke-width:1.58749998;stroke-linecap:butt;stroke-linejoin:miter;stroke-miterlimit:4;stroke-dasharray:none;stroke-dashoffset:0;stroke-opacity:1;marker:none;marker-start:none;marker-mid:none;marker-end:none;paint-order:stroke fill markers;color-rendering:auto;image-rendering:auto;shape-rendering:auto;text-rendering:auto;enable-background:accumulate"
         d="m 314.02842,26.123714 0,-18.3790861 -16.3101,9.1891651 z"
         id="path26526-7"
         inkscape:connector-curvature="0"
         sodipodi:nodetypes="cccc" />
    </g>
    <rect
       y="-27.208628"
       x="338.28171"
       height="30"
       width="30"
       id="rect3264-5"
       style="color:#000000;clip-rule:nonzero;display:inline;overflow:visible;visibility:visible;opacity:0.34100001;isolation:auto;mix-blend-mode:normal;color-interpolation:sRGB;color-interpolation-filters:linearRGB;solid-color:#000000;solid-opacity:1;fill:#000000;fill-opacity:0;fill-rule:nonzero;stroke:none;stroke-width:0;stroke-linecap:butt;stroke-linejoin:miter;stroke-miterlimit:4;stroke-dasharray:none;stroke-dashoffset:0;stroke-opacity:1;marker:none;marker-start:none;marker-mid:none;marker-end:none;paint-order:stroke fill markers;color-rendering:auto;image-rendering:auto;shape-rendering:auto;text-rendering:auto;enable-background:accumulate" />
  </g>
  <rect
     inkscape:export-ydpi="90"
     inkscape:export-xdpi="90"
     inkscape:export-filename="/home/mray/Projects/Snowdrift.coop/Seafile/mray/prototype-mvp/static/img/project/crowdmatch_hover.png"
     style="color:#000000;clip-rule:nonzero;display:inline;overflow:visible;visibility:visible;opacity:1;isolation:auto;mix-blend-mode:normal;color-interpolation:sRGB;color-interpolation-filters:linearRGB;solid-color:#000000;solid-opacity:1;fill:none;fill-opacity:1;fill-rule:nonzero;stroke:#5ecce6;stroke-width:2.10000014;stroke-linecap:square;stroke-linejoin:bevel;stroke-miterlimit:4;stroke-dasharray:2.09999999, 6.30000002;stroke-dashoffset:0.33337498;stroke-opacity:1;marker:none;marker-start:none;marker-mid:none;marker-end:none;paint-order:stroke fill markers;color-rendering:auto;image-rendering:auto;shape-rendering:auto;text-rendering:auto;enable-background:accumulate"
     id="rect19433-6"
     width="28.465284"
     height="87.436394"
     x="210.4749"
     y="-88.584999"
     rx="3.5655758"
     ry="3.5655756"
     transform="scale(1,-1)" />
</svg>
