<?xml version="1.0" encoding="UTF-8" standalone="no"?>
<!-- Created with Inkscape (http://www.inkscape.org/) -->

<svg
   xmlns:osb="http://www.openswatchbook.org/uri/2009/osb"
   xmlns:dc="http://purl.org/dc/elements/1.1/"
   xmlns:cc="http://creativecommons.org/ns#"
   xmlns:rdf="http://www.w3.org/1999/02/22-rdf-syntax-ns#"
   xmlns:svg="http://www.w3.org/2000/svg"
   xmlns="http://www.w3.org/2000/svg"
   xmlns:xlink="http://www.w3.org/1999/xlink"
   xmlns:sodipodi="http://sodipodi.sourceforge.net/DTD/sodipodi-0.dtd"
   xmlns:inkscape="http://www.inkscape.org/namespaces/inkscape"
   width="417.68887mm"
   height="39.511112mm"
   viewBox="0 0 1479.9999 140"
   id="svg9469"
   version="1.1"
   inkscape:version="0.91 r13725"
   sodipodi:docname="snowdrift-palette.svg"
   inkscape:export-filename="/home/mray/Projects/Snowdrift.coop/SparkleShare/Snowdrift-Design/palette/snowdrift-palette.svg.png"
   inkscape:export-xdpi="90"
   inkscape:export-ydpi="90">
  <defs
     id="defs9471">
    <linearGradient
       inkscape:collect="always"
       xlink:href="#Red"
       id="linearGradient9067"
       x1="-147.10832"
       y1="-11.465293"
       x2="-107.42082"
       y2="-11.465293"
       gradientUnits="userSpaceOnUse" />
    <linearGradient
       id="Red"
       osb:paint="solid"
       gradientTransform="matrix(0.21194404,0,0,0.00381842,-3094.6368,221.38405)">
      <stop
         style="stop-color:#d66a6a;stop-opacity:1;"
         offset="0"
         id="stop9059" />
    </linearGradient>
    <linearGradient
       gradientTransform="matrix(0,0,0,0,530.58655,-4020.2579)"
       osb:paint="solid"
       id="Dark-Blue">
      <stop
         id="stop4629"
         offset="0"
         style="stop-color:#09628e;stop-opacity:1;" />
    </linearGradient>
    <linearGradient
       gradientTransform="matrix(0,0,0,0,2377.8739,1720.7374)"
       osb:paint="solid"
       id="White">
      <stop
         id="stop4651"
         offset="0"
         style="stop-color:#ffffff;stop-opacity:1;" />
    </linearGradient>
    <linearGradient
       gradientTransform="matrix(0,0,0,0,2275.9728,2326.3727)"
       osb:paint="solid"
       id="Green">
      <stop
         id="stop4623"
         offset="0"
         style="stop-color:#4ebf7a;stop-opacity:1;" />
    </linearGradient>
    <linearGradient
       gradientUnits="userSpaceOnUse"
       y2="-25.869537"
       x2="-88.137268"
       y1="-25.869537"
       x1="-130.70416"
       id="linearGradient13611"
       xlink:href="#green2"
       inkscape:collect="always"
       gradientTransform="matrix(0.74588485,0,0,0.37294242,-33.213908,-2.8757426)" />
    <linearGradient
       osb:paint="solid"
       id="green2"
       gradientTransform="matrix(9.1033223e-6,0,0,9.1033222e-6,1986.6894,542.44388)">
      <stop
         id="stop13609"
         offset="0"
         style="stop-color:#44a76b;stop-opacity:1;" />
    </linearGradient>
    <linearGradient
       gradientTransform="matrix(0,0,0,0,2114.2038,1038.5104)"
       osb:paint="solid"
       id="Gold">
      <stop
         id="stop10252"
         offset="0"
         style="stop-color:#f9ff68;stop-opacity:1;" />
    </linearGradient>
    <linearGradient
       gradientTransform="matrix(0,0,0,0,3658.52,2574.5887)"
       osb:paint="solid"
       id="Bright-Blue">
      <stop
         id="stop4635"
         offset="0"
         style="stop-color:#c5f1fd;stop-opacity:1;" />
    </linearGradient>
    <linearGradient
       gradientTransform="matrix(0,0,0,0,32.194866,432.53077)"
       osb:paint="solid"
       id="Bright-Blue-text">
      <stop
         id="stop19747"
         offset="0"
         style="stop-color:#47cfec;stop-opacity:1;" />
    </linearGradient>
  </defs>
  <sodipodi:namedview
     id="base"
     pagecolor="#ffffff"
     bordercolor="#eeeeee"
     borderopacity="1"
     inkscape:pageopacity="1"
     inkscape:pageshadow="2"
     inkscape:zoom="2"
     inkscape:cx="850.1146"
     inkscape:cy="21.510482"
     inkscape:document-units="px"
     inkscape:current-layer="g9049"
     showgrid="false"
     fit-margin-top="0"
     fit-margin-left="0"
     fit-margin-right="0"
     fit-margin-bottom="0"
     inkscape:showpageshadow="false"
     inkscape:snap-global="true"
     inkscape:window-width="2493"
     inkscape:window-height="1376"
     inkscape:window-x="67"
     inkscape:window-y="27"
     inkscape:window-maximized="1"
     inkscape:snap-text-baseline="true"
     showguides="false"
     inkscape:guide-bbox="true">
    <inkscape:grid
       type="xygrid"
       id="grid4184"
       empspacing="20"
       originx="39.999949"
       originy="40.000003" />
    <sodipodi:guide
       position="46.999949,111"
       orientation="0,1"
       id="guide4192" />
  </sodipodi:namedview>
  <metadata
     id="metadata9474">
    <rdf:RDF>
      <cc:Work
         rdf:about="">
        <dc:format>image/svg+xml</dc:format>
        <dc:type
           rdf:resource="http://purl.org/dc/dcmitype/StillImage" />
        <dc:title />
      </cc:Work>
    </rdf:RDF>
  </metadata>
  <g
     inkscape:label="Layer 1"
     inkscape:groupmode="layer"
     id="layer1"
     transform="translate(1893.5714,689.67784)">
    <g
       style="display:inline;opacity:1"
       transform="matrix(3.7795277,0,0,3.7795277,-1188.6783,-551.9032)"
       id="g13537">
      <rect
         style="opacity:1;fill:url(#Bright-Blue-text);fill-opacity:1;fill-rule:nonzero;stroke:none;stroke-width:6.49884176;stroke-linecap:butt;stroke-linejoin:miter;stroke-miterlimit:4;stroke-dasharray:none;stroke-dashoffset:0;stroke-opacity:1;marker:none"
         id="rect13279"
         width="37.041645"
         height="15.875"
         x="-80.669632"
         y="-25.869537" />
      <text
         xml:space="preserve"
         style="font-style:normal;font-weight:normal;font-size:10.58333302px;line-height:125%;font-family:Sans;letter-spacing:0px;word-spacing:0px;fill:#000000;fill-opacity:1;stroke:none;stroke-width:0.26458332px;stroke-linecap:butt;stroke-linejoin:miter;stroke-opacity:1"
         x="-80.669655"
         y="-28.779955"
         id="text13486"
         sodipodi:linespacing="125%"><tspan
           sodipodi:role="line"
           id="tspan13488"
           x="-80.669655"
           y="-28.779955"
           style="font-style:normal;font-variant:normal;font-weight:bold;font-stretch:normal;font-size:4.58611107px;font-family:Nunito;-inkscape-font-specification:'Nunito Bold';fill:url(#Dark-Blue);stroke-width:0.26458332px">&quot;Bright Blue&quot; (text)</tspan></text>
    </g>
    <g
       style="display:inline;opacity:1"
       transform="matrix(3.7795277,0,0,3.7795277,-1557.7852,-572.34459)"
       id="g13542">
      <rect
         style="opacity:1;fill:url(#Bright-Blue);fill-opacity:1;fill-rule:nonzero;stroke:none;stroke-width:6.49884176;stroke-linecap:butt;stroke-linejoin:miter;stroke-miterlimit:4;stroke-dasharray:none;stroke-dashoffset:0;stroke-opacity:1;marker:none"
         id="rect13301"
         width="37.041649"
         height="15.875003"
         x="-30.635105"
         y="-20.46109" />
      <text
         sodipodi:linespacing="125%"
         id="text13490"
         y="-23.371506"
         x="-30.635126"
         style="font-style:normal;font-weight:normal;font-size:10.58333302px;line-height:125%;font-family:Sans;letter-spacing:0px;word-spacing:0px;fill:#000000;fill-opacity:1;stroke:none;stroke-width:0.26458332px;stroke-linecap:butt;stroke-linejoin:miter;stroke-opacity:1"
         xml:space="preserve"><tspan
           style="font-style:normal;font-variant:normal;font-weight:bold;font-stretch:normal;font-size:4.58611107px;font-family:Nunito;-inkscape-font-specification:'Nunito Bold';fill:url(#Dark-Blue);stroke-width:0.26458332px"
           y="-23.371506"
           x="-30.635126"
           id="tspan13492"
           sodipodi:role="line">&quot;Bright Blue&quot;</tspan></text>
    </g>
    <g
       style="display:inline;opacity:1"
       id="g13532"
       transform="matrix(3.7795277,0,0,3.7795277,-1359.5714,-572.34459)">
      <rect
         y="-20.461088"
         x="-130.70416"
         height="15.875001"
         width="37.041641"
         id="rect13281"
         style="opacity:1;fill:url(#Dark-Blue);fill-opacity:1;fill-rule:nonzero;stroke:none;stroke-width:6.49884176;stroke-linecap:butt;stroke-linejoin:miter;stroke-miterlimit:4;stroke-dasharray:none;stroke-dashoffset:0;stroke-opacity:1;marker:none" />
      <text
         sodipodi:linespacing="125%"
         id="text13486-1"
         y="-23.371506"
         x="-130.96878"
         style="font-style:normal;font-weight:normal;font-size:10.58333302px;line-height:125%;font-family:Sans;letter-spacing:0px;word-spacing:0px;display:inline;opacity:1;fill:#000000;fill-opacity:1;stroke:none;stroke-width:0.26458332px;stroke-linecap:butt;stroke-linejoin:miter;stroke-opacity:1"
         xml:space="preserve"><tspan
           style="font-style:normal;font-variant:normal;font-weight:bold;font-stretch:normal;font-size:4.58611107px;font-family:Nunito;-inkscape-font-specification:'Nunito Bold';fill:url(#Dark-Blue);stroke-width:0.26458332px"
           y="-23.371506"
           x="-130.96878"
           id="tspan13488-8"
           sodipodi:role="line">&quot;Dark Blue&quot;</tspan></text>
    </g>
    <g
       style="display:inline;opacity:1"
       transform="matrix(3.7795277,0,0,3.7795277,-450.31084,-576.3445)"
       id="g13571">
      <rect
         style="opacity:1;fill:url(#Gold);fill-opacity:1;fill-rule:nonzero;stroke:none;stroke-width:6.49884176;stroke-linecap:butt;stroke-linejoin:miter;stroke-miterlimit:4;stroke-dasharray:none;stroke-dashoffset:0;stroke-opacity:1;marker:none"
         id="rect13573"
         width="37.041634"
         height="15.875016"
         x="-133.15434"
         y="-19.402794" />
      <text
         xml:space="preserve"
         style="font-style:normal;font-weight:normal;font-size:10.58333302px;line-height:125%;font-family:Sans;letter-spacing:0px;word-spacing:0px;display:inline;opacity:1;fill:#000000;fill-opacity:1;stroke:none;stroke-width:0.26458332px;stroke-linecap:butt;stroke-linejoin:miter;stroke-opacity:1"
         x="-133.15437"
         y="-22.313196"
         id="text13575"
         sodipodi:linespacing="125%"><tspan
           sodipodi:role="line"
           id="tspan13577"
           x="-133.15437"
           y="-22.313196"
           style="font-style:normal;font-variant:normal;font-weight:bold;font-stretch:normal;font-size:4.58611107px;font-family:Nunito;-inkscape-font-specification:'Nunito Bold';fill:url(#Dark-Blue);stroke-width:0.26458332px">&quot;Gold&quot;</tspan></text>
    </g>
    <g
       style="display:inline;opacity:1"
       transform="matrix(3.7795277,0,0,3.7795277,-639.57144,-572.34459)"
       id="g13595">
      <rect
         style="opacity:1;fill:url(#linearGradient13611);fill-opacity:1;fill-rule:nonzero;stroke:none;stroke-width:6.49884176;stroke-linecap:butt;stroke-linejoin:miter;stroke-miterlimit:4;stroke-dasharray:none;stroke-dashoffset:0;stroke-opacity:1;marker:none"
         id="rect13597"
         width="37.041653"
         height="15.875003"
         x="-130.70416"
         y="-20.46109" />
      <text
         xml:space="preserve"
         style="font-style:normal;font-weight:normal;font-size:10.58333302px;line-height:125%;font-family:Sans;letter-spacing:0px;word-spacing:0px;display:inline;opacity:1;fill:#000000;fill-opacity:1;stroke:none;stroke-width:0.26458332px;stroke-linecap:butt;stroke-linejoin:miter;stroke-opacity:1"
         x="-130.70418"
         y="-23.371506"
         id="text13599"
         sodipodi:linespacing="125%"><tspan
           sodipodi:role="line"
           id="tspan13601"
           x="-130.70418"
           y="-23.371506"
           style="font-style:normal;font-variant:normal;font-weight:bold;font-stretch:normal;font-size:4.58611107px;font-family:Nunito;-inkscape-font-specification:'Nunito Bold';fill:url(#Dark-Blue);stroke-width:0.26458332px">&quot;Green&quot; (shade)</tspan><tspan
           id="tspan13603"
           sodipodi:role="line"
           x="-130.70418"
           y="-17.638866"
           style="font-style:normal;font-variant:normal;font-weight:bold;font-stretch:normal;font-size:4.58611107px;font-family:Nunito;-inkscape-font-specification:'Nunito Bold';fill:url(#Dark-Blue);stroke-width:0.26458332px" /></text>
    </g>
    <g
       style="display:inline;opacity:1"
       id="g13579"
       transform="matrix(3.7795277,0,0,3.7795277,-796.76434,-576.3445)">
      <rect
         y="-19.402794"
         x="-136.73854"
         height="15.875016"
         width="37.041653"
         id="rect13581"
         style="opacity:1;fill:url(#Green);fill-opacity:1;fill-rule:nonzero;stroke:none;stroke-width:6.49884176;stroke-linecap:butt;stroke-linejoin:miter;stroke-miterlimit:4;stroke-dasharray:none;stroke-dashoffset:0;stroke-opacity:1;marker:none" />
      <text
         sodipodi:linespacing="125%"
         id="text13583"
         y="-22.313196"
         x="-136.73856"
         style="font-style:normal;font-weight:normal;font-size:10.58333302px;line-height:125%;font-family:Sans;letter-spacing:0px;word-spacing:0px;display:inline;opacity:1;fill:#000000;fill-opacity:1;stroke:none;stroke-width:0.26458332px;stroke-linecap:butt;stroke-linejoin:miter;stroke-opacity:1"
         xml:space="preserve"><tspan
           style="font-style:normal;font-variant:normal;font-weight:bold;font-stretch:normal;font-size:4.58611107px;font-family:Nunito;-inkscape-font-specification:'Nunito Bold';fill:url(#Dark-Blue);stroke-width:0.26458332px"
           y="-22.313196"
           x="-136.73856"
           id="tspan13585"
           sodipodi:role="line">&quot;Green&quot;</tspan></text>
    </g>
    <g
       style="display:inline;opacity:1"
       id="g13587"
       transform="matrix(3.7795277,0,0,3.7795277,-217.57144,-576.3445)">
      <rect
         y="-19.402794"
         x="-147.10832"
         height="15.875016"
         width="37.041645"
         id="rect13589"
         style="opacity:1;fill:url(#White);fill-opacity:1;fill-rule:nonzero;stroke:#c5f1fd;stroke-width:0.26458332;stroke-linecap:butt;stroke-linejoin:miter;stroke-miterlimit:4;stroke-dasharray:none;stroke-dashoffset:0;stroke-opacity:1;marker:none" />
      <text
         sodipodi:linespacing="125%"
         id="text13591"
         y="-22.313196"
         x="-147.10835"
         style="font-style:normal;font-weight:normal;font-size:10.58333302px;line-height:125%;font-family:Sans;letter-spacing:0px;word-spacing:0px;display:inline;opacity:1;fill:#000000;fill-opacity:1;stroke:none;stroke-width:0.26458332px;stroke-linecap:butt;stroke-linejoin:miter;stroke-opacity:1"
         xml:space="preserve"><tspan
           style="font-style:normal;font-variant:normal;font-weight:bold;font-stretch:normal;font-size:4.58611107px;font-family:Nunito;-inkscape-font-specification:'Nunito Bold';fill:url(#Dark-Blue);stroke-width:0.26458332px"
           y="-22.313196"
           x="-147.10835"
           id="tspan13593"
           sodipodi:role="line">&quot;White&quot;</tspan></text>
    </g>
    <g
       transform="matrix(3.7795277,0,0,3.7795277,-37.571441,-576.3445)"
       id="g9049"
       style="display:inline;opacity:1">
      <rect
         style="opacity:1;fill:url(#linearGradient9067);fill-opacity:1;fill-rule:nonzero;stroke:none;stroke-width:6.49884176;stroke-linecap:butt;stroke-linejoin:miter;stroke-miterlimit:4;stroke-dasharray:none;stroke-dashoffset:0;stroke-opacity:1;marker:none"
         id="rect9051"
         width="37.041645"
         height="15.875016"
         x="-147.10832"
         y="-19.402794" />
      <text
         xml:space="preserve"
         style="font-style:normal;font-weight:normal;font-size:10.58333302px;line-height:125%;font-family:Sans;letter-spacing:0px;word-spacing:0px;display:inline;opacity:1;fill:#000000;fill-opacity:1;stroke:none;stroke-width:0.26458332px;stroke-linecap:butt;stroke-linejoin:miter;stroke-opacity:1"
         x="-147.10835"
         y="-22.313196"
         id="text9053"
         sodipodi:linespacing="125%"><tspan
           sodipodi:role="line"
           id="tspan9055"
           x="-147.10835"
           y="-22.313196"
           style="font-style:normal;font-variant:normal;font-weight:bold;font-stretch:normal;font-size:4.58611107px;font-family:Nunito;-inkscape-font-specification:'Nunito Bold';fill:url(#Dark-Blue);stroke-width:0.26458332px">&quot;Red&quot;</tspan></text>
    </g>
  </g>
</svg>
