<?xml version="1.0" encoding="UTF-8" standalone="no"?>
<!-- Created with Inkscape (http://www.inkscape.org/) -->

<svg
   xmlns:osb="http://www.openswatchbook.org/uri/2009/osb"
   xmlns:dc="http://purl.org/dc/elements/1.1/"
   xmlns:cc="http://creativecommons.org/ns#"
   xmlns:rdf="http://www.w3.org/1999/02/22-rdf-syntax-ns#"
   xmlns:svg="http://www.w3.org/2000/svg"
   xmlns="http://www.w3.org/2000/svg"
   xmlns:xlink="http://www.w3.org/1999/xlink"
   xmlns:sodipodi="http://sodipodi.sourceforge.net/DTD/sodipodi-0.dtd"
   xmlns:inkscape="http://www.inkscape.org/namespaces/inkscape"
   width="1024"
   height="1024"
   viewBox="0 0 1024 1024"
   id="svg8173"
   version="1.1"
   inkscape:version="0.91 r13725"
   sodipodi:docname="me-code.svg"
   inkscape:export-filename="/home/iko/snowdrift/me-code-512x512.png"
   inkscape:export-xdpi="45"
   inkscape:export-ydpi="45">
  <defs
     id="defs8175">
    <linearGradient
       id="Bright-Blue-Text"
       osb:paint="solid">
      <stop
         style="stop-color:#47cfec;stop-opacity:1;"
         offset="0"
         id="stop12854" />
    </linearGradient>
    <linearGradient
       gradientTransform="matrix(5.3086517e-8,0,0,0,1268.906,-3512.413)"
       osb:paint="solid"
       id="Bright-Blue">
      <stop
         id="stop4635"
         offset="0"
         style="stop-color:#c5f1fd;stop-opacity:1;" />
    </linearGradient>
    <linearGradient
       gradientTransform="matrix(0,0,0,0,-1967.7358,-7647.3109)"
       osb:paint="solid"
       id="White">
      <stop
         id="stop4651"
         offset="0"
         style="stop-color:#ffffff;stop-opacity:1;" />
    </linearGradient>
    <linearGradient
       gradientTransform="matrix(0,0,0,0,384299.12,219667.45)"
       osb:paint="solid"
       id="Dark-Blue">
      <stop
         id="stop4629"
         offset="0"
         style="stop-color:#13628e;stop-opacity:1;" />
    </linearGradient>
    <linearGradient
       inkscape:collect="always"
       xlink:href="#Bright-Blue"
       id="linearGradient12445-5"
       x1="-715.08826"
       y1="615.20563"
       x2="-622.39484"
       y2="615.20563"
       gradientUnits="userSpaceOnUse"
       gradientTransform="matrix(5.176417,0,0,5.176417,3738.9705,-2557.0294)" />
    <linearGradient
       inkscape:collect="always"
       xlink:href="#White"
       id="linearGradient12843"
       gradientUnits="userSpaceOnUse"
       gradientTransform="matrix(4.9179465,0,0,4.9165687,3554.1413,-2410.6459)"
       x1="-715.08826"
       y1="615.20563"
       x2="-622.39484"
       y2="615.20563" />
    <linearGradient
       inkscape:collect="always"
       xlink:href="#Dark-Blue"
       id="linearGradient12845"
       gradientUnits="userSpaceOnUse"
       gradientTransform="matrix(5.176417,0,0,5.176417,3655.1157,-2574.9983)"
       x1="-701.09943"
       y1="597.68414"
       x2="-581.53638"
       y2="597.68414" />
    <linearGradient
       inkscape:collect="always"
       xlink:href="#Dark-Blue"
       id="linearGradient12847"
       gradientUnits="userSpaceOnUse"
       gradientTransform="matrix(5.1871865,0,0,-1.0503176,3802.5749,1587.2386)"
       x1="-715.08826"
       y1="615.20563"
       x2="-622.39484"
       y2="615.20563" />
    <linearGradient
       inkscape:collect="always"
       xlink:href="#Dark-Blue"
       id="linearGradient12856"
       x1="650.06329"
       y1="587.74774"
       x2="1004.1113"
       y2="587.74774"
       gradientUnits="userSpaceOnUse"
       gradientTransform="matrix(1.1311998,0,0,1.1311998,-109.74397,105.22792)" />
    <linearGradient
       gradientTransform="matrix(1.0920057,0.0495493,-0.01349555,0.27757241,-133.63829,732.9145)"
       inkscape:collect="always"
       xlink:href="#Bright-Blue-Text"
       id="linearGradient12856-0"
       x1="650.06329"
       y1="587.74774"
       x2="1004.1113"
       y2="587.74774"
       gradientUnits="userSpaceOnUse" />
    <linearGradient
       inkscape:collect="always"
       xlink:href="#White"
       id="linearGradient12936"
       x1="751.39478"
       y1="737.36218"
       x2="793.60522"
       y2="737.36218"
       gradientUnits="userSpaceOnUse"
       gradientTransform="matrix(1.7868558,0,0,1.7868558,-552.46879,-561.22891)" />
    <linearGradient
       gradientTransform="matrix(0.86264702,0.03914225,-0.01066102,0.21927268,45.732728,777.80175)"
       inkscape:collect="always"
       xlink:href="#Bright-Blue"
       id="linearGradient12856-0-2"
       x1="650.06329"
       y1="587.74774"
       x2="1004.1113"
       y2="587.74774"
       gradientUnits="userSpaceOnUse" />
    <linearGradient
       inkscape:collect="always"
       xlink:href="#Bright-Blue-Text"
       id="linearGradient12983"
       x1="625.67401"
       y1="782.099"
       x2="1007.0564"
       y2="782.099"
       gradientUnits="userSpaceOnUse" />
    <linearGradient
       gradientTransform="matrix(0.33156637,0.01504469,-0.00409766,0.08427948,424.17398,905.47265)"
       inkscape:collect="always"
       xlink:href="#Bright-Blue"
       id="linearGradient12856-0-2-7"
       x1="650.06329"
       y1="587.74774"
       x2="1004.1113"
       y2="587.74774"
       gradientUnits="userSpaceOnUse" />
    <linearGradient
       inkscape:collect="always"
       xlink:href="#White"
       id="linearGradient13098"
       gradientUnits="userSpaceOnUse"
       gradientTransform="matrix(7.7988532,-2.9714232e-8,4.8493712e-8,7.7988534,-4808.7634,-4799.4056)"
       x1="728.5882"
       y1="701.88715"
       x2="746.43976"
       y2="701.88715" />
  </defs>
  <sodipodi:namedview
     id="base"
     pagecolor="#ffffff"
     bordercolor="#666666"
     borderopacity="1.0"
     inkscape:pageopacity="0"
     inkscape:pageshadow="2"
     inkscape:zoom="0.7"
     inkscape:cx="280.62876"
     inkscape:cy="400.19742"
     inkscape:document-units="px"
     inkscape:current-layer="layer1"
     showgrid="false"
     units="px"
     borderlayer="true"
     inkscape:showpageshadow="false"
     inkscape:window-width="1920"
     inkscape:window-height="1030"
     inkscape:window-x="0"
     inkscape:window-y="26"
     inkscape:window-maximized="1"
     inkscape:snap-page="true"
     inkscape:snap-bbox="true"
     inkscape:bbox-nodes="true" />
  <metadata
     id="metadata8178">
    <rdf:RDF>
      <cc:Work
         rdf:about="">
        <dc:format>image/svg+xml</dc:format>
        <dc:type
           rdf:resource="http://purl.org/dc/dcmitype/StillImage" />
        <dc:title></dc:title>
      </cc:Work>
    </rdf:RDF>
  </metadata>
  <g
     inkscape:label="Layer 1"
     inkscape:groupmode="layer"
     id="layer1"
     transform="translate(0,-28.362161)">
    <g
       id="g13072"
       transform="matrix(1.0476809,0,0,1.0476809,-27.169315,-20.370985)">
      <g
         transform="matrix(0.95647024,0,0,0.95647024,31.015449,36.064936)"
         id="g12985">
        <path
           style="opacity:1;fill:url(#linearGradient12856);fill-opacity:1;fill-rule:nonzero;stroke:url(#linearGradient12983);stroke-width:12;stroke-linejoin:round;stroke-miterlimit:4;stroke-dasharray:none"
           d="m 694.47102,648.89368 296.02997,14.17267 c 11.46651,0.54897 18.01011,9.73324 16.28011,20.3969 l -34.75366,214.21521 c -1.73004,10.66366 -13.61499,18.37498 -25.06853,17.60035 L 642.35752,894.67754 c -11.45354,-0.77463 -18.48518,-9.82125 -16.28008,-20.39689 L 669.40251,666.494 c 2.2051,-10.57565 13.60191,-18.14929 25.06851,-17.60032 z"
           id="rect12849"
           inkscape:connector-curvature="0"
           sodipodi:nodetypes="sssssssss" />
        <text
           xml:space="preserve"
           style="font-style:normal;font-weight:normal;font-size:155.97705078px;line-height:125%;font-family:sans-serif;letter-spacing:0px;word-spacing:0px;fill:url(#linearGradient13098);fill-opacity:1;stroke:none;stroke-width:1px;stroke-linecap:butt;stroke-linejoin:miter;stroke-opacity:1"
           x="862.11719"
           y="711.63751"
           id="text12880"
           sodipodi:linespacing="125%"
           transform="matrix(0.98949991,0.04975696,-0.23566012,0.99876136,0,0)"><tspan
             sodipodi:role="line"
             id="tspan12882"
             x="862.11719"
             y="711.63751"
             style="font-style:normal;font-variant:normal;font-weight:900;font-stretch:normal;font-family:Nunito;-inkscape-font-specification:'Nunito Heavy';fill:url(#linearGradient13098);fill-opacity:1">&gt;</tspan></text>
        <path
           style="fill:none;fill-rule:evenodd;stroke:url(#linearGradient12936);stroke-width:14.29484653;stroke-linecap:round;stroke-linejoin:round;stroke-miterlimit:4;stroke-dasharray:none;stroke-opacity:1"
           d="m 790.22576,753.77834 65.01868,3.90291"
           id="path12930"
           inkscape:connector-curvature="0"
           sodipodi:nodetypes="cc" />
      </g>
      <path
         inkscape:connector-curvature="0"
         id="path12433-9"
         d="m 82.30196,498.57767 c -64.957511,97.854 -58.599939,235.07807 13.395894,327.56387 32.850216,51.26936 99.133146,67.71044 156.434636,69.85751 47.48457,-1.98433 92.81926,-18.73645 137.90782,-32.18629 47.52634,-21.24117 71.8656,-62.72326 99.16804,-103.51364 C 511.9602,706.02646 529.80823,631.93071 509.39886,573.09695 495.8454,489.78428 477.17317,435.85311 401.11732,401.09166 323.78373,369.87125 264.7058,348.42591 221.6817,375.25021 c -43.35959,22.59645 -82.5727,53.97952 -116.6884,88.43204 -6.791406,11.99552 -9.80113,27.52141 -22.69134,34.89542 z"
         style="fill:url(#linearGradient12445-5);fill-opacity:1;fill-rule:evenodd;stroke:none;stroke-width:1px;stroke-linecap:butt;stroke-linejoin:miter;stroke-opacity:1"
         sodipodi:nodetypes="cccccccccc" />
      <path
         style="fill:url(#linearGradient12843);fill-opacity:1;fill-rule:evenodd;stroke:none;stroke-width:1px;stroke-linecap:butt;stroke-linejoin:miter;stroke-opacity:1"
         d="m 80.058656,491.57429 c -61.71402,92.94189 -54.125841,241.00373 22.271944,331.57401 31.20991,48.6957 114.63828,61.00095 169.07856,63.04025 45.11356,-1.88468 98.45296,-33.71592 128.16466,-63.42772 29.71171,-29.71181 48.56246,-56.07209 61.6445,-94.81483 21.61579,-51.54826 44.00162,-109.71281 24.61133,-165.59317 -12.8767,-79.13054 -69.48072,-147.19084 -141.73889,-180.20733 -39.1422,-24.47275 -90.73607,-33.18559 -131.6119,-7.70784 -41.19455,21.46215 -78.44964,51.26983 -110.86188,83.99291 -6.452297,11.39334 -9.31175,26.13987 -21.558324,33.14372 z"
         id="path12447-7"
         inkscape:connector-curvature="0"
         sodipodi:nodetypes="ccczcccccc" />
      <path
         sodipodi:nodetypes="cssssssssssssssscsccssssscssscsssscccsscssscsssscssscsscscsssssssssscssssssscssssscsscsssscsssssssssssscsssssssccsssssssssssssscscsscssssssscccsscsssssssssssssssssssssssssssssssssssscsssssc"
         inkscape:connector-curvature="0"
         id="path12387-9"
         d="m 142.82478,990.52752 c -3.88355,-1.78768 -2.97695,-12.67477 1.68405,-20.21629 5.03976,-8.15426 15.15981,-14.27511 38.0464,-23.0113 20.15723,-7.69412 30.17515,-16.2628 30.17515,-25.80925 0,-4.72674 -2.58044,-9.09926 -10.56113,-17.89493 -9.10211,-10.03158 -12.35062,-12.16282 -23.51222,-15.42624 C 114.58846,869.43772 64.9503,816.88834 40.840982,742.26982 26.043521,696.47209 22.228554,653.70339 29.544436,615.6237 c 12.476355,-64.94084 46.953,-138.26173 84.277554,-179.23199 9.15372,-10.04825 11.5782,-13.94614 10.20277,-16.40432 -3.26202,-5.82865 -11.656,-44.40289 -14.79316,-67.98168 -6.82692,-51.30673 -9.385469,-96.68982 -7.10862,-126.07821 4.42304,-57.08904 15.31298,-119.09853 24.89059,-141.734074 7.49711,-17.717995 19.92936,-24.99231 26.19992,-15.330424 10.26768,15.819855 9.36491,90.444898 -2.98747,246.932588 -2.22684,28.2137 -4.59836,60.09437 -5.27021,70.84589 l -1.22194,19.54827 19.41679,-12.80153 c 38.033,-25.0755 81.4065,-37.28863 132.61814,-37.34268 l 15.64676,-0.0207 -1.56545,-24.64296 C 305.54064,263.53547 309.3216,218.32697 324.4285,157.0663 343.0531,81.541703 364.71102,44.575253 389.14557,46.605237 c 13.04348,1.083683 15.07725,12.481842 10.54793,59.120063 -5.2377,53.93578 -33.99803,167.69562 -58.98998,233.33249 -4.66167,12.24326 -8.43155,24.82024 -8.3772,27.94882 0.0963,5.5472 0.59767,5.8009 20.21525,10.22368 36.08739,8.13588 61.00615,19.90239 88.81427,41.93757 34.26136,27.14865 56.96373,61.66655 74.23976,112.87819 3.73246,11.06423 7.49809,20.07653 8.36794,20.0274 0.87,-0.0518 9.34617,-0.82196 18.83589,-1.71769 53.8102,-5.07853 90.18468,18.71503 98.65454,64.53274 4.55628,24.64735 -6.27744,51.06323 -31.25195,76.20131 -23.93238,24.08923 -48.18995,36.15587 -83.78973,41.68009 l -16.16253,2.50813 -8.83004,18.58132 -8.82998,18.58137 24.52442,0.21327 c 13.48844,0.11699 34.02961,0.84179 45.64709,1.61012 11.61738,0.76834 21.41204,1.21284 21.7658,0.98766 0.35355,-0.22517 -1.2221,-4.06576 -3.5019,-8.53467 -4.45809,-8.73851 -3.90612,-13.57101 1.75527,-15.36785 5.76813,-1.83079 10.28746,1.04248 16.12972,10.2548 l 5.49585,8.6661 5.07439,-5.45253 c 2.79097,-2.99901 6.32713,-8.16844 7.85827,-11.48766 2.26349,-4.90704 4.19414,-6.15191 10.32949,-6.66034 13.63354,-1.12986 11.70915,10.16379 -4.77437,28.0186 l -7.60897,8.24204 11.6502,5.82166 c 13.30199,6.64709 19.31331,12.35745 17.62906,16.74659 -2.1522,5.60865 -10.59001,5.8272 -22.06981,0.57158 l -10.87472,-4.97863 -1.2633,19.37016 c -0.69473,10.65358 -1.81925,21.34433 -2.49892,23.75732 -1.79264,6.3643 -6.91812,7.52796 -11.76925,2.67206 -3.71879,-3.72293 -4.15755,-6.59739 -4.15755,-27.23737 l 0,-23.07528 -24.62463,10e-4 c -13.54347,5.7e-4 -38.2957,-1.42357 -55.00502,-3.16476 -16.70937,-1.74109 -30.5891,-2.8727 -30.84399,-2.51455 -10.06922,14.14368 -23.16617,29.73298 -33.94145,40.39992 -8.56288,8.4769 -12.74419,13.94294 -11.10347,14.51566 1.44743,0.50521 20.09294,5.51795 41.43479,11.13923 21.34164,5.62133 40.12561,10.72802 41.74221,11.34836 2.37753,0.91235 2.93881,-1.19352 2.93881,-11.02654 0,-16.97761 2.41485,-22.47455 9.87313,-22.47455 7.25967,0 8.95204,4.12079 8.4578,20.59323 l -0.34785,11.59352 17.66322,0.0311 c 20.19212,0.0311 23.77596,1.41306 22.00702,8.4609 -1.42092,5.6615 -8.19939,9.25373 -20.69334,10.96619 -4.83814,0.6631 -8.7965,1.45395 -8.7965,1.7575 0,0.30334 2.65178,6.1588 5.89284,13.01185 4.17943,8.83755 5.42949,13.71518 4.29911,16.77693 -2.92954,7.93689 -7.22809,5.79676 -17.37179,-8.64902 -5.45543,-7.76954 -10.39223,-14.14114 -10.97059,-14.1591 -0.57815,-0.0207 -2.7069,3.04181 -4.73073,6.79953 -2.02346,3.75767 -7.20153,10.27156 -11.5065,14.47533 -7.00079,6.83603 -8.41302,7.43137 -13.37441,5.63805 -4.77711,-1.72664 -5.47054,-2.96795 -4.9954,-8.94314 0.30334,-3.81605 3.12676,-11.10745 6.27423,-16.20306 l 5.72243,-9.26486 -18.80613,-5.31209 c -10.34342,-2.92172 -31.02921,-9.86506 -45.96845,-15.42976 l -27.16247,-10.11751 -26.57593,13.12739 c -14.61676,7.22007 -27.85746,13.1275 -29.42348,13.1275 -2.17544,0 -2.44803,1.30554 -1.15517,5.53209 2.20847,7.21846 2.22839,27.8324 0.0362,36.47101 l -1.72581,6.79891 9.77245,-1.76971 c 13.23216,-2.39627 38.3058,-1.78338 51.36605,1.25544 13.98968,3.25503 31.65296,12.62745 39.97069,21.20923 5.94827,6.13716 6.3936,7.37587 4.30248,11.96575 -1.28297,2.81592 -4.83343,6.10476 -7.88948,7.30848 -6.87133,2.70634 -95.77288,0.90934 -109.15795,-2.20639 -4.97889,-1.15895 -11.06319,-2.56316 -13.52085,-3.12056 -2.45746,-0.55729 -5.43126,-2.81296 -6.60858,-5.01248 -1.75781,-3.28459 -0.35614,-7.32499 7.84232,-22.60758 12.65427,-23.58831 14.024,-30.45131 8.31245,-41.64712 -3.11786,-6.11144 -5.21421,-8.13428 -7.51538,-7.25123 -12.7373,4.88767 -42.87673,8.08696 -76.52075,8.12273 -20.19258,0.0259 -36.71358,0.15477 -36.71317,0.29609 0,0.14131 1.35814,3.50707 3.0178,7.47909 4.23923,10.14547 3.66946,18.83921 -1.99225,30.39996 -2.68645,5.48509 -4.69501,10.09215 -4.46336,10.23776 0.23139,0.14546 9.21309,-0.6046 19.96006,-1.66722 23.77502,-2.35082 48.88302,1.21687 67.56435,9.60065 21.20882,9.51793 24.37399,17.96967 8.45589,22.57855 -8.90158,2.57713 -35.1486,6.25197 -76.44875,10.70353 -23.81617,2.5672 -92.20938,4.53475 -96.05711,2.76359 z M 315.54965,876.20086 c 29.2802,-5.23243 28.96097,-4.28276 6.97616,-20.74439 -29.21347,-21.87414 -54.76039,-32.53497 -70.7684,-29.53187 -3.76202,0.7057 -6.84028,1.77458 -6.84028,2.37509 0,0.60052 3.67024,4.23349 8.15638,8.07325 6.2996,5.39222 8.01682,8.1836 7.5438,12.26303 -1.00749,8.68784 -7.30579,7.35854 -31.81964,-6.71557 -32.18417,-18.47779 -42.01325,-21.90799 -58.15073,-20.29368 -20.72658,2.07352 -20.84559,2.81049 -2.93327,18.12078 17.76303,15.18269 36.38643,26.87771 56.57642,35.52865 13.39435,5.73909 14.01288,5.80866 43.76123,4.92085 16.59621,-0.49538 37.97072,-2.29351 47.49833,-3.99614 z m 70.72787,-22.54827 c 39.17404,-19.81289 73.10872,-54.90651 95.78934,-99.06072 l 10.46268,-20.36869 -11.23743,0 c -50.47602,0 -101.50385,-33.20599 -101.58175,-66.10352 0,-2.61119 2.72626,-9.88338 6.07188,-16.16046 19.09115,-35.81884 62.60116,-70.93814 113.94588,-91.97204 l 4.35787,-1.78524 -6.784,-20.61338 c -12.61338,-38.32738 -31.3869,-72.20304 -52.87917,-95.4171 -30.05873,-32.46721 -62.82529,-48.29048 -109.63305,-52.9433 -11.2674,-1.12008 -14.38738,-0.7687 -17.40259,1.96005 -2.41775,2.18802 -4.12659,2.59209 -4.99778,1.18193 -1.69077,-2.73512 -17.04366,-2.74858 -32.40111,-0.0311 -17.55789,3.10984 -34.96696,9.15237 -63.61915,22.0812 l -25.53009,11.52037 -4.15304,-4.42076 -4.15298,-4.42077 4.53733,-4.16271 c 10.53753,-9.66691 41.53894,-21.24687 90.03337,-33.63036 l 27.15781,-6.9349 -16.76398,-0.12578 c -16.95406,-0.12682 -35.35922,3.55128 -59.67963,11.92724 -30.5712,10.52878 -73.37918,36.95718 -79.04555,48.8002 -1.48382,3.10166 -4.28928,5.53214 -6.38573,5.53214 -5.23284,0 -32.21569,29.58426 -46.709967,51.21268 -21.923731,32.71511 -36.630708,65.76001 -47.489123,106.70345 -4.73668,17.85962 -5.337921,23.84087 -5.359455,53.30923 0,24.753 0.934343,37.79607 3.747364,51.29762 7.984002,38.3265 26.047264,80.59246 45.324914,106.05784 10.730557,14.1751 36.320797,38.75423 46.439187,44.60415 7.23384,4.18265 7.09848,3.72646 -3.2263,-10.85085 -22.68565,-32.02929 -41.480547,-92.99019 -41.55457,-134.78184 -0.08024,-44.07911 17.8224,-89.39796 36.97344,-93.60422 6.81045,-1.49588 12.06555,1.89783 33.91821,21.90541 37.85177,34.65554 86.60322,69.68715 96.97971,69.68715 1.71096,0 4.16696,1.27211 5.45739,2.82689 2.86044,3.44672 28.26489,13.82544 47.43229,19.37818 24.03291,6.96202 53.40954,12.15718 75.43773,13.34071 28.71726,1.54294 36.99974,7.07415 24.87476,16.61169 -8.1101,6.37937 -41.57864,5.93637 -68.37048,-0.90499 -18.25691,-4.66193 -20.03522,-4.80351 -21.88377,-1.74217 -8.69959,14.41042 -19.48745,20.89812 -34.74861,20.89812 -9.23747,0 -10.62253,0.67387 -18.13346,8.82248 -9.20299,9.98402 -15.26044,20.52041 -13.46624,23.42334 0.66351,1.07395 3.70481,1.95265 6.75792,1.95265 7.67579,0 25.42661,5.48343 37.46235,11.57235 24.8293,12.5614 53.30917,35.92102 53.30917,43.72503 0,2.5028 1.62384,2.34233 10.09878,-0.99822 5.55414,-2.18921 14.83302,-6.37501 20.61963,-9.3016 z M 304.32718,752.26652 c 2.7301,-2.56456 4.92252,-5.63671 4.87246,-6.82687 -0.0518,-1.19016 -10.49218,-7.17545 -23.20401,-13.30049 -22.31606,-10.75256 -23.15024,-10.98617 -24.20731,-6.77599 -1.49526,5.95759 6.65024,24.17123 13.0806,29.24842 7.06405,5.57753 22.31765,4.3633 29.45826,-2.34507 z m -80.65893,-14.84338 c 6.55945,-2.74065 24.00967,-22.20978 22.83318,-25.47506 -0.31991,-0.88326 -8.26281,-6.59652 -17.65542,-12.69605 -11.70776,-7.60307 -17.50068,-10.33207 -18.42447,-8.67914 -3.35918,6.01267 -7.84993,28.55488 -6.71624,33.71628 1.38081,6.28707 8.20011,15.96904 11.24731,15.96904 1.06174,0 4.98391,-1.27583 8.71564,-2.83507 z"
         style="fill:url(#linearGradient12845);fill-opacity:1" />
      <path
         id="path12451-6"
         transform="translate(0,28.362161)"
         d="m 643.96875,854.16211 c -10.67289,-0.11344 -20.11329,1.80105 -22.9375,3.84375 l -81.06055,58.62891 c -27.16295,-8.26398 -45.87783,-19.20907 -93.29297,-23.5 -45.18241,-2.72901 -90.61193,-6.12853 -138.19531,-6.53125 -57.4207,0.43565 -123.84116,3.77299 -156.75976,14.17578 -72.145591,18.76575 -78.516502,46.60787 -13.42383,66.46289 12.91702,1.49625 15.93274,4.64618 22.73828,7.08008 34.18666,6.9906 73.48183,13.35846 116.93164,17.94335 43.1136,5.4428 97.53133,3.58162 138.81641,-1.64648 75.87609,-7.02191 135.38041,-21.46293 149.30859,-38.27148 l 286.75,18.08984 c 12.47793,0.78703 24.27914,-1.4235 27.57031,-3.66602 l 122.34764,-83.36523 c 2.796,-2.81758 -4.99973,-5.66996 -17.47459,-6.50586 L 648.60156,854.33984 c -1.55935,-0.10448 -3.10811,-0.16153 -4.63281,-0.17773 z"
         style="opacity:0.1;fill:url(#linearGradient12847);fill-opacity:1;fill-rule:evenodd;stroke:none;stroke-width:1px;stroke-linecap:butt;stroke-linejoin:miter;stroke-opacity:1"
         inkscape:connector-curvature="0" />
      <path
         sodipodi:nodetypes="sscssssss"
         inkscape:connector-curvature="0"
         id="rect12849-1"
         d="m 642.15439,894.67882 298.0874,19.82594 c 11.04476,0.73459 17.94833,3.24203 15.47283,5.71809 l -102.0619,66.15982 c -2.95223,1.91373 -13.36244,3.91245 -24.40992,3.22068 L 535.4411,971.20597 c -11.04746,-0.69178 -18.36677,-3.7175 -15.47267,-5.71807 l 97.77607,-67.58841 c 2.8941,-2.00057 13.36517,-3.95526 24.40989,-3.22067 z"
         style="opacity:1;fill:url(#linearGradient12856-0);fill-opacity:1;fill-rule:nonzero;stroke:none;stroke-width:4;stroke-linejoin:round;stroke-miterlimit:4;stroke-dasharray:none" />
      <path
         sodipodi:nodetypes="sscssssss"
         inkscape:connector-curvature="0"
         id="rect12849-1-9"
         d="m 652.86803,907.01858 241.1931,14.23324 c 8.72907,0.51512 14.17857,2.5611 12.22301,4.5171 l -42.05397,26.54968 c -2.35016,1.48371 -10.55536,3.08247 -19.283,2.54424 l -235.66469,-14.5333 c -8.72762,-0.53823 -14.47981,-2.8951 -12.22288,-4.51708 l 36.52545,-26.24966 c 2.25692,-1.62197 10.55394,-3.05933 19.28298,-2.54422 z"
         style="opacity:1;fill:url(#linearGradient12856-0-2);fill-opacity:1;fill-rule:nonzero;stroke:none;stroke-width:4;stroke-linejoin:round;stroke-miterlimit:4;stroke-dasharray:none" />
      <path
         sodipodi:nodetypes="sscssssss"
         inkscape:connector-curvature="0"
         id="rect12849-1-9-3"
         d="m 679.25033,951.60279 78.05759,4.46053 c 3.35546,0.19174 5.44966,0.98438 4.69803,1.73618 l -23.23491,14.75031 c -0.90188,0.57254 -4.05676,1.18007 -7.41159,0.9779 l -75.9327,-4.57586 c -3.35482,-0.20217 -5.57589,-1.12755 -4.69798,-1.73618 l 21.10997,-14.63499 c 0.87791,-0.60863 4.05614,-1.16963 7.41159,-0.97789 z"
         style="opacity:1;fill:url(#linearGradient12856-0-2-7);fill-opacity:1;fill-rule:nonzero;stroke:none;stroke-width:4;stroke-linejoin:round;stroke-miterlimit:4;stroke-dasharray:none" />
      <g
         id="g9881"
         transform="matrix(19.591135,-3.2923018,3.292302,19.591136,-12062.352,-6974.7393)"
         style="display:inline;opacity:1">
        <path
           sodipodi:nodetypes="ccccccssc"
           inkscape:connector-curvature="0"
           id="path9871"
           d="m 555.24519,479.21729 c -0.12565,-0.31905 -0.0561,-2.54218 0.12292,-3.92614 0.13557,-1.0484 0.31651,-1.52628 0.56021,-1.47944 0.16063,0.0309 0.1791,0.21044 0.20361,1.98006 0.0148,1.07038 -0.008,2.32813 -0.0499,2.79501 l -0.0769,0.84887 -0.32464,0.0313 c -0.27647,0.0267 -0.20527,-0.36467 -0.43528,-0.24967 z"
           style="fill:url(#Dark-Blue);stroke-width:0.09986781" />
      </g>
      <g
         id="g9881-3"
         transform="matrix(19.60097,-3.2332365,3.2332367,19.600971,-12047.444,-7026.6163)"
         style="display:inline;opacity:1">
        <path
           sodipodi:nodetypes="ccscsc"
           inkscape:connector-curvature="0"
           id="path9871-8"
           d="m 558.07966,479.01575 c -0.31288,-0.47729 -0.34775,-4.64249 -0.0414,-4.94881 0.29392,-0.29391 0.43376,0.42916 0.61868,3.19891 0.0904,1.35371 0.0888,1.75679 -0.008,1.87252 -0.18268,0.22012 -0.93113,-0.12262 -0.57001,-0.12262 z"
           style="fill:url(#Dark-Blue);stroke-width:0.09986781" />
      </g>
    </g>
  </g>
</svg>
