<?xml version="1.0" encoding="UTF-8" standalone="no"?>
<!-- Created with Inkscape (http://www.inkscape.org/) -->

<svg
   xmlns:osb="http://www.openswatchbook.org/uri/2009/osb"
   xmlns:dc="http://purl.org/dc/elements/1.1/"
   xmlns:cc="http://creativecommons.org/ns#"
   xmlns:rdf="http://www.w3.org/1999/02/22-rdf-syntax-ns#"
   xmlns:svg="http://www.w3.org/2000/svg"
   xmlns="http://www.w3.org/2000/svg"
   xmlns:xlink="http://www.w3.org/1999/xlink"
   xmlns:sodipodi="http://sodipodi.sourceforge.net/DTD/sodipodi-0.dtd"
   xmlns:inkscape="http://www.inkscape.org/namespaces/inkscape"
   width="380.89865mm"
   height="297.94601mm"
   viewBox="0 0 1349.6409 1055.7142"
   id="svg4652"
   version="1.1"
   inkscape:version="0.91 r13725"
   sodipodi:docname="t-shirt2.svg"
   inkscape:export-filename="/home/mray/Projects/Snowdrift.coop/SparkleShare/Snowdrift-Design/t-shirt/t-shirt1.svg.png"
   inkscape:export-xdpi="90.023949"
   inkscape:export-ydpi="90.023949">
  <defs
     id="defs4654">
    <linearGradient
       id="linearGradient9389"
       osb:paint="solid"
       gradientTransform="matrix(0,0,0,0,6873.8641,411.19356)">
      <stop
         style="stop-color:#13628e;stop-opacity:1;"
         offset="0"
         id="stop9391" />
    </linearGradient>
    <path
       style="fill:none;fill-rule:evenodd;stroke:#000000;stroke-width:1px;stroke-linecap:butt;stroke-linejoin:miter;stroke-opacity:1"
       d="m 279.55972,504.60699 c -2.63754,-3.51672 69.2464,-18.87242 122.481,-11.61676"
       id="path5964-2"
       inkscape:connector-curvature="0"
       sodipodi:nodetypes="cc" />
    <path
       style="fill:none;fill-opacity:1;fill-rule:evenodd;stroke:none;stroke-width:1px;stroke-linecap:butt;stroke-linejoin:miter;stroke-opacity:1"
       d="M 327.47192,556.20707 448.22673,533.19581"
       id="path4306"
       inkscape:connector-curvature="0"
       sodipodi:nodetypes="cc" />
    <path
       style="fill:none;fill-opacity:1;fill-rule:evenodd;stroke:none;stroke-width:1px;stroke-linecap:butt;stroke-linejoin:miter;stroke-opacity:1"
       d="M 268.30253,533.65619 419.36045,505.55233"
       id="path5964"
       inkscape:connector-curvature="0"
       sodipodi:nodetypes="cc" />
    <path
       style="fill:none;fill-opacity:1;fill-rule:evenodd;stroke:none;stroke-width:1px;stroke-linecap:butt;stroke-linejoin:miter;stroke-opacity:1"
       d="m 299.36696,697.22943 c 55.66858,-4.49931 113.45374,-5.98042 166.15298,-1.25102"
       id="path4377-2"
       inkscape:connector-curvature="0"
       sodipodi:nodetypes="cc" />
    <linearGradient
       y2="-58.740475"
       x2="1075.6625"
       y1="-58.740475"
       x1="974.37823"
       gradientUnits="userSpaceOnUse"
       id="linearGradient7364"
       xlink:href="#linearGradient6387"
       inkscape:collect="always" />
    <linearGradient
       gradientTransform="matrix(0.21443258,-0.15499357,0.15499357,0.21443258,-66.192583,-83.765124)"
       id="linearGradient6387">
      <stop
         id="stop6389"
         offset="0"
         style="stop-color:#13628e;stop-opacity:1;" />
    </linearGradient>
    <inkscape:path-effect
       end_linecap_type="round"
       miter_limit="4"
       linejoin_type="extrp_arc"
       start_linecap_type="round"
       interpolator_beta="0.2"
       interpolator_type="CubicBezierFit"
       sort_points="true"
       offset_points="0.90935385,3.5778229 | 0.10208857,4.2661074 | 0.96807147,3.7875242"
       is_visible="true"
       id="path-effect4274-8-3-3-5-2-4"
       effect="powerstroke" />
    <inkscape:path-effect
       end_linecap_type="round"
       miter_limit="4"
       linejoin_type="extrp_arc"
       start_linecap_type="round"
       interpolator_beta="0.28571429"
       interpolator_type="CubicBezierFit"
       sort_points="true"
       offset_points="0.020567645,1.2492875 | 1.2467608,2.9242076 | 3.9873504,0.27271807"
       is_visible="true"
       id="path-effect4276-7-1-3-5-1-8"
       effect="powerstroke" />
    <linearGradient
       y2="-194.09248"
       x2="-53.218048"
       y1="-194.09248"
       x1="-58.86834"
       gradientTransform="translate(-0.396875,0.66145832)"
       gradientUnits="userSpaceOnUse"
       id="linearGradient7446"
       xlink:href="#linearGradient6387"
       inkscape:collect="always" />
    <linearGradient
       gradientTransform="matrix(0,0,0,0,310.00623,1074.479)"
       osb:paint="solid"
       id="Bright-Blue">
      <stop
         id="stop4635"
         offset="0"
         style="stop-color:#c5f1fd;stop-opacity:1;" />
    </linearGradient>
    <linearGradient
       gradientTransform="matrix(0,0,0,0,1145.6082,2141.5186)"
       osb:paint="solid"
       id="White">
      <stop
         id="stop4651"
         offset="0"
         style="stop-color:#ffffff;stop-opacity:1;" />
    </linearGradient>
    <linearGradient
       y2="151.37512"
       x2="26.39119"
       y1="151.37512"
       x1="-26.120808"
       gradientUnits="userSpaceOnUse"
       id="linearGradient7509"
       xlink:href="#linearGradient6387"
       inkscape:collect="always" />
    <inkscape:path-effect
       end_linecap_type="round"
       miter_limit="4"
       linejoin_type="extrp_arc"
       start_linecap_type="round"
       interpolator_beta="0.2"
       interpolator_type="CubicBezierFit"
       sort_points="true"
       offset_points="0.64772214,3.7920795 | 0.20714209,3.6664402 | 0.96185396,1.4358518"
       is_visible="true"
       id="path-effect4274-8-3-3-8-1-1-1"
       effect="powerstroke" />
    <inkscape:path-effect
       end_linecap_type="round"
       miter_limit="4"
       linejoin_type="extrp_arc"
       start_linecap_type="round"
       interpolator_beta="0.28571429"
       interpolator_type="CubicBezierFit"
       sort_points="true"
       offset_points="0.020567645,1.2492875 | 1.2467608,2.9242076 | 3.9873504,0.27271807"
       is_visible="true"
       id="path-effect4276-7-1-3-1-1-2-4"
       effect="powerstroke" />
    <linearGradient
       inkscape:collect="always"
       xlink:href="#linearGradient6387"
       id="linearGradient18193"
       gradientUnits="userSpaceOnUse"
       x1="974.37823"
       y1="-58.740475"
       x2="1075.6625"
       y2="-58.740475" />
    <linearGradient
       inkscape:collect="always"
       xlink:href="#linearGradient6387"
       id="linearGradient18195"
       gradientUnits="userSpaceOnUse"
       x1="974.37823"
       y1="-58.740475"
       x2="1075.6625"
       y2="-58.740475" />
    <path
       sodipodi:nodetypes="cc"
       inkscape:connector-curvature="0"
       id="path4377-1"
       d="m 294.46268,697.41806 c 55.66858,-4.49931 123.82818,-5.7918 176.52742,-1.0624"
       style="fill:none;fill-opacity:1;fill-rule:evenodd;stroke:none;stroke-width:1px;stroke-linecap:butt;stroke-linejoin:miter;stroke-opacity:1" />
    <path
       style="fill:none;fill-opacity:1;fill-rule:evenodd;stroke:none;stroke-width:1px;stroke-linecap:butt;stroke-linejoin:miter;stroke-opacity:1"
       d="m 319.41129,724.30563 c 36.94886,-4.90757 97.84493,-5.41189 135.00145,0.0923"
       id="path4382-7"
       inkscape:connector-curvature="0"
       sodipodi:nodetypes="cc" />
    <path
       sodipodi:nodetypes="cc"
       inkscape:connector-curvature="0"
       id="path4377-1-4"
       d="m 294.46268,697.41806 c 55.66858,-4.49931 123.82818,-5.7918 176.52742,-1.0624"
       style="fill:none;fill-opacity:1;fill-rule:evenodd;stroke:none;stroke-width:1px;stroke-linecap:butt;stroke-linejoin:miter;stroke-opacity:1" />
    <path
       sodipodi:nodetypes="cc"
       inkscape:connector-curvature="0"
       id="path4377-5"
       d="m 294.46268,697.41806 c 55.66858,-4.49931 123.82818,-5.7918 176.52742,-1.0624"
       style="fill:none;fill-opacity:1;fill-rule:evenodd;stroke:none;stroke-width:1px;stroke-linecap:butt;stroke-linejoin:miter;stroke-opacity:1" />
    <path
       style="fill:none;fill-opacity:1;fill-rule:evenodd;stroke:none;stroke-width:1px;stroke-linecap:butt;stroke-linejoin:miter;stroke-opacity:1"
       d="m 319.41129,724.30563 c 36.94886,-4.90757 97.84493,-5.41189 135.00145,0.0923"
       id="path4382-9"
       inkscape:connector-curvature="0"
       sodipodi:nodetypes="cc" />
  </defs>
  <sodipodi:namedview
     id="base"
     pagecolor="#ffffff"
     bordercolor="#666666"
     borderopacity="1.0"
     inkscape:pageopacity="0.0"
     inkscape:pageshadow="2"
     inkscape:zoom="1"
     inkscape:cx="319.6458"
     inkscape:cy="646.89127"
     inkscape:document-units="px"
     inkscape:current-layer="layer2"
     showgrid="false"
     fit-margin-top="0"
     fit-margin-left="0"
     fit-margin-right="0"
     fit-margin-bottom="0"
     showguides="true"
     inkscape:guide-bbox="true" />
  <metadata
     id="metadata4657">
    <rdf:RDF>
      <cc:Work
         rdf:about="">
        <dc:format>image/svg+xml</dc:format>
        <dc:type
           rdf:resource="http://purl.org/dc/dcmitype/StillImage" />
        <dc:title />
      </cc:Work>
    </rdf:RDF>
  </metadata>
  <g
     inkscape:label="background"
     inkscape:groupmode="layer"
     id="layer1"
     style="display:inline"
     transform="translate(0,0.49493)"
     sodipodi:insensitive="true">
    <g
       id="g4193">
      <rect
         inkscape:export-ydpi="135"
         inkscape:export-xdpi="135"
         y="-0.49493"
         x="0"
         height="1055.7142"
         width="1349.6409"
         id="rect4323"
         style="color:#000000;clip-rule:nonzero;display:inline;overflow:visible;visibility:visible;opacity:1;isolation:auto;mix-blend-mode:normal;color-interpolation:sRGB;color-interpolation-filters:linearRGB;solid-color:#000000;solid-opacity:1;fill:#c4e8f5;fill-opacity:1;fill-rule:nonzero;stroke:none;stroke-width:1;stroke-linecap:round;stroke-linejoin:miter;stroke-miterlimit:4;stroke-dasharray:1, 3;stroke-dashoffset:0;stroke-opacity:1;marker:none;color-rendering:auto;image-rendering:auto;shape-rendering:auto;text-rendering:auto;enable-background:accumulate" />
      <g
         id="g24213"
         transform="matrix(13.217268,0,0,13.217268,-3905.6272,3625.5307)"
         style="opacity:1">
        <g
           id="g24215"
           style="display:inline;opacity:1;fill:#808000"
           transform="matrix(0.56264244,0,0,0.56264244,361.76745,-48.891886)">
          <g
             transform="matrix(0.71695144,0,0,0.71695144,-93.493826,-376.8206)"
             inkscape:label="Layer 1"
             id="g24217">
            <g
               transform="translate(51.048045,-79.591037)"
               id="g24219">
              <path
                 inkscape:connector-curvature="0"
                 style="opacity:1;fill:#13628e;fill-opacity:1;fill-rule:evenodd;stroke:none;stroke-width:4.554533;stroke-linecap:butt;stroke-linejoin:miter;stroke-miterlimit:4;stroke-dasharray:none;stroke-dashoffset:0;stroke-opacity:1"
                 d="m -195.97656,633.22656 c -2.45013,0.0169 -4.89467,0.10112 -7.31055,0.16016 -10.55363,4.01201 -17.43105,15.255 -17.06641,26.41211 -0.007,2.47874 -0.27006,5.12099 0.37305,7.51172 -0.47596,-0.13897 -1.02912,-0.10554 -1.6875,0.20117 -3.59617,1.58204 -1.26818,5.97893 -0.99414,8.75586 0.8784,3.57896 1.26687,8.53295 5.28516,9.96094 0.65579,4.08517 1.42245,8.16636 2.93359,12.05078 0.66703,3.93464 -1.98994,7.55116 -3.19726,11.15625 -0.86315,2.56883 -4.2756,5.58938 -1.68165,8.20898 4.82409,4.48853 12.07307,4.39376 18.26368,4.26758 8.55464,-0.19136 18.01193,-1.12008 24.67578,-7.06445 3.12942,-2.97417 0.70355,-7.50105 1.07422,-11.1836 -0.18262,-3.90514 -0.37024,-8.06517 1.77929,-11.57617 0.73554,-2.40543 1.37819,-4.90704 3.375,-6.60351 2.40786,-4.36602 4.47926,-9.14911 5.1836,-14.10352 0.1231,-1.81116 -1.46941,-2.68832 -2.91797,-2.4668 0.72991,-1.54393 1.20622,-3.14786 0.75586,-5.01367 -0.23955,-4.87791 0.48732,-9.93712 -0.35352,-14.70508 -2.81773,-7.12606 -8.4773,-13.62969 -16.3164,-15.0664 -3.99284,-0.7725 -8.09028,-0.93054 -12.17383,-0.90235 z m 63.65625,169.4043 c -0.11383,-0.0109 -0.23,-0.007 -0.34961,0.01 -3.91773,0.7773 -7.92632,1.4366 -11.66016,2.66016 -2.25227,2.49716 -0.49633,6.34991 -0.49804,9.34375 1.14551,7.2349 2.3836,14.42624 1.45898,21.80469 -0.66637,7.84986 0.0188,15.72117 1.73633,23.39062 0.72045,6.04008 0.72803,12.32352 3.65039,17.84766 0.22553,1.9495 2.91728,4.55203 4.16992,1.85938 2.65685,-12.25416 3.36308,-24.86162 4.67773,-37.31641 0.50982,-9.76678 2.37405,-19.71925 0.47266,-29.43164 -0.96706,-3.16813 -1.18369,-6.81409 -2.79687,-9.66211 -0.2129,-0.30854 -0.51982,-0.47208 -0.86133,-0.50586 z m -135.11524,6.67773 c -3.73318,-0.12971 -3.93329,4.37872 -4.58007,7.04493 -1.66711,12.5178 -0.65528,25.22497 0.11718,37.77734 0.86701,9.01989 2.77474,17.90288 3.70899,26.82617 0.78491,2.24491 0.26234,6.04884 2.96484,6.91797 3.94249,-1.02297 5.52162,-5.86307 5.35742,-9.57812 -1.08342,-3.88848 3.03338,-5.65016 4.67188,-8.53516 0.37136,-8.30333 0.003,-16.79737 1.84179,-25.05078 2.30571,-10.58944 3.09614,-21.58627 2.55664,-32.34961 -1.83849,-2.08266 -5.62241,-1.19457 -8.23046,-2.04297 -2.79645,-0.35626 -5.58188,-0.9608 -8.40821,-1.00977 z m 130.63867,71.11133 c -0.3712,0.0146 -0.74207,0.0302 -1.11328,0.0449 -2.71729,4.16596 -5.87525,9.37036 -11.41015,9.95704 -20.14466,3.61813 -40.48002,6.2104 -60.84766,7.44726 -12.75114,0.391 -25.68566,1.01474 -38.32812,-1.36914 -5.6175,-1.23697 -9.17658,-6.13407 -13.83985,-8.99023 -3.55477,-0.90129 -4.46411,3.93944 -3.45898,6.44531 0.67704,4.34827 5.28936,7.35546 4.5,11.91992 -0.1333,11.00118 -4.40451,21.39792 -4.375,32.43945 -0.4393,6.86567 -0.42142,13.94443 -2.75781,20.47461 0.52379,3.14757 4.68485,1.87575 6.89257,2.11719 17.53643,-0.43388 35.20916,-0.92424 52.65039,-1.4082 2.07287,-1.8144 1.88471,-5.42072 2.98438,-7.97461 1.04777,-2.65305 1.05954,-6.0217 2.52344,-8.3418 3.1363,-0.33594 3.11314,3.94089 4.25195,5.85742 1.71541,2.93427 1.31397,7.56492 4.6582,9.32813 5.8611,1.57022 12.08778,0.24057 18.08008,0.40625 13.15301,-0.50716 26.42224,-0.51689 39.4961,-1.48438 1.88307,-1.66206 0.86418,-5.01473 1.34374,-7.41211 0.23242,-14.28157 -0.53419,-28.56756 -1.80273,-42.7832 -0.46748,-6.23652 1.4263,-12.56677 2.84961,-18.80859 0.52725,-2.77331 -0.35517,-5.86775 -2.29688,-7.86524 z"
                 transform="matrix(0.54890371,0,0,0.54890371,93.762205,-289.72499)"
                 id="path24221" />
              <path
                 sodipodi:nodetypes="cscssssssssssssssssssssscsssssssssssssscssssssssscssssssssscsscsssscssccccssssscsscsccsccssssssssssssccssscssscscssscscscscscsssscscsccsssssscsssssccssssssssscsssssssssssssssssscscsssscsscsssscs"
                 inkscape:connector-curvature="0"
                 id="path24223"
                 d="m -53.951297,237.56937 c -0.109599,-0.28561 0.137333,-1.17908 0.548736,-1.9855 0.912744,-1.78913 1.411623,-5.81252 1.415221,-11.41358 0.0015,-2.29258 0.151598,-4.44659 0.333612,-4.78669 0.562563,-1.05116 2.213819,-9.62981 2.261951,-11.75135 0.03926,-1.73054 -0.08533,-2.14636 -0.898431,-2.99861 -1.286147,-1.34807 -1.720342,-2.60139 -2.0809,-6.00663 -0.174171,-1.64493 -0.60148,-3.44973 -0.987126,-4.16926 -0.536036,-1.00013 -0.610037,-1.50639 -0.349515,-2.39116 0.2492,-0.84632 0.114981,-2.12034 -0.545651,-5.17936 -0.851366,-3.9422 -1.975308,-16.6648 -1.967752,-22.27422 0.0037,-2.72956 0.892885,-7.77366 1.617371,-9.17466 0.276348,-0.5344 0.502451,-1.0368 0.502451,-1.11645 0,-0.38733 -5.753177,-2.70724 -7.722386,-3.11398 -1.231051,-0.25427 -2.319515,-0.67401 -2.418808,-0.93277 -0.09929,-0.25876 0.867085,-2.96158 2.147509,-6.00627 1.280423,-3.0447 3.346549,-8.16347 4.591389,-11.37505 2.974689,-7.67444 3.786774,-9.22049 7.573802,-14.41902 4.893002,-6.71671 5.106632,-6.89939 12.642418,-10.81086 3.655187,-1.89724 7.297148,-3.97751 8.09324,-4.62284 0.796096,-0.64533 1.687393,-1.17332 1.980664,-1.17332 0.706007,0 3.134466,-5.025912 3.364378,-6.962882 0.125451,-1.05691 -0.04255,-2.00618 -0.5735,-3.24039 -0.413011,-0.96007 -0.75093,-2.3991 -0.75093,-3.19784 0,-1.27585 -0.120847,-1.49439 -0.994809,-1.79905 -0.8229,-0.28687 -1.069759,-0.66472 -1.42852,-2.18651 -0.238538,-1.01185 -0.689109,-2.89011 -1.001265,-4.17392 -0.612076,-2.51728 -0.472658,-3.45607 0.553096,-3.72431 0.572378,-0.14968 0.677534,-0.67453 0.854318,-4.26407 0.191153,-3.88129 0.275008,-4.24084 1.618435,-6.93957 2.998369,-6.02322 7.004227,-8.30834 13.772007,-7.85614 5.7776993,0.38604 9.5989593,2.20217 11.93374929,5.67174 1.63797001,2.43408 1.98509001,4.03773 2.01061001,9.28884 0.0205,4.2227 0.0881,4.70684 0.72174,5.17031 0.62189,0.45488 0.65539,0.66112 0.30331,1.86743 -1.06725,3.65671 -2.58049001,7.22249 -3.34514002,7.88247 -0.3372,0.29104 -0.72481,1.00542 -0.86133998,1.5875 -0.13653,0.58208 -0.62237,1.80704 -1.07963,2.72213 -0.80369,1.60835 -0.81798,1.78179 -0.42885,5.20389 l 0.40255,3.540092 1.78478998,1.14611 c 3.73637002,2.39932 5.08440002,3.07133 7.99328002,3.98476 4.4186707,1.38753 5.0928007,1.83342 9.4175007,6.22894 3.87402,3.93745 4.69361,5.12698 4.69361,6.81217 0,1.22299 1.61554,6.16202 3.34484,10.2258 0.82566,1.94027 2.24647,5.82965 3.15736,8.64305 0.91089,2.81341 1.95843,5.7403 2.32788,6.50422 0.50322,1.04051 0.57337,1.50745 0.27964,1.86137 -0.21565,0.25984 -2.2867,1.46045 -4.60234,2.66801 l -4.21025,2.19557 0.20118,1.94028 c 0.11065,1.06715 0.52902,2.97215 0.92972,4.23333 0.71923,2.26375 0.72124,2.38549 0.15716,9.525 -0.83109,10.5189 -2.241,23.47114 -2.83448,26.03925 -0.28303,1.22472 -0.5146,3.10047 -0.5146,4.16833 0,1.06787 -0.18771,2.28833 -0.41714,2.71214 -0.22943,0.42381 -0.69131,2.36989 -1.02641,4.32463 -0.5312,3.09865 -0.54875,3.81443 -0.13695,5.58593 0.70252,3.02215 1.39516,18.70464 1.01419,22.96278 l -0.31564,3.52778 -3.17499,0.22291 c -1.74625,0.12261 -8.9958707,0.3418 -16.11027072,0.4871 l -12.93526928,0.26418 -0.87702,-1.73072 c -0.48236,-0.95189 -1.22914,-2.89 -1.65951,-4.30691 -1.12093,-3.69041 -2.43787,-3.78816 -2.97285,-0.22067 -0.128928,0.85978 -0.59663,2.63856 -1.039335,3.95284 l -0.804915,2.3896 -3.849025,0.22402 c -2.116967,0.12322 -9.325903,0.3338 -16.019861,0.46796 -6.693957,0.13417 -12.449427,0.32211 -12.789931,0.41766 -0.349568,0.0981 -0.705853,-0.0524 -0.818368,-0.34556 z m 25.996711,-1.17316 6.920355,-0.22339 0.737954,-2.15321 c 0.405875,-1.18427 0.92668,-3.15936 1.157341,-4.3891 0.450109,-2.39967 0.891964,-2.83685 2.340424,-2.31561 0.7218,0.25974 1.06775,0.88288 1.88399,3.39347 0.54991,1.69142 1.26044,3.57925 1.57895,4.19518 l 0.57911,1.11987 9.4018693,-0.22867 c 5.17102,-0.12578 12.20647,-0.32844 15.6343107,-0.45036 l 6.23245,-0.22167 0.25912,-3.39205 c 0.29677,-3.88503 -0.37013,-20.0622 -0.90327,-21.91055 -0.1955,-0.67782 -0.35234,-1.86844 -0.34853,-2.64584 0.009,-1.84545 0.86016,-6.32654 1.54153,-8.11621 0.69607,-1.82831 0.69237,-2.36153 -0.0268,-3.86975 l -0.59506,-1.24785 -0.90425,1.65824 c -1.39746,2.56271 -3.65353,3.98362 -6.99386,4.40484 -1.5014103,0.18932 -5.8254507,0.80322 -9.60899071,1.36422 -11.84923029,1.7569 -24.39977529,2.78722 -31.57365929,2.592 -12.146086,-0.33055 -14.189217,-0.85328 -17.870065,-4.57204 -1.504578,-1.52008 -1.96668,-1.80413 -2.484304,-1.52711 -1.279463,0.68475 -0.57365,4.14516 1.299545,6.37132 0.73755,0.87653 0.886794,1.42034 0.886915,3.23167 1.48e-4,2.20829 -1.006757,8.13 -1.929913,11.35001 -0.306265,1.06827 -0.573911,4.129 -0.678672,7.76111 -0.159493,5.52973 -0.427833,7.33309 -1.464824,9.84426 -0.270155,0.65421 -0.03491,0.66579 8.865234,0.43633 5.028512,-0.12965 12.25691,-0.33624 16.063107,-0.45911 z M -50.46392,195.87504 c 0.875766,-1.09759 0.979435,-1.4877 0.887627,-3.3402 -0.100202,-2.02186 -0.05395,-2.14867 1.282946,-3.51778 l 1.386897,-1.42031 0.125244,-5.38184 c 0.101334,-4.35444 0.318777,-6.22367 1.139028,-9.79157 0.840739,-3.65701 1.037345,-5.40915 1.151817,-10.26489 l 0.138032,-5.85517 -4.595242,-0.75645 c -2.527382,-0.41605 -4.714388,-0.6373 -4.860012,-0.49168 -0.145625,0.14563 -0.549104,1.29523 -0.89662,2.55468 -1.188778,4.30829 -0.562404,22.32672 1.001912,28.82129 0.383555,1.5924 0.682837,3.8149 0.665074,4.93889 -0.02852,1.80469 0.932108,5.73042 1.405332,5.74305 0.09701,0.002 0.622598,-0.55452 1.167965,-1.23802 z m 71.270728,-9.1642 c 0.82593,-6.61978 1.52205,-13.89755 2.02696,-21.19136 0.35421,-5.11681 0.35371,-6.68308 -0.002,-7.9375 -0.24411,-0.85954 -0.6758,-2.5897 -0.9593,-3.84479 -0.28351,-1.2551 -0.55414,-2.32066 -0.6014,-2.36793 -0.0473,-0.0473 -1.54714,0.26313 -3.33306,0.68976 l -3.24712,0.77568 0,1.69699 c 0,0.93335 0.33896,3.55486 0.75325,5.82557 0.68916,3.77727 0.71999,4.53384 0.36239,8.89108 -0.40799,4.97113 -0.21582,7.78889 0.80599,11.81806 0.29523,1.16417 0.53927,3.21888 0.5423,4.56604 0.004,1.96448 0.23249,2.98566 1.15204,5.15832 l 1.14653,2.70896 0.39089,-1.10139 c 0.21499,-0.60575 0.64837,-3.16513 0.96308,-5.68749 z m -65.944569,-5.31467 c 0.954546,-4.53776 2.41218,-17.52847 2.471401,-22.0256 0.02678,-2.03369 -0.336341,-3.45476 -0.771746,-3.02022 -0.140954,0.14067 -0.353275,3.06058 -0.471826,6.48869 -0.175059,5.06217 -0.390328,6.92868 -1.14607,9.93708 -0.722208,2.87491 -0.930628,4.56633 -0.930982,7.55533 -2.52e-4,2.11813 0.07463,3.77606 0.166413,3.68428 0.09178,-0.0918 0.399042,-1.27058 0.68281,-2.61956 z m 35.6151783,-76.33753 c 3.17973,-0.81744 5.33975,-1.9167 6.28812,-3.20008 0.5937,-0.80344 0.62124,-1.15075 0.27972,-3.527782 -0.59005,-4.1069 -0.48709,-5.606 0.51835,-7.54709 0.49442,-0.95451 0.90138,-2.06576 0.90435,-2.46944 0.006,-0.88335 0.34109,-1.4213 1.05292998,-1.69285 0.29104,-0.11103 0.81667001,-0.97258 1.16807001,-1.91455 0.35140001,-0.94197 0.94672001,-2.50949 1.32292001,-3.48338 0.83601,-2.16421 0.86109,-2.94598 0.10383,-3.23657 -0.74945,-0.28759 -1.49160001,0.72175 -1.75865001,2.3918 -0.30538,1.90975 -0.55627001,2.17526 -1.65918999,1.75593 -1.18295,-0.44975 -1.2316,-1.60175 -0.22927,-5.42855 0.61154998,-2.33482 0.65954998,-3.05098 0.34141,-5.09353 -0.54822,-3.51964 -0.98002,-3.93522 -5.12904,-4.9364 -3.36274,-0.81145 -3.7575903,-0.83239 -9.4922993,-0.50351 l -5.983612,0.34315 -1.026555,1.14892 c -0.958276,1.0725 -1.007749,1.26854 -0.743819,2.94752 0.363366,2.31155 0.360501,5.53332 -0.007,7.88981 -0.237628,1.52365 -0.435839,1.89454 -1.101824,2.06169 -1.12849,0.28323 -1.557725,-0.0799 -1.557725,-1.31773 0,-0.58339 -0.165414,-1.36979 -0.367591,-1.74756 -0.302475,-0.56518 -0.496136,-0.61805 -1.093294,-0.29846 -0.765746,0.40982 -0.766258,0.4951 -0.02522,4.2067 0.682628,3.41899 1.198478,4.58611 2.027004,4.58611 0.823945,0 1.222979,1.05491 1.222979,3.23315 0,0.56556 0.3175,1.65064 0.705555,2.41129 0.388057,0.76065 0.705557,1.93727 0.705557,2.6147 0,1.24133 -2.135358,6.609972 -3.04023,7.643642 -0.677192,0.77358 -0.611977,1.23992 0.291042,2.08121 2.221279,2.06944 10.342973,2.60904 16.2834823,1.08186 z m 9.04346998,-24.340922 c 0,-0.86153 0.66874001,-2.45599 1.39113001,-3.31683 0.43830001,-0.52231 0.54915001,-1.62756 0.54915001,-5.47547 0,-4.74543 -0.0183,-4.85835 -1.16920001,-7.19606 -2.21742999,-4.50424 -6.25142999,-6.42963 -13.47107929,-6.42963 -3.7226,0 -4.22154,0.0808 -6.054143,0.98097 -2.544265,1.24966 -4.27614,3.17545 -5.865556,6.52231 -1.152384,2.42659 -1.274741,2.98845 -1.420333,6.52206 -0.120999,2.93679 -0.04864,3.93512 0.300853,4.15112 0.253093,0.15642 0.552009,0.93882 0.664259,1.73866 0.112247,0.79984 0.362839,1.46229 0.556867,1.4721 0.815615,0.0412 1.134435,-3.62972 0.822752,-9.47338 -0.110088,-2.06397 -0.04996,-2.26456 0.99113,-3.3064 l 1.108325,-1.10913 6.171246,-0.36002 c 6.1175593,-0.35689 6.2049093,-0.35167 10.0401093,0.59979 3.68403,0.91396 3.89601,1.01676 4.4373,2.15186 1.06375998,2.23073 1.42754998,5.53247 0.84142998,7.6367 -0.64148998,2.30301 -1.00375998,5.05876 -0.70436998,5.35814 0.43171998,0.43172 0.81012998,0.21368 0.81012998,-0.46679 z"
                 style="fill:#ffffff;fill-opacity:1;stroke-width:1" />
            </g>
          </g>
        </g>
      </g>
      <g
         style="opacity:1"
         transform="matrix(13.217268,0,0,13.217268,-3270.6453,3625.8843)"
         id="g4363">
        <g
           transform="matrix(0.56264244,0,0,0.56264244,361.76745,-48.891886)"
           style="display:inline;opacity:1;fill:#808000"
           id="g4365">
          <g
             id="g4367"
             inkscape:label="Layer 1"
             transform="matrix(0.71695144,0,0,0.71695144,-93.493826,-376.8206)">
            <g
               id="g4369"
               transform="translate(51.048045,-79.591037)">
              <path
                 id="path4371"
                 transform="matrix(0.54890371,0,0,0.54890371,93.762205,-289.72499)"
                 d="m -195.97656,633.22656 c -2.45013,0.0169 -4.89467,0.10112 -7.31055,0.16016 -10.55363,4.01201 -17.43105,15.255 -17.06641,26.41211 -0.007,2.47874 -0.27006,5.12099 0.37305,7.51172 -0.47596,-0.13897 -1.02912,-0.10554 -1.6875,0.20117 -3.59617,1.58204 -1.26818,5.97893 -0.99414,8.75586 0.8784,3.57896 1.26687,8.53295 5.28516,9.96094 0.65579,4.08517 1.42245,8.16636 2.93359,12.05078 0.66703,3.93464 -1.98994,7.55116 -3.19726,11.15625 -0.86315,2.56883 -4.2756,5.58938 -1.68165,8.20898 4.82409,4.48853 12.07307,4.39376 18.26368,4.26758 8.55464,-0.19136 18.01193,-1.12008 24.67578,-7.06445 3.12942,-2.97417 0.70355,-7.50105 1.07422,-11.1836 -0.18262,-3.90514 -0.37024,-8.06517 1.77929,-11.57617 0.73554,-2.40543 1.37819,-4.90704 3.375,-6.60351 2.40786,-4.36602 4.47926,-9.14911 5.1836,-14.10352 0.1231,-1.81116 -1.46941,-2.68832 -2.91797,-2.4668 0.72991,-1.54393 1.20622,-3.14786 0.75586,-5.01367 -0.23955,-4.87791 0.48732,-9.93712 -0.35352,-14.70508 -2.81773,-7.12606 -8.4773,-13.62969 -16.3164,-15.0664 -3.99284,-0.7725 -8.09028,-0.93054 -12.17383,-0.90235 z m 63.65625,169.4043 c -0.11383,-0.0109 -0.23,-0.007 -0.34961,0.01 -3.91773,0.7773 -7.92632,1.4366 -11.66016,2.66016 -2.25227,2.49716 -0.49633,6.34991 -0.49804,9.34375 1.14551,7.2349 2.3836,14.42624 1.45898,21.80469 -0.66637,7.84986 0.0188,15.72117 1.73633,23.39062 0.72045,6.04008 0.72803,12.32352 3.65039,17.84766 0.22553,1.9495 2.91728,4.55203 4.16992,1.85938 2.65685,-12.25416 3.36308,-24.86162 4.67773,-37.31641 0.50982,-9.76678 2.37405,-19.71925 0.47266,-29.43164 -0.96706,-3.16813 -1.18369,-6.81409 -2.79687,-9.66211 -0.2129,-0.30854 -0.51982,-0.47208 -0.86133,-0.50586 z m -135.11524,6.67773 c -3.73318,-0.12971 -3.93329,4.37872 -4.58007,7.04493 -1.66711,12.5178 -0.65528,25.22497 0.11718,37.77734 0.86701,9.01989 2.77474,17.90288 3.70899,26.82617 0.78491,2.24491 0.26234,6.04884 2.96484,6.91797 3.94249,-1.02297 5.52162,-5.86307 5.35742,-9.57812 -1.08342,-3.88848 3.03338,-5.65016 4.67188,-8.53516 0.37136,-8.30333 0.003,-16.79737 1.84179,-25.05078 2.30571,-10.58944 3.09614,-21.58627 2.55664,-32.34961 -1.83849,-2.08266 -5.62241,-1.19457 -8.23046,-2.04297 -2.79645,-0.35626 -5.58188,-0.9608 -8.40821,-1.00977 z m 130.63867,71.11133 c -0.3712,0.0146 -0.74207,0.0302 -1.11328,0.0449 -2.71729,4.16596 -5.87525,9.37036 -11.41015,9.95704 -20.14466,3.61813 -40.48002,6.2104 -60.84766,7.44726 -12.75114,0.391 -25.68566,1.01474 -38.32812,-1.36914 -5.6175,-1.23697 -9.17658,-6.13407 -13.83985,-8.99023 -3.55477,-0.90129 -4.46411,3.93944 -3.45898,6.44531 0.67704,4.34827 5.28936,7.35546 4.5,11.91992 -0.1333,11.00118 -4.40451,21.39792 -4.375,32.43945 -0.4393,6.86567 -0.42142,13.94443 -2.75781,20.47461 0.52379,3.14757 4.68485,1.87575 6.89257,2.11719 17.53643,-0.43388 35.20916,-0.92424 52.65039,-1.4082 2.07287,-1.8144 1.88471,-5.42072 2.98438,-7.97461 1.04777,-2.65305 1.05954,-6.0217 2.52344,-8.3418 3.1363,-0.33594 3.11314,3.94089 4.25195,5.85742 1.71541,2.93427 1.31397,7.56492 4.6582,9.32813 5.8611,1.57022 12.08778,0.24057 18.08008,0.40625 13.15301,-0.50716 26.42224,-0.51689 39.4961,-1.48438 1.88307,-1.66206 0.86418,-5.01473 1.34374,-7.41211 0.23242,-14.28157 -0.53419,-28.56756 -1.80273,-42.7832 -0.46748,-6.23652 1.4263,-12.56677 2.84961,-18.80859 0.52725,-2.77331 -0.35517,-5.86775 -2.29688,-7.86524 z"
                 style="opacity:1;fill:#13628e;fill-opacity:1;fill-rule:evenodd;stroke:none;stroke-width:4.554533;stroke-linecap:butt;stroke-linejoin:miter;stroke-miterlimit:4;stroke-dasharray:none;stroke-dashoffset:0;stroke-opacity:1"
                 inkscape:connector-curvature="0" />
              <path
                 style="fill:#ffffff;fill-opacity:1;stroke-width:1"
                 d="m -53.951297,237.56937 c -0.109599,-0.28561 0.137333,-1.17908 0.548736,-1.9855 0.912744,-1.78913 1.411623,-5.81252 1.415221,-11.41358 0.0015,-2.29258 0.151598,-4.44659 0.333612,-4.78669 0.562563,-1.05116 2.213819,-9.62981 2.261951,-11.75135 0.03926,-1.73054 -0.08533,-2.14636 -0.898431,-2.99861 -1.286147,-1.34807 -1.720342,-2.60139 -2.0809,-6.00663 -0.174171,-1.64493 -0.60148,-3.44973 -0.987126,-4.16926 -0.536036,-1.00013 -0.610037,-1.50639 -0.349515,-2.39116 0.2492,-0.84632 0.114981,-2.12034 -0.545651,-5.17936 -0.851366,-3.9422 -1.975308,-16.6648 -1.967752,-22.27422 0.0037,-2.72956 0.892885,-7.77366 1.617371,-9.17466 0.276348,-0.5344 0.502451,-1.0368 0.502451,-1.11645 0,-0.38733 -5.753177,-2.70724 -7.722386,-3.11398 -1.231051,-0.25427 -2.319515,-0.67401 -2.418808,-0.93277 -0.09929,-0.25876 0.867085,-2.96158 2.147509,-6.00627 1.280423,-3.0447 3.346549,-8.16347 4.591389,-11.37505 2.974689,-7.67444 3.786774,-9.22049 7.573802,-14.41902 4.893002,-6.71671 5.106632,-6.89939 12.642418,-10.81086 3.655187,-1.89724 7.297148,-3.97751 8.09324,-4.62284 0.796096,-0.64533 1.687393,-1.17332 1.980664,-1.17332 0.706007,0 3.134466,-5.025912 3.364378,-6.962882 0.125451,-1.05691 -0.04255,-2.00618 -0.5735,-3.24039 -0.413011,-0.96007 -0.75093,-2.3991 -0.75093,-3.19784 0,-1.27585 -0.120847,-1.49439 -0.994809,-1.79905 -0.8229,-0.28687 -1.069759,-0.66472 -1.42852,-2.18651 -0.238538,-1.01185 -0.689109,-2.89011 -1.001265,-4.17392 -0.612076,-2.51728 -0.472658,-3.45607 0.553096,-3.72431 0.572378,-0.14968 0.677534,-0.67453 0.854318,-4.26407 0.191153,-3.88129 0.275008,-4.24084 1.618435,-6.93957 2.998369,-6.02322 7.004227,-8.30834 13.772007,-7.85614 5.7776993,0.38604 9.5989593,2.20217 11.93374929,5.67174 1.63797001,2.43408 1.98509001,4.03773 2.01061001,9.28884 0.0205,4.2227 0.0881,4.70684 0.72174,5.17031 0.62189,0.45488 0.65539,0.66112 0.30331,1.86743 -1.06725,3.65671 -2.58049001,7.22249 -3.34514002,7.88247 -0.3372,0.29104 -0.72481,1.00542 -0.86133998,1.5875 -0.13653,0.58208 -0.62237,1.80704 -1.07963,2.72213 -0.80369,1.60835 -0.81798,1.78179 -0.42885,5.20389 l 0.40255,3.540092 1.78478998,1.14611 c 3.73637002,2.39932 5.08440002,3.07133 7.99328002,3.98476 4.4186707,1.38753 5.0928007,1.83342 9.4175007,6.22894 3.87402,3.93745 4.69361,5.12698 4.69361,6.81217 0,1.22299 1.61554,6.16202 3.34484,10.2258 0.82566,1.94027 2.24647,5.82965 3.15736,8.64305 0.91089,2.81341 1.95843,5.7403 2.32788,6.50422 0.50322,1.04051 0.57337,1.50745 0.27964,1.86137 -0.21565,0.25984 -2.2867,1.46045 -4.60234,2.66801 l -4.21025,2.19557 0.20118,1.94028 c 0.11065,1.06715 0.52902,2.97215 0.92972,4.23333 0.71923,2.26375 0.72124,2.38549 0.15716,9.525 -0.83109,10.5189 -2.241,23.47114 -2.83448,26.03925 -0.28303,1.22472 -0.5146,3.10047 -0.5146,4.16833 0,1.06787 -0.18771,2.28833 -0.41714,2.71214 -0.22943,0.42381 -0.69131,2.36989 -1.02641,4.32463 -0.5312,3.09865 -0.54875,3.81443 -0.13695,5.58593 0.70252,3.02215 1.39516,18.70464 1.01419,22.96278 l -0.31564,3.52778 -3.17499,0.22291 c -1.74625,0.12261 -8.9958707,0.3418 -16.11027072,0.4871 l -12.93526928,0.26418 -0.87702,-1.73072 c -0.48236,-0.95189 -1.22914,-2.89 -1.65951,-4.30691 -1.12093,-3.69041 -2.43787,-3.78816 -2.97285,-0.22067 -0.128928,0.85978 -0.59663,2.63856 -1.039335,3.95284 l -0.804915,2.3896 -3.849025,0.22402 c -2.116967,0.12322 -9.325903,0.3338 -16.019861,0.46796 -6.693957,0.13417 -12.449427,0.32211 -12.789931,0.41766 -0.349568,0.0981 -0.705853,-0.0524 -0.818368,-0.34556 z m 25.996711,-1.17316 6.920355,-0.22339 0.737954,-2.15321 c 0.405875,-1.18427 0.92668,-3.15936 1.157341,-4.3891 0.450109,-2.39967 0.891964,-2.83685 2.340424,-2.31561 0.7218,0.25974 1.06775,0.88288 1.88399,3.39347 0.54991,1.69142 1.26044,3.57925 1.57895,4.19518 l 0.57911,1.11987 9.4018693,-0.22867 c 5.17102,-0.12578 12.20647,-0.32844 15.6343107,-0.45036 l 6.23245,-0.22167 0.25912,-3.39205 c 0.29677,-3.88503 -0.37013,-20.0622 -0.90327,-21.91055 -0.1955,-0.67782 -0.35234,-1.86844 -0.34853,-2.64584 0.009,-1.84545 0.86016,-6.32654 1.54153,-8.11621 0.69607,-1.82831 0.69237,-2.36153 -0.0268,-3.86975 l -0.59506,-1.24785 -0.90425,1.65824 c -1.39746,2.56271 -2.340622,7.17211 -5.680952,7.59333 -1.501411,0.18932 -9.2014991,0.80322 -12.9850391,1.36422 -11.8492309,1.7569 -19.8983779,1.47431 -27.0722619,1.27911 -12.146086,-0.33055 -16.064799,-0.2906 -19.745647,-4.00936 -1.504578,-1.52008 -2.529355,-4.24239 -3.046979,-3.96537 -1.279463,0.68475 -0.57365,4.14516 1.299545,6.37132 0.73755,0.87653 0.886794,1.42034 0.886915,3.23167 1.48e-4,2.20829 -1.006757,8.13 -1.929913,11.35001 -0.306265,1.06827 -0.573911,4.129 -0.678672,7.76111 -0.159493,5.52973 -0.427833,7.33309 -1.464824,9.84426 -0.270155,0.65421 -0.03491,0.66579 8.865234,0.43633 5.028512,-0.12965 12.25691,-0.33624 16.063107,-0.45911 z M -50.46392,195.87504 c 0.875766,-1.09759 0.979435,-1.4877 0.887627,-3.3402 -0.100202,-2.02186 -0.05395,-2.14867 1.282946,-3.51778 l 1.386897,-1.42031 0.125244,-5.38184 c 0.101334,-4.35444 0.318777,-6.22367 1.139028,-9.79157 0.840739,-3.65701 1.037345,-5.40915 1.151817,-10.26489 l 0.138032,-5.85517 -4.595242,-0.75645 c -2.527382,-0.41605 -4.714388,-0.6373 -4.860012,-0.49168 -0.145625,0.14563 -0.549104,1.29523 -0.89662,2.55468 -1.188778,4.30829 -0.562404,22.32672 1.001912,28.82129 0.383555,1.5924 0.682837,3.8149 0.665074,4.93889 -0.02852,1.80469 0.932108,5.73042 1.405332,5.74305 0.09701,0.002 0.622598,-0.55452 1.167965,-1.23802 z m 71.270728,-9.1642 c 0.82593,-6.61978 1.52205,-13.89755 2.02696,-21.19136 0.35421,-5.11681 0.35371,-6.68308 -0.002,-7.9375 -0.24411,-0.85954 -0.6758,-2.5897 -0.9593,-3.84479 -0.28351,-1.2551 -0.55414,-2.32066 -0.6014,-2.36793 -0.0473,-0.0473 -1.54714,0.26313 -3.33306,0.68976 l -3.24712,0.77568 0,1.69699 c 0,0.93335 0.33896,3.55486 0.75325,5.82557 0.68916,3.77727 0.71999,4.53384 0.36239,8.89108 -0.40799,4.97113 -0.21582,7.78889 0.80599,11.81806 0.29523,1.16417 0.53927,3.21888 0.5423,4.56604 0.004,1.96448 0.23249,2.98566 1.15204,5.15832 l 1.14653,2.70896 0.39089,-1.10139 c 0.21499,-0.60575 0.64837,-3.16513 0.96308,-5.68749 z m -65.944569,-5.31467 c 0.954546,-4.53776 2.41218,-17.52847 2.471401,-22.0256 0.02678,-2.03369 -0.336341,-3.45476 -0.771746,-3.02022 -0.140954,0.14067 -0.353275,3.06058 -0.471826,6.48869 -0.175059,5.06217 -0.390328,6.92868 -1.14607,9.93708 -0.722208,2.87491 -0.930628,4.56633 -0.930982,7.55533 -2.52e-4,2.11813 0.07463,3.77606 0.166413,3.68428 0.09178,-0.0918 0.399042,-1.27058 0.68281,-2.61956 z m 35.6151783,-78.45951 c 3.17973,-0.27539 5.33975,-0.64573 6.28812,-1.0781 0.5937,-0.27068 0.62124,-1.15075 0.27972,-3.527782 -0.59005,-4.1069 -0.48709,-5.606 0.51835,-7.54709 0.49442,-0.95451 0.90138,-2.06576 0.90435,-2.46944 0.006,-0.88335 0.34109,-1.4213 1.05292998,-1.69285 0.29104,-0.11103 0.81667001,-0.97258 1.16807001,-1.91455 0.35140001,-0.94197 0.94672001,-2.50949 1.32292001,-3.48338 0.83601,-2.16421 0.86109,-2.94598 0.10383,-3.23657 -0.74945,-0.28759 -1.49160001,0.72175 -1.75865001,2.3918 -0.30538,1.90975 -0.55627001,2.17526 -1.65918999,1.75593 -1.18295,-0.44975 -1.2316,-1.60175 -0.22927,-5.42855 0.61154998,-2.33482 0.65954998,-3.05098 0.34141,-5.09353 -0.54822,-3.51964 -0.98002,-3.93522 -5.12904,-4.9364 -3.36274,-0.81145 -3.7575903,-0.83239 -9.4922993,-0.50351 l -5.983612,0.34315 -1.026555,1.14892 c -0.958276,1.0725 -1.007749,1.26854 -0.743819,2.94752 0.363366,2.31155 0.360501,5.53332 -0.007,7.88981 -0.237628,1.52365 -0.435839,1.89454 -1.101824,2.06169 -1.12849,0.28323 -1.557725,-0.0799 -1.557725,-1.31773 0,-0.58339 -0.165414,-1.36979 -0.367591,-1.74756 -0.302475,-0.56518 -0.496136,-0.61805 -1.093294,-0.29846 -0.765746,0.40982 -0.766258,0.4951 -0.02522,4.2067 0.682628,3.41899 1.198478,4.58611 2.027004,4.58611 0.823945,0 1.222979,1.05491 1.222979,3.23315 0,0.56556 0.3175,1.65064 0.705555,2.41129 0.388057,0.76065 0.705557,1.93727 0.705557,2.6147 0,1.24133 -2.135358,7.270862 -3.04023,7.619102 -0.677192,0.26062 -0.611977,0.41773 0.291042,0.70115 2.221279,0.6972 10.342973,0.87899 16.2834823,0.36448 z m 9.04346998,-22.218942 c 0,-0.86153 0.66874001,-2.45599 1.39113001,-3.31683 0.43830001,-0.52231 0.54915001,-1.62756 0.54915001,-5.47547 0,-4.74543 -0.0183,-4.85835 -1.16920001,-7.19606 -2.21742999,-4.50424 -6.25142999,-6.42963 -13.47107929,-6.42963 -3.7226,0 -4.22154,0.0808 -6.054143,0.98097 -2.544265,1.24966 -4.27614,3.17545 -5.865556,6.52231 -1.152384,2.42659 -1.274741,2.98845 -1.420333,6.52206 -0.120999,2.93679 -0.04864,3.93512 0.300853,4.15112 0.253093,0.15642 0.552009,0.93882 0.664259,1.73866 0.112247,0.79984 0.362839,1.46229 0.556867,1.4721 0.815615,0.0412 1.134435,-3.62972 0.822752,-9.47338 -0.110088,-2.06397 -0.04996,-2.26456 0.99113,-3.3064 l 1.108325,-1.10913 6.171246,-0.36002 c 6.1175593,-0.35689 6.2049093,-0.35167 10.0401093,0.59979 3.68403,0.91396 3.89601,1.01676 4.4373,2.15186 1.06375998,2.23073 1.42754998,5.53247 0.84142998,7.6367 -0.64148998,2.30301 -1.00375998,5.05876 -0.70436998,5.35814 0.43171998,0.43172 0.81012998,0.21368 0.81012998,-0.46679 z"
                 id="path4373"
                 inkscape:connector-curvature="0"
                 sodipodi:nodetypes="cscssssssssssssssssssssscsssssssssssssscssssssssscssssssssscsscsssscssccccssssscsscsccsccssssssssssssccssscssscscssscscscscscsssscscsccsssssscsssssccssssssssscsssssssssssssssssscscsssscsscsssscs" />
            </g>
          </g>
          <path
             inkscape:connector-curvature="0"
             id="path4387"
             d="m -71.394491,-387.53636 c -0.179295,-0.0897 -0.351762,-0.1945 -0.537881,-0.26894 -0.03841,-0.0154 -0.671101,-4.2e-4 -0.67235,0 -0.06014,0.02 -0.08173,0.0993 -0.134471,0.13447 -0.08339,0.0556 -0.185545,0.0789 -0.26894,0.13447 -0.05274,0.0352 -0.07777,0.10612 -0.13447,0.13447 -0.04009,0.02 -0.09195,-0.0142 -0.13447,0 -0.974024,0.32467 0.212006,-0.0388 -0.40341,0.26894 -0.04009,0.02 -0.09438,-0.0201 -0.134471,0 -0.0567,0.0283 -0.08965,0.0896 -0.13447,0.13447 -0.04482,0.0448 -0.08965,0.0896 -0.13447,0.13447 -0.07079,0.0708 -0.367501,0.33159 -0.40341,0.40341 -0.04009,0.0802 0.06339,0.20555 0,0.26894 -0.0317,0.0317 -0.102776,-0.0317 -0.13447,0 -0.0317,0.0317 0.02004,0.0944 0,0.13447 -0.0567,0.11339 -0.212244,0.15554 -0.268941,0.26894 -0.02004,0.0401 0.03169,0.10277 0,0.13447 -0.0317,0.0317 -0.102775,-0.0317 -0.13447,0 -0.0317,0.0317 0.03169,0.10278 0,0.13447 -0.0317,0.0317 -0.102775,-0.0317 -0.13447,0 -0.0317,0.0317 0.02005,0.0944 0,0.13447 -0.02835,0.0567 -0.106121,0.0778 -0.13447,0.13447 -0.0035,0.007 -0.0035,0.39637 0,0.40341 0.02835,0.0567 0.106121,0.0778 0.13447,0.13447 0.02005,0.0401 -0.02004,0.0944 0,0.13447 0.02835,0.0567 0.106121,0.0778 0.13447,0.13447 0.02431,0.0486 0,0.57882 0,0.67235 0,0.0935 0.02431,0.62372 0,0.67235 -0.02835,0.0567 -0.106121,0.0778 -0.13447,0.13447 -0.01768,0.0354 0,0.46757 0,0.53788 0,0.35859 0,0.71718 0,1.07576 0,0.0326 -0.0043,0.39909 0,0.40341 0.179293,0.1793 0.13447,-0.22411 0.13447,0.13447 0,0.0606 0.02046,0.36249 0,0.40341 -0.02835,0.0567 -0.106121,0.0778 -0.13447,0.13447 -0.04226,0.0845 0.04226,0.45337 0,0.53789 -0.02835,0.0567 -0.106121,0.0778 -0.13447,0.13447 -0.02005,0.0401 0.03169,0.10277 0,0.13447 -0.0317,0.0317 -0.09438,-0.0201 -0.13447,0 -0.559633,0.27981 0.143752,-0.009 -0.13447,0.26894 -0.0317,0.0317 -0.09438,-0.0201 -0.13447,0 -0.559633,0.27981 0.143752,-0.009 -0.134471,0.26894 -0.03169,0.0317 -0.102775,-0.0317 -0.13447,0 -0.06339,0.0634 0.06339,0.20555 0,0.26894 -0.0317,0.0317 -0.102775,-0.0317 -0.13447,0 -0.06724,0.0672 0.06723,0.33617 0,0.40341 -0.0317,0.0317 -0.102775,-0.0317 -0.13447,0 -0.0317,0.0317 0,0.0896 0,0.13447 0,0.22411 0,0.44823 0,0.67235 0,0.0448 0,0.0896 0,0.13447 0,0.0448 0.02005,0.0944 0,0.13447 -0.0175,0.035 -0.239589,0.16382 -0.13447,0.26894 0.03169,0.0317 0.102774,-0.0317 0.13447,0 0.06339,0.0634 -0.06339,0.20555 0,0.26894 0.03169,0.0317 0.102774,-0.0317 0.13447,0 0.03169,0.0317 -0.02005,0.0944 0,0.13447 0.02835,0.0567 0.106121,0.0778 0.13447,0.13447 0.04009,0.0802 -0.04009,0.18876 0,0.26894 0.02835,0.0567 0.106121,0.0778 0.13447,0.13447 0.03647,0.0729 -0.03679,0.50109 0,0.53788 0.0317,0.0317 0.102775,-0.0317 0.134471,0 0.03169,0.0317 0,0.0897 0,0.13447 0,0.0448 0,0.0897 0,0.13447 0,0.26894 0,0.53788 0,0.80682 0,0.0448 -0.0317,0.10278 0,0.13447 0.03169,0.0317 0.102774,-0.0317 0.13447,0 0.06339,0.0634 -0.06339,0.20555 0,0.26894 0.03169,0.0317 0.102774,-0.0317 0.13447,0 0.06339,0.0634 -0.04009,0.18876 0,0.26894 0.01287,0.0257 0.51214,0.52501 0.53788,0.53788 0.04009,0.02 0.102775,-0.0317 0.13447,0 0.0317,0.0317 -0.03169,0.10278 0,0.13447 0.278223,0.27822 -0.01088,-0.42516 0.268941,0.13447 0.02004,0.0401 -0.0317,0.10278 0,0.13447 0.06339,0.0634 0.205549,-0.0634 0.26894,0 0.03169,0.0317 -0.0317,0.10278 0,0.13447 0.0054,0.005 0.488498,0 0.537881,0 0.04482,0 0.102774,0.0317 0.13447,0 0.03169,-0.0317 -0.0317,-0.10277 0,-0.13447 0.06723,-0.0672 0.336175,0.0672 0.40341,0 0.03169,-0.0317 -0.0317,-0.10277 0,-0.13447 0.02749,-0.0275 0.350094,0.0267 0.40341,0 0.0567,-0.0283 0.07777,-0.10612 0.134471,-0.13447 0.04092,-0.0205 0.34285,0 0.40341,0 0.160774,0 0.719056,-0.0292 0.806821,0 0.09508,0.0317 0.173855,0.10278 0.26894,0.13447 0.08505,0.0283 0.183893,-0.0283 0.26894,0 0.09508,0.0317 0.173855,0.10278 0.268941,0.13447 0.04252,0.0142 0.08965,0 0.13447,0 0.112604,0 0.57009,-0.0256 0.67235,0 0.09724,0.0243 0.171705,0.11016 0.268941,0.13447 0.08697,0.0217 0.179293,0 0.26894,0 0.313763,0 0.62753,0 0.941289,0 0.134471,0 0.271549,-0.0264 0.403411,0 0.09828,0.0197 0.170656,0.11482 0.26894,0.13447 0.131861,0.0264 0.271549,-0.0264 0.40341,0 0.196569,0.0393 0.34341,0.22032 0.537881,0.26894 0.08698,0.0217 0.181965,-0.0217 0.26894,0 0.649356,0.16234 -0.0067,0.0639 0.403411,0.26894 0.04009,0.0201 0.08965,0 0.13447,0 0.08965,0 0.183901,-0.0283 0.26894,0 0.06014,0.0201 0.07778,0.10612 0.13447,0.13447 0.03014,0.0151 0.505931,0 0.537881,0 0.358591,0 0.717169,0 1.075761,0 0.26894,0 0.53788,0 0.80682,0 0.134471,0 0.275839,0.0425 0.403411,0 0.06014,-0.02 0.07433,-0.11442 0.13447,-0.13447 0.08505,-0.0283 0.181965,0.0217 0.26894,0 0.09724,-0.0243 0.173857,-0.10277 0.268941,-0.13447 0.08505,-0.0283 0.188755,0.0401 0.26894,0 0.05669,-0.0283 0.07778,-0.10612 0.13447,-0.13447 0.08018,-0.0401 0.188756,0.0401 0.26894,0 0.05669,-0.0283 0.07778,-0.10612 0.13447,-0.13447 0.0401,-0.02 0.09195,0.0142 0.13447,0 0.09508,-0.0317 0.173857,-0.10277 0.268941,-0.13447 0.04252,-0.0142 0.09438,0.02 0.13447,0 0.05669,-0.0283 0.07778,-0.10612 0.13447,-0.13447 0.0401,-0.02 0.102775,0.0317 0.13447,0 0.278219,-0.27822 -0.425168,0.0109 0.13447,-0.26894 0.0401,-0.02 0.09438,0.0201 0.13447,0 0.05669,-0.0283 0.07778,-0.10612 0.13447,-0.13447 0.0401,-0.02 0.09438,0.0201 0.134471,0 0.05669,-0.0283 0.07778,-0.10612 0.13447,-0.13447 0.0401,-0.02 0.102775,0.0317 0.13447,0 0.03169,-0.0317 -0.03169,-0.10277 0,-0.13447 0.03169,-0.0317 0.102775,0.0317 0.13447,0 0.03169,-0.0317 -0.03169,-0.10277 0,-0.13447 0.03169,-0.0317 0.102775,0.0317 0.13447,0 0.03169,-0.0317 -0.03169,-0.10277 0,-0.13447 0.06339,-0.0634 0.205551,0.0634 0.26894,0 0.03169,-0.0317 -0.03169,-0.10277 0,-0.13447 0.03169,-0.0317 0.102776,0.0317 0.13447,0 0.03169,-0.0317 -0.03169,-0.10277 0,-0.13447 0.03169,-0.0317 0.102776,0.0317 0.134471,0 0.03169,-0.0317 -0.03169,-0.10277 0,-0.13447 0.03169,-0.0317 0.09438,0.0201 0.13447,0 0.05669,-0.0283 0.07778,-0.10612 0.13447,-0.13447 0.08018,-0.0401 0.188756,0.0401 0.26894,0 0.05669,-0.0283 0.07778,-0.10612 0.13447,-0.13447 0.0401,-0.02 0.102776,0.0317 0.13447,0 0.03169,-0.0317 -0.03169,-0.10277 0,-0.13447 0.03169,-0.0317 0.102776,0.0317 0.134471,0 0.03169,-0.0317 -0.03169,-0.10278 0,-0.13447 0.03169,-0.0317 0.09438,0.02 0.13447,0 0.05669,-0.0284 0.07778,-0.10612 0.13447,-0.13447 0.08018,-0.0401 0.205551,0.0634 0.26894,0 0.03169,-0.0317 -0.03169,-0.10278 0,-0.13447 0.03169,-0.0317 0.102776,0.0317 0.13447,0 0.03169,-0.0317 -0.03169,-0.10278 0,-0.13447 0.06339,-0.0634 0.205551,0.0634 0.26894,0 0.03169,-0.0317 -0.03169,-0.10278 0,-0.13447 0.03169,-0.0317 0.102776,0.0317 0.134471,0 0.03169,-0.0317 -0.03169,-0.10278 0,-0.13447 0.03169,-0.0317 0.102775,0.0317 0.13447,0 0.03169,-0.0317 -0.03169,-0.10278 0,-0.13447 0.03169,-0.0317 0.102775,0.0317 0.13447,0 0.03169,-0.0317 -0.03169,-0.10278 0,-0.13447 0.03169,-0.0317 0.102775,0.0317 0.13447,0 0.03169,-0.0317 -0.03169,-0.10278 0,-0.13447 0.03169,-0.0317 0.102775,0.0317 0.13447,0 0.03169,-0.0317 -0.03169,-0.10278 0,-0.13447 0.03169,-0.0317 0.102776,0.0317 0.13447,0 0.06339,-0.0634 -0.04008,-0.18876 0,-0.26894 0.02835,-0.0567 0.106124,-0.0778 0.13447,-0.13447 0.03648,-0.0729 -0.03679,-0.50109 0,-0.53788 0.03169,-0.0317 0.102776,0.0317 0.13447,0 0.03169,-0.0317 -0.03169,-0.10278 0,-0.13447 0.03169,-0.0317 0.102776,0.0317 0.134471,0 0.06339,-0.0634 -0.06339,-0.20555 0,-0.26894 0.03169,-0.0317 0.102775,0.0317 0.13447,0 0.03169,-0.0317 -0.04482,-0.13447 0,-0.13447 0.04482,0 0,0.17929 0,0.13447 0,-0.0897 0,-0.1793 0,-0.26894 0,-0.0448 0.02005,-0.0944 0,-0.13447 -0.02835,-0.0567 -0.106124,-0.0778 -0.13447,-0.13447 -0.03647,-0.0729 0.03679,-0.50109 0,-0.53788 -0.03169,-0.0317 -0.102776,0.0317 -0.134471,0 -0.06339,-0.0634 0.0401,-0.18876 0,-0.26894 -0.02835,-0.0567 -0.106123,-0.0778 -0.13447,-0.13447 -0.02005,-0.0401 0.03169,-0.10278 0,-0.13447 -0.03169,-0.0317 -0.102775,0.0317 -0.13447,0 -0.06339,-0.0634 0.06339,-0.20555 0,-0.26894 -0.03169,-0.0317 -0.102775,0.0317 -0.13447,0 -0.03169,-0.0317 0,-0.0897 0,-0.13447 0,-0.0448 0,-0.0897 0,-0.13447 0,-0.31377 0,-0.62753 0,-0.9413 0,-0.0448 0.03169,-0.10277 0,-0.13447 -0.03169,-0.0317 -0.102775,0.0317 -0.13447,0 -0.0043,-0.004 0,-0.37079 0,-0.40341 0,-0.71717 0,-1.43434 0,-2.15152 0,-0.26894 0,-0.53788 0,-0.80682 0,-0.0606 0.02047,-0.36249 0,-0.40341 -0.02835,-0.0567 -0.106124,-0.0778 -0.13447,-0.13447 -0.04645,-0.0929 0.0472,-0.62515 0,-0.67235 -0.03169,-0.0317 -0.102776,0.0317 -0.13447,0 -0.0472,-0.0472 0.04645,-0.57947 0,-0.67235 -0.02835,-0.0567 -0.106124,-0.0778 -0.13447,-0.13447 -0.04009,-0.0802 0.06339,-0.20555 0,-0.26894 -0.03169,-0.0317 -0.09437,0.02 -0.134471,0 -0.113398,-0.0567 -0.155541,-0.21224 -0.26894,-0.26894 -0.04008,-0.02 -0.102775,0.0317 -0.13447,0 -0.03169,-0.0317 0.03169,-0.10278 0,-0.13447 -0.03169,-0.0317 -0.09437,0.02 -0.13447,0 -0.05669,-0.0284 -0.07778,-0.10612 -0.13447,-0.13447 -0.04009,-0.0201 -0.102776,0.0317 -0.13447,0 -0.03169,-0.0317 0.03169,-0.10278 0,-0.13447 -0.03169,-0.0317 -0.102776,0.0317 -0.13447,0 -0.278219,-0.27823 0.425167,0.0109 -0.134471,-0.26894 -0.08018,-0.0401 -0.188755,0.0401 -0.26894,0 -0.113399,-0.0567 -0.155541,-0.21225 -0.26894,-0.26894 -0.04009,-0.0201 -0.08965,0 -0.13447,0 -0.04482,-0.0448 -0.07778,-0.10612 -0.13447,-0.13447 -0.04009,-0.02 -0.09437,0.02 -0.134471,0 -0.05669,-0.0283 -0.08965,-0.0897 -0.13447,-0.13447 -0.07908,-0.0791 -0.475607,-0.50675 -0.53788,-0.53788 -0.04009,-0.02 -0.102776,0.0317 -0.13447,0 -0.03169,-0.0317 0.02005,-0.0944 0,-0.13447 -0.01291,-0.0257 -0.512143,-0.52501 -0.537881,-0.53788 -0.04008,-0.02 -0.09437,0.02 -0.13447,0 -0.05669,-0.0283 -0.07778,-0.10613 -0.13447,-0.13447 -0.04009,-0.02 -0.09437,0.02 -0.13447,0 -0.05669,-0.0283 -0.07778,-0.10613 -0.13447,-0.13447 -0.107576,-0.0538 -0.295835,0.0538 -0.403411,0 -0.113398,-0.0567 -0.155541,-0.21225 -0.26894,-0.26894 -0.03535,-0.0177 -0.467566,0 -0.53788,0 -0.31376,0 -0.627532,0 -0.941291,0 -0.06055,0 -0.362492,-0.0205 -0.403411,0 -0.05669,0.0283 -0.07778,0.10612 -0.13447,0.13447 -0.07295,0.0365 -0.501089,-0.0368 -0.53788,0 -0.0317,0.0317 0.03169,0.10277 0,0.13447 -0.0317,0.0317 -0.08965,0 -0.134471,0 -0.04482,0 -0.08965,0 -0.13447,0 -0.09531,0 -0.772047,-0.0174 -0.80682,0 -0.05669,0.0283 -0.07778,0.10612 -0.134471,0.13447 -0.04009,0.02 -0.08965,0 -0.13447,0 -0.04482,0 -0.08965,0 -0.13447,0 -0.224121,0 -0.448229,0 -0.672351,0 -0.08965,0 -0.179289,0 -0.26894,0 -0.04482,0 -0.09438,-0.02 -0.13447,0 -0.05669,0.0283 -0.07778,0.10612 -0.13447,0.13447 -0.107576,0.0538 -0.295834,-0.0538 -0.40341,0 -0.05669,0.0283 -0.07778,0.10612 -0.134471,0.13447 -0.07934,0.0397 -0.310921,-0.0308 -0.40341,0 -0.09508,0.0317 -0.173856,0.10277 -0.26894,0.13447 -0.08504,0.0284 -0.205551,-0.0634 -0.26894,0 -0.03169,0.0317 0.03169,0.10277 0,0.13447 -0.03235,0.0324 -0.505527,-0.0324 -0.537881,0 -0.03169,0.0317 0.03169,0.10277 0,0.13447 -0.02749,0.0275 -0.350093,-0.0267 -0.403409,0 -0.0567,0.0283 -0.07777,0.10612 -0.13447,0.13447 -0.08018,0.0401 -0.188759,-0.0401 -0.26894,0 -0.0567,0.0283 -0.07777,0.10612 -0.134471,0.13447 -0.107576,0.0538 -0.295834,-0.0538 -0.40341,0 -0.0567,0.0283 -0.07777,0.10612 -0.13447,0.13447 -0.08018,0.0401 -0.188758,-0.0401 -0.26894,0 -0.0567,0.0284 -0.07777,0.10612 -0.13447,0.13447 -0.04009,0.02 -0.102776,-0.0317 -0.134471,0 -0.03169,0.0317 0.02005,0.0944 0,0.13447 -0.166164,0.33233 -0.13447,-0.0464 -0.13447,0.26894"
             style="fill:url(#linearGradient9389);fill-rule:evenodd;stroke:none;stroke-width:0.13447013px;stroke-linecap:butt;stroke-linejoin:miter;stroke-opacity:1" />
        </g>
      </g>
      <path
         sodipodi:nodetypes="cccccccccccccccccccccc"
         inkscape:connector-curvature="0"
         id="path4459"
         d="m 836.88713,753.18235 c 6.40461,14.11131 -13.80665,59.41731 -6.31709,73.38467 9.00283,11.06894 27.75261,26.30883 44.95809,31.56638 12.63136,7.30376 25.72856,14.14871 40.55042,17.18539 22.79156,1.89511 45.2588,6.20534 68.05509,7.81061 24.74306,-0.011 49.65776,-1.61704 74.32496,1.38368 22.3864,1.90906 44.2915,-2.78111 66.4098,-4.92351 15.157,-5.41463 22.9608,-21.32011 37.7678,-28.47255 10.8886,-8.96309 7.4238,-35.96971 15.1172,-46.77613 4.7471,-14.85352 1.8267,-41.34356 3.1224,-56.53175 -0.906,-8.86494 2.5862,-16.06128 13.0069,3.08226 3.233,14.87093 -4.7447,47.38766 -4.7447,47.38766 3.9088,18.09946 -4.7941,31.54151 -12.4684,47.24362 -15.3674,20.74767 -2.1307,46.85121 -20.5643,66.17189 -12.1394,14.21882 -30.5724,23.34374 -50.4725,24.81761 -41.1811,6.94062 -82.8176,-1.36775 -123.49164,-7.21171 -19.08321,-3.86907 -37.64782,-9.33226 -57.06989,-11.89202 -18.09255,-1.96355 -36.16839,-7.07862 -49.82721,-18.34361 -13.59173,-7.36494 -25.46422,-16.96819 -39.06532,-24.18671 -11.03585,-11.29795 -7.91585,-24.16338 -11.10976,-39.99729 -8.25656,-15.01364 -16.76325,-23.99638 -12.66904,-38.92045 3.00676,-5.26883 2.51372,-50.40475 9.99015,-49.77805"
         style="fill:url(#linearGradient9389);fill-rule:evenodd;stroke:none;stroke-width:1px;stroke-linecap:butt;stroke-linejoin:miter;stroke-opacity:1" />
    </g>
  </g>
  <g
     inkscape:groupmode="layer"
     id="layer2"
     inkscape:label="print"
     style="display:inline"
     transform="translate(0,0.49493)">
    <g
       transform="matrix(0.49062562,0,0,0.49062562,162.30229,434.64721)"
       id="layer1-5"
       inkscape:label="Layer 1">
      <path
         inkscape:connector-curvature="0"
         d="m 455.68944,111.75456 c 16.2356,-18.075202 4.6616,-44.887602 -25.852,-59.888402 1.0912,0.976 6.8852,-3.7076 12.9556,-10.4624 6.0692,-6.7544 10.1056,-13.0212 9.0188,-13.998 -30.5136,-15.0008 -68.4088,-12.5096 -84.6456,5.564 -16.2352,18.0752 -4.6616,44.8868 25.8536,59.8876 -1.0916,-0.976 -6.8868,3.7076 -12.9572,10.462402 -6.0664,6.7544 -10.1056,13.0212 -9.0184,13.998 30.5148,15.0008 68.4096,12.5096 84.6452,-5.5632 z M 314.43454,-13.960642 c -35.5776,39.6092 -10.2144,98.3636 56.6549,131.236002 -2.384,-2.1396 -15.0944,8.1244 -28.392,22.926 -13.2984,14.8016 -22.1468,28.5352 -19.7656,30.6752 66.8676,32.8724 149.91,27.4136 185.492,-12.1912 35.5776,-39.6092 10.2132,-98.364802 -56.6548,-131.237202 2.3812,2.14 15.0916,-8.1244 28.3892,-22.9259999 13.2984,-14.8016001 22.1468,-28.5352001 19.766,-30.6748001 -66.868,-32.8724 -149.9088,-27.4136 -185.4897,12.192 z"
         style="display:inline;opacity:1;fill:#13628e;fill-opacity:1;fill-rule:evenodd;stroke:none;stroke-width:0.15216827;stroke-miterlimit:4;stroke-dasharray:none;stroke-opacity:1;marker:none"
         id="path7651" />
    </g>
    <g
       inkscape:label="Layer 1"
       id="g13610"
       style="display:inline"
       transform="matrix(1.910028,0,0,1.910028,-877.86284,235.70314)">
      <path
         inkscape:connector-curvature="0"
         id="path13612"
         style="font-style:normal;font-variant:normal;font-weight:bold;font-stretch:normal;font-size:11.36749935px;line-height:125%;font-family:Hussar;-inkscape-font-specification:'Hussar Bold';letter-spacing:0px;word-spacing:0px;display:inline;opacity:1;fill:#13628e;fill-opacity:1;fill-rule:evenodd;stroke:none;stroke-width:0.28418744px;stroke-linecap:butt;stroke-linejoin:miter;stroke-opacity:1"
         d="m 1000.6774,73.439855 c -0.201,0 -0.2872,-0.164827 -0.2872,-0.337094 l 0,-1.342389 0.7754,7e-6 c 0.043,0 0.078,-0.21695 0.078,-0.484579 0,-0.267628 -0.035,-0.484578 -0.078,-0.484578 l -0.7754,0 0,-1.37106 c 0,-0.05644 -0.2844,-0.102212 -0.63521,-0.102212 -0.35078,0 -0.63517,0.04578 -0.63517,0.102212 l 0,1.37106 -0.53137,0 c -0.0431,0 -0.078,0.21695 -0.078,0.484578 0,0.267629 0.0351,0.484579 0.078,0.484579 l 0.53137,-7e-6 0,1.4142 c 0,0.653235 0.24385,1.406661 1.25598,1.406661 0.5241,0 0.9333,-0.229703 0.9333,-0.229703 0.046,-0.0216 0.012,-0.255147 -0.075,-0.538556 -0.087,-0.283415 -0.1586,-0.527188 -0.2627,-0.472402 -0.048,0.03127 -0.1665,0.09928 -0.2937,0.09928 z m 6.2961,0.33528 c -0.1189,-0.243807 -0.2472,-0.436829 -0.2864,-0.406799 0,0 -0.2371,0.172194 -0.6175,0.172194 -0.481,0 -0.8757,-0.401976 -0.8757,-0.911642 0,-0.502492 0.3947,-0.904454 0.8757,-0.904454 0.3804,0 0.6175,0.172194 0.6175,0.172194 0.046,0.02756 0.1664,-0.159773 0.2853,-0.399605 0.1189,-0.239831 0.184,-0.439279 0.1454,-0.468904 0,0 -0.4164,-0.344739 -1.2348,-0.344739 -1.0696,0 -2.0386,0.875935 -2.0386,1.959883 0,1.076768 0.9762,1.93797 2.0386,1.93797 0.8184,0 1.2348,-0.330006 1.2348,-0.330006 0.036,-0.02941 -0.025,-0.232293 -0.1443,-0.476092 z m -10.38032,0.800818 c 0.35084,0 0.63517,-0.04578 0.63517,-0.102211 l 0,-2.71337 0.84729,7e-6 c 0.0431,0 0.078,-0.21695 0.078,-0.484579 0,-0.267628 -0.0351,-0.484578 -0.078,-0.484578 l -0.84729,0 0,-0.423473 c 0,-0.509666 0.0721,-0.725066 0.39509,-0.725066 0.20815,0 0.38032,0.100642 0.38032,0.100642 0.0431,0.02292 0.17185,-0.165047 0.29473,-0.412821 0.12289,-0.247774 0.19172,-0.44917 0.15032,-0.484439 0,0 -0.40185,-0.330357 -1.04789,-0.330357 -0.91883,0 -1.44297,0.739302 -1.44297,1.816096 l 0,0.459418 -0.5313,0 c -0.0431,0 -0.078,0.21695 -0.078,0.484578 0,0.267629 0.0351,0.484579 0.078,0.484579 l 0.5313,-7e-6 0,2.71337 c 0,0.05644 0.28439,0.102211 0.63523,0.102211 z m -1.51525,-3.784731 c 0,-0.05644 -0.2844,-0.102212 -0.63524,-0.102212 -0.35077,0 -0.63517,0.04578 -0.63517,0.102212 l 0,3.68252 c 0,0.05644 0.2844,0.102211 0.63517,0.102211 0.35084,0 0.63524,-0.04578 0.63524,-0.102211 z m -1.57964,0.121873 c 0,0 -0.33037,-0.229715 -0.80417,-0.229715 -0.725,0 -1.12698,0.639144 -1.12698,0.639144 l -0.0146,0 0,-0.531302 c 0,-0.05644 -0.2844,-0.102212 -0.63524,-0.102212 -0.35077,0 -0.63517,0.04578 -0.63517,0.102212 l 0,3.68252 c 0,0.05644 0.2844,0.102211 0.63517,0.102211 0.35084,0 0.63524,-0.04578 0.63524,-0.102211 l 0,-1.938314 c 0,-0.09332 0.0934,-0.746298 0.75381,-0.746298 0.30785,0 0.51566,0.108286 0.60834,0.164145 0.11494,0.06925 0.33196,-0.312809 0.44153,-0.534575 0.10951,-0.221766 0.19344,-0.470706 0.14184,-0.505605 z m -3.71298,-2.14844 c 0,-0.05644 -0.28452,-0.102238 -0.63543,-0.102238 -0.35091,0 -0.63537,0.04578 -0.63537,0.102238 l 0,2.378143 c -0.30149,-0.294313 -0.71076,-0.459418 -1.20601,-0.459418 -1.07677,0 -1.83052,0.875928 -1.83052,1.952696 0,1.076767 0.75375,1.945157 1.83052,1.945157 0.50247,0 0.93321,-0.222276 1.20601,-0.523777 l 0.0146,0 0,0.416286 c 0,0.05585 0.28129,0.101085 0.62822,0.101085 0.34693,0 0.62821,-0.04525 0.62821,-0.101085 z m -18.23734,2.414088 -0.007,0 -0.007,0 0,-0.387521 c 0,-0.05644 -0.2844,-0.102212 -0.63524,-0.102212 -0.35084,0 -0.63524,0.04578 -0.63524,0.102212 l 0,3.68252 c 0,0.05644 0.2844,0.102211 0.63524,0.102211 0.35084,0 0.63524,-0.04578 0.63524,-0.102211 l 0,-2.081751 c 0,-0.366103 0.37336,-0.717885 0.75381,-0.717885 0.40914,0 0.66035,0.351782 0.66035,0.717885 l 0,2.081751 c 0,0.05644 0.28446,0.102238 0.63536,0.102238 0.35091,0 0.63537,-0.04578 0.63537,-0.102238 l 0,-2.42649 c 0,-1.026513 -0.94036,-1.363872 -1.61515,-1.363872 -0.40198,0 -0.76826,0.208225 -1.05537,0.495363 z m 13.45668,-0.505367 c -0.40444,0 -0.70771,0.05757 -0.73229,0.117826 l -0.76455,1.87487 -0.84027,-1.87487 c -0.0159,-0.03544 -0.19608,-0.07045 -0.43788,-0.07045 -0.2418,0 -0.42193,0.03498 -0.43783,0.07045 l -0.84033,1.87487 -0.76488,-1.87487 c -0.0245,-0.06022 -0.32779,-0.117799 -0.73209,-0.117799 -0.40436,0 -0.76064,0.05936 -0.73209,0.117799 l 1.79859,3.68252 c 0.0166,0.03438 0.19284,0.0693 0.43067,0.0693 0.23789,0 0.4143,-0.03471 0.43067,-0.0693 l 0.84729,-1.788949 0.84696,1.788949 c 0.0166,0.03458 0.19284,0.0693 0.43066,0.0693 0.23783,0 0.41384,-0.03491 0.43067,-0.0693 l 1.79899,-3.68252 c 0.0285,-0.05843 -0.32786,-0.117826 -0.73229,-0.117826 z m 9.45606,-1.916691 c -0.41636,0 -0.75381,0.337134 -0.75381,0.753486 0,0.416351 0.33745,0.75383 0.75381,0.75383 0.41636,0 0.75349,-0.337479 0.75349,-0.75383 0,-0.416352 -0.33713,-0.753486 -0.75349,-0.753486 z m -26.37583,5.824528 c 0.75375,0 1.7442,-0.172088 1.7442,-1.25603 0,-0.753737 -0.63166,-1.026553 -1.11983,-1.177303 -0.3158,-0.100496 -0.57409,-0.158103 -0.57409,-0.35192 0,-0.17228 0.1148,-0.222522 0.39476,-0.222522 0.38761,0 0.81847,0.229716 0.81847,0.229716 0.0371,0.01848 0.16019,-0.152883 0.27519,-0.382791 0.11494,-0.229908 0.17814,-0.431277 0.14111,-0.449779 0,0 -0.52415,-0.287224 -1.23477,-0.287224 -0.96912,0 -1.608,0.430753 -1.608,1.18449 0,0.55274 0.37337,0.811286 0.74667,1.005103 0.41635,0.215353 0.8182,0.236949 0.8182,0.502551 0,0.244064 -0.2153,0.265654 -0.39476,0.265654 -0.40914,0 -0.91161,-0.423811 -0.91161,-0.423811 -0.0384,-0.02299 -0.18563,0.15291 -0.32839,0.392834 -0.14276,0.239931 -0.22444,0.44552 -0.18853,0.47602 0,0 0.53123,0.495012 1.42138,0.495012 z m 8.7296,-3.897853 c -1.24191,0 -2.21805,0.804144 -2.21805,1.952696 0,1.134196 0.89001,1.945157 2.21805,1.945157 1.27054,0 2.19673,-0.810961 2.19673,-1.945157 0,-1.148552 -0.9764,-1.952696 -2.19673,-1.952696 z m 32.60122,0 c -1.2419,0 -2.218,0.804144 -2.218,1.952696 0,1.134196 0.89,1.945157 2.218,1.945157 1.2706,0 2.1968,-0.810961 2.1968,-1.945157 0,-1.148552 -0.9764,-1.952696 -2.1968,-1.952696 z m 4.677,0 c -1.2419,0 -2.2183,0.804144 -2.2183,1.952696 0,1.134196 0.8903,1.945157 2.2183,1.945157 1.2706,0 2.1964,-0.810961 2.1964,-1.945157 0,-1.148552 -0.976,-1.952696 -2.1964,-1.952696 z m 3.8428,3.438441 c 0.3015,0.294313 0.7107,0.459412 1.206,0.459412 1.0768,0 1.8305,-0.875577 1.8305,-1.952345 0,-1.076767 -0.7537,-1.945508 -1.8305,-1.945508 -0.5025,0 -0.9333,0.222627 -1.2061,0.524121 l -0.015,0 0,-0.416279 c 0,-0.05578 -0.2811,-0.101052 -0.628,-0.101052 -0.3468,0 -0.628,0.04525 -0.628,0.101052 l 0,5.309337 c 0,0.05644 0.2844,0.102211 0.6353,0.102211 0.3508,0 0.6351,-0.04578 0.6351,-0.102211 z m -41.12824,-2.354234 c 0.4738,0 0.85412,0.358836 0.85412,0.868509 0,0.502491 -0.35879,0.861321 -0.85412,0.861321 -0.51685,0 -0.86133,-0.35883 -0.86133,-0.861321 0,-0.509673 0.38039,-0.868509 0.86133,-0.868509 z m 10.02022,0.868509 c 0,0.502491 0.34481,0.861321 0.86167,0.861321 0.49532,0 0.85411,-0.35883 0.85411,-0.861321 0,-0.509673 -0.38032,-0.868509 -0.85411,-0.868509 -0.48095,0 -0.86167,0.358836 -0.86167,0.868509 z m 22.58102,-0.868509 c 0.4738,0 0.8541,0.358836 0.8541,0.868509 0,0.502491 -0.3587,0.861321 -0.8541,0.861321 -0.5168,0 -0.8613,-0.35883 -0.8613,-0.861321 0,-0.509673 0.3804,-0.868509 0.8613,-0.868509 z m 4.677,0 c 0.4738,0 0.8542,0.358836 0.8542,0.868509 0,0.502491 -0.3589,0.861321 -0.8542,0.861321 -0.5168,0 -0.8613,-0.35883 -0.8613,-0.861321 0,-0.509673 0.3804,-0.868509 0.8613,-0.868509 z m 4.6757,0 c 0.5168,0 0.8613,0.358829 0.8613,0.861321 0,0.509666 -0.3804,0.868509 -0.8613,0.868509 -0.4738,0 -0.8545,-0.358843 -0.8545,-0.868509 0,-0.502492 0.3592,-0.861321 0.8545,-0.861321 z m -16.0712,1.170108 c -0.4522,0 -0.8182,0.365951 -0.8182,0.825376 0,0.452244 0.366,0.818182 0.8182,0.818182 0.4594,0 0.8254,-0.365938 0.8254,-0.818182 0,-0.459425 -0.366,-0.825376 -0.8254,-0.825376 z m -40.40552,1.085333 c 0.57277,-0.637653 0.16443,-1.583532 -0.91201,-2.112734 0.0384,0.03445 0.24293,-0.13079 0.45703,-0.369078 0.21411,-0.238281 0.35654,-0.459365 0.31818,-0.493819 -1.07643,-0.529202 -2.41328,-0.44132 -2.98611,0.196274 -0.57277,0.637654 -0.16443,1.583519 0.91207,2.112707 -0.0384,-0.03445 -0.24299,0.130797 -0.45709,0.369085 -0.21405,0.238282 -0.35654,0.459372 -0.31819,0.493827 1.07651,0.529195 2.41336,0.441313 2.98612,-0.196262 z m -4.98318,-4.434952 c -1.2551,1.397327 -0.36031,3.470055 1.99865,4.629717 -0.0841,-0.07548 -0.53248,0.286614 -1.00157,0.808781 -0.46916,0.522166 -0.78131,1.006652 -0.69731,1.082147 2.35896,1.159668 5.28851,0.96709 6.54374,-0.430072 1.2551,-1.397333 0.36032,-3.470094 -1.99865,-4.629762 0.084,0.07549 0.53242,-0.286608 1.00151,-0.808775 0.46916,-0.522166 0.78131,-1.006659 0.69731,-1.082146 -2.35896,-1.159668 -5.28844,-0.96709 -6.54368,0.43011 z" />
    </g>
    <g
       transform="matrix(2.4477008,0,0,2.4477008,1913.419,-1103.7978)"
       id="g7430"
       style="display:inline">
      <g
         style="display:inline;opacity:1"
         id="g6906-2"
         transform="translate(-296.03887,860.67467)">
        <g
           id="g6870-2"
           transform="matrix(-0.21364726,-0.04762433,-0.04762433,0.21364726,171.24221,-142.60682)"
           inkscape:transform-center-x="-9.954745"
           inkscape:transform-center-y="-11.517972"
           style="display:inline;opacity:1;fill:url(#linearGradient7364);fill-opacity:1;stroke:none">
          <path
             style="fill:url(#linearGradient9389);fill-opacity:1;fill-rule:evenodd;stroke:none;stroke-width:1.5473932;stroke-linecap:butt;stroke-linejoin:miter;stroke-opacity:1"
             d="m 977.64301,-106.35833 c -11.8719,18.425597 8.56057,43.951269 18.34316,50.387363 l 76.98963,-19.71373 c -9.3217,-12.273724 -22.79,-33.839263 -15.7351,-54.148723 l -74.86333,17.59266"
             id="path6872-0"
             inkscape:connector-curvature="0"
             sodipodi:nodetypes="ccccc" />
          <path
             inkscape:original-d="m 1070.3541,37.492727 c -0.1798,-3.967917 -13.5673,-46.4670111 -40.3278,-107.958888"
             inkscape:path-effect="#path-effect4274-8-3-3-5-2-4"
             sodipodi:nodetypes="cc"
             inkscape:connector-curvature="0"
             id="path6874-7"
             d="m 1074.6158,37.299613 c -0.018,-0.397393 -0.074,-0.781467 -0.1163,-1.03981 -0.047,-0.282621 -0.1055,-0.581244 -0.159,-0.835868 -0.1874,-0.89127 -0.4397,-1.860844 -0.5475,-2.268388 -0.3732,-1.410817 -0.096,-0.286387 -0.086,-0.131942 0.026,0.401432 -0.079,-0.267323 -2.13,-6.610233 -0.9461,-2.92598 -3.4693,-10.643929 -7.8179,-22.614153 -3.7698,-10.3770583 -11.5847,-31.333502 -23.4866,-59.412736 -1.4439,-3.406473 -2.7592,-6.949128 -4.2439,-10.517277 -0.8067,-1.938503 -1.6724,-3.87821 -2.5291,-5.846734 a 3.7875242,3.7875242 90 0 0 -6.9458,3.022734 c 0.8521,1.958145 1.6683,3.907229 2.5157,5.815894 1.5589,3.511388 3.1907,6.902715 4.6067,10.29865 11.7292,28.129925 19.2176,48.7640846 22.8813,59.2105669 4.2484,12.1135531 6.4472,19.3484501 7.3466,22.4112751 1.9802,6.743034 1.5459,6.185334 1.6519,6.393677 -0.038,-0.07558 -0.123,-0.347905 -0.1602,-0.455347 -0.044,-0.125586 -0.01,0.0065 0.1461,0.598071 0.1038,0.400142 0.3105,1.202973 0.4492,1.862022 0.04,0.190122 0.068,0.339888 0.089,0.465494 0.025,0.150644 0.017,0.14306 0.013,0.04033 a 4.2661074,4.2661074 90 0 0 8.5234,-0.386228 z"
             style="fill:url(#linearGradient18193);fill-opacity:1;fill-rule:evenodd;stroke:none;stroke-width:0.26458332px;stroke-linecap:butt;stroke-linejoin:miter;stroke-opacity:1" />
          <path
             inkscape:original-d="m 982.76685,-111.04008 c -18.87135,19.274652 -0.73164,49.223079 12.61327,55.227051 l 78.51768,-18.817503 c -9.3217,-12.273724 -23.712,-34.893428 -16.6571,-55.202888 l -74.38463,17.84392"
             inkscape:path-effect="#path-effect4276-7-1-3-5-1-8"
             sodipodi:nodetypes="ccccc"
             inkscape:connector-curvature="0"
             id="path6876-1"
             d="m 981.87418,-111.91407 c -0.4032,0.41182 -0.78379,0.835 -1.16226,1.25038 -8.89212,9.75931 -9.2717,22.080157 -5.67992,32.921446 1.86133,5.618165 4.79206,10.843083 8.15127,15.094429 3.32854,4.212545 7.20522,7.625904 11.03157,9.424816 0.29078,0.136707 0.58505,0.265865 0.88252,0.387346 0.31491,-0.07174 0.6298,-0.143575 0.94467,-0.215493 6.47447,-1.478783 12.94057,-2.994019 19.39467,-4.561623 22.6836,-5.724588 42.1699,-10.652432 58.9666,-14.908449 1.1082,-0.280792 2.2163,-0.561624 3.3245,-0.842495 -0.7108,-0.851401 -1.4118,-1.711028 -2.1027,-2.578707 -5.8523,-7.349975 -11.1712,-15.519516 -14.6862,-23.878913 -5.2102,-12.390977 -5.18,-22.123297 -2.7312,-29.676167 0.1976,-0.60944 0.4135,-1.21279 0.6474,-1.80925 -0.6177,0.15924 -1.2355,0.31852 -1.8532,0.47786 -42.8956,11.06422 -28.9248,7.711 -74.20945,18.5742 a 0.27271807,0.27271807 90 0 0 0.12724,0.53038 c 44.64721,-10.71029 31.69451,-7.60487 72.76741,-16.71589 -2.3971,7.74164 -2.4183,17.54868 2.2301,29.824383 2.9906,7.897851 7.4025,15.495392 12.3292,22.587114 -16.1762,3.657272 -34.7601,7.867382 -56.1727,12.72857 -6.148,1.453612 -12.2842,2.954395 -18.41204,4.488714 -2.65197,-1.329247 -5.68487,-3.754228 -8.59423,-7.070815 -3.20588,-3.654602 -6.13157,-8.247693 -8.11466,-13.275617 -3.77641,-9.574717 -4.13063,-20.724609 3.63338,-29.853529 0.33583,-0.39486 0.70038,-0.77374 1.07337,-1.15471 a 1.2492875,1.2492875 90 0 0 -1.78534,-1.74798 z"
             style="fill:url(#linearGradient18195);fill-opacity:1;fill-rule:evenodd;stroke:none;stroke-width:0.19076642;stroke-linecap:butt;stroke-linejoin:miter;stroke-miterlimit:4;stroke-dasharray:none;stroke-opacity:1" />
        </g>
        <path
           style="fill:url(#linearGradient7446);fill-opacity:1;fill-rule:evenodd;stroke:none;stroke-width:0.26458332px;stroke-linecap:butt;stroke-linejoin:miter;stroke-opacity:1"
           d="m -58.750707,-195.72088 1.908693,1.40858 c 0,0 0.543187,-1.78469 2.172663,-0.93117 1.629476,0.85357 1.629476,2.25026 1.163894,3.41416 -0.46554,1.16394 -1.008727,1.39669 -2.40539,0.77595 -1.396707,-0.62074 -1.396707,-2.01746 -1.396707,-2.01746 l -1.957662,-1.90171 z"
           id="path7366"
           inkscape:connector-curvature="0"
           sodipodi:nodetypes="cccccccc" />
      </g>
      <g
         style="display:inline;opacity:1"
         id="g6922"
         transform="translate(-375.21267,846.39991)">
        <g
           transform="matrix(0.2678785,0,0,0.2678785,-63.793305,-178.61157)"
           id="g6796">
          <path
             style="fill:url(#linearGradient9389);fill-opacity:1;stroke-width:0.35277775"
             d="m 299.53024,-89.026441 c -4.26323,-0.04331 -6.99018,0.723636 -10.05983,2.773469 -3.4422,2.29862 -7.42648,7.127107 -8.63256,10.462418 l -0.43048,1.191154 -9.18961,0.0026 c -8.21809,0.0026 -11.0141,0.17108 -13.95211,0.843889 -0.79801,0.182721 -0.98055,-0.0071 -1.91823,-1.997313 -3.1278,-6.638687 -10.01406,-9.718278 -18.51361,-8.279077 -4.52028,0.765413 -7.79333,2.415513 -11.18897,5.640996 -3.82812,3.63638 -6.67086,8.533712 -7.84809,13.520102 -0.47911,2.029354 -0.11941,3.700912 1.06918,4.966123 2.04488,2.176648 4.23449,0.440029 9.3989,-7.454847 5.41618,-8.279712 9.03941,-11.757924 13.62035,-13.074649 3.51832,-1.011317 6.83114,-0.07535 8.98602,2.538862 1.21007,1.468014 2.66652,4.854231 3.00963,6.998017 l 0.22585,1.411288 -3.35743,1.548235 c -11.0382,5.091113 -19.88,13.594318 -24.98503,24.027977 l -1.46711,2.998787 -5.6074,-0.119882 c -11.29257,-0.241591 -18.91744,2.121773 -23.52518,7.291546 -2.44867,2.747354 -3.27377,5.07738 -3.08147,8.703336 0.16158,3.04673 0.74517,4.552474 2.7337,7.055379 2.8998,3.649954 8.23306,6.753331 13.3754,7.782481 2.24367,0.4489712 4.21841,0.5566301 8.15091,0.4449231 l 5.19039,-0.1472671 0.96893,3.1088541 c 1.14678,3.6787666 3.41751,8.2539151 5.71336,11.5124705 3.8246,5.4284034 10.70041,11.0761194 16.59072,13.6275764 3.06306,1.326806 7.91469,2.809928 10.42157,3.185874 1.07915,0.161819 1.5785,0.392774 1.46865,0.679027 -0.0915,0.238548 -0.0238,1.068308 0.15039,1.843802 l 0.31676,1.410255 -4.62349,0.425291 c -5.5875,0.514006 -10.49991,1.325378 -12.11916,2.001944 -1.00513,0.419999 -1.17764,0.654447 -1.08313,1.47484 0.18516,1.607106 1.5466,2.022793 7.05229,2.153364 7.61029,0.180473 18.82044,-1.561729 20.25613,-3.148118 0.86463,-0.95541 0.20772,-1.553818 -2.74971,-2.506318 -2.64531,-0.851959 -4.1615,-1.955245 -4.1615,-3.028236 0,-0.625369 0.26993,-0.655452 4.55424,-0.50075 6.1948,0.223705 14.33346,-0.703501 19.6546,-2.239143 0.68895,-0.198808 0.76544,-0.05064 0.94621,1.841765 0.10813,1.131887 0.24712,2.369317 0.30903,2.749709 0.10425,0.640953 -0.28578,0.735541 -5.32268,1.29241 -7.30871,0.808064 -8.89775,1.282435 -9.80818,2.927985 -1.02664,1.85547 1.23465,3.815688 5.11493,4.433332 5.53487,0.880983 17.1388,-0.393171 21.13412,-2.320793 3.46416,-1.671347 2.77696,-3.175688 -2.01023,-4.400762 -3.57312,-0.9144 -4.63198,-1.417187 -5.61308,-2.664433 -0.91929,-1.168903 -0.9257,-1.902063 -0.031,-3.571372 0.38807,-0.724006 0.71078,-1.477407 0.71779,-1.67431 0.007,-0.196903 1.23592,-0.91358 2.73211,-1.59266 13.81938,-6.272318 23.47651,-20.0974318 25.55971,-36.591054 0.793,-6.278695 -0.76121,-16.491214 -3.58635,-23.56186 -2.71857,-6.803972 -6.38387,-12.174987 -11.95949,-17.526582 -3.19754,-3.069087 -8.95646,-7.309564 -11.46183,-8.439282 -0.87211,-0.393303 -0.97014,-0.588565 -0.78652,-1.567339 0.34425,-1.834938 -1.64187,-3.330548 -4.42246,-3.330548 -0.54171,0 -1.06863,-0.135678 -1.17099,-0.301281 -0.10234,-0.165603 0.25947,-1.356969 0.80409,-2.647897 2.78088,-6.591432 6.86591,-9.546087 11.56311,-8.36332 5.79173,1.458383 8.82243,5.781119 12.06956,17.217045 0.94964,3.344519 1.98789,6.480016 2.30735,6.967538 1.28291,1.957969 3.31531,0.593566 4.84724,-3.253555 1.04045,-2.612734 1.12213,-7.660375 0.17571,-10.853076 -1.8656,-6.2933 -5.05346,-10.619502 -9.30021,-12.62044 -2.15458,-1.015126 -2.7804,-1.139401 -6.34793,-1.258305 -0.29843,-0.01005 -0.58965,-0.01614 -0.87387,-0.01905 z m -28.01017,17.643369 c 0.67914,0 1.40108,0.01587 2.17766,0.04186 3.6083,0.12118 5.70738,0.348721 6.52621,0.707443 0.66392,0.290883 1.53334,0.537052 1.93167,0.547265 1.03423,0.02646 4.90918,1.367631 7.3892,2.557462 11.87916,5.699257 20.7527,19.004835 24.37887,36.554886 1.9571,9.472215 0.72631,17.545102 -4.10051,26.8908471 -2.2319,4.32141312 -4.45487,7.2586056 -8.2517,10.9037437 -6.69223,6.4247972 -14.76142,10.0714702 -25.90694,11.7078122 -4.48185,0.657992 -13.74875,0.910828 -17.16381,0.46818 -13.86459,-1.79705 -24.33206,-8.893757 -30.08188,-20.3946119 -1.11773,-2.2356762 -3.25562,-8.0232778 -3.25562,-8.8134291 0,-0.272521 1.05884,-0.788274 2.54506,-1.239706 6.23051,-1.892485 12.12016,-5.978736 13.55008,-9.400989 2.05708,-4.923261 -3.35818,-13.991299 -10.48465,-17.556533 -1.39173,-0.696277 -2.74725,-1.266084 -3.0122,-1.266084 -0.26498,0 -0.48138,-0.198252 -0.48112,-0.440796 0,-0.758481 2.92648,-6.148361 4.53049,-8.346784 4.02177,-5.512011 18.61815,-16.203374 27.50994,-20.15019 4.77833,-2.120979 7.44525,-2.778813 12.19925,-2.770373 z m -23.25748,13.765054 c -1.14763,-1.85e-4 -2.40128,2.634615 -4.59507,9.280049 -2.1576,6.535896 -2.64157,9.032954 -1.91926,9.903274 0.24976,0.300964 0.62889,0.491411 0.84233,0.423228 1.08712,-0.347292 4.65521,-9.105688 6.24456,-15.327736 0.79237,-3.101843 0.80259,-3.287104 0.21497,-3.874717 -0.26379,-0.26379 -0.52271,-0.404045 -0.78753,-0.404098 z m 8.60981,2.150269 c -0.12002,-0.0042 -0.22612,0.04368 -0.32454,0.142107 -1.08429,1.084289 -4.9263,12.812236 -4.9263,15.037832 0,0.597588 0.26281,1.376839 0.58393,1.731671 0.3211,0.354833 0.64849,0.645452 0.7276,0.645452 0.62477,0 3.29801,-7.680696 4.66432,-13.401781 0.71165,-2.980584 0.71149,-2.998391 0.019,-3.690726 -0.30573,-0.305726 -0.54414,-0.457597 -0.74414,-0.464555 z m 41.44862,23.554107 c -0.8395,0 -4.3996,1.568239 -14.33865,6.315366 -2.47753,1.183323 -4.8115,2.151301 -5.18625,2.151301 -0.37476,0 -0.8081,0.220213 -0.96325,0.489373 -0.31247,0.542026 -7.75459,4.189783 -18.80298,9.216496 -18.63595,8.4787844 -25.22067,11.7233697 -25.33645,12.4839939 -0.0993,0.65275354 0.0633,0.74051583 1.3684,0.74051583 1.56678,0 4.02534,-0.96197203 13.00488,-5.08960433 3.09555,-1.4229556 5.17575,-2.1973381 5.31183,-1.9771518 0.12305,0.199046 1.62449,1.0770658 3.33674,1.9507993 2.83361,1.4458685 3.34071,1.5885319 5.64359,1.5885319 2.19506,0 2.74724,-0.1379273 4.16925,-1.0397331 1.32215,-0.8384911 2.3831,-2.0554156 3.64939,-4.1847558 0.0356,-0.059875 0.65704,0.1389062 1.38079,0.441325 0.72379,0.3023923 2.16355,0.5498306 3.19981,0.5498306 l 1.88413,0 1.4242,2.0970346 c 0.78332,1.1535039 1.4242,2.2010951 1.4242,2.3274866 0,0.1263914 -0.64373,0.96139 -1.43092,1.8557081 -3.04327,3.4573104 -6.6828,10.6841659 -6.6828,13.2699912 0,0.828173 1.19732,2.658534 1.51877,2.321825 0.0927,-0.09702 0.83947,-2.081212 1.65933,-4.4095457 1.70791,-4.8503681 2.82199,-7.2002649 4.31189,-9.09195637 1.9976,-2.53634873 5.56379,-4.39904183 9.56064,-4.99401033 l 1.70481,-0.2537354 -2.47115,3.054588 c -1.35898,1.6799719 -2.91867,3.9105152 -3.46647,4.95681 l -0.99631,1.9022218 0.79425,0.7942527 0.79428,0.7942792 4.1429,-4.0752183 c 5.18059,-5.0958749 10.7374,-10.2468361 10.88977,-10.0944626 0.24379,0.2438136 -2.45062,7.88767889 -3.1347,8.8929897 -0.39616,0.5821892 -1.68836,2.0633796 -2.87166,3.2917871 -2.24737,2.3329899 -4.10847,3.4414089 -9.91256,5.9024832 -5.46952,2.319206 -7.00823,3.593095 -5.61361,4.647274 1.54977,1.171443 6.90774,-0.144753 11.31869,-2.780215 9.96476,-5.9537862 18.04659,-24.795638 15.59388,-36.35539 -0.96883,-4.566152 -3.76314,-7.690485 -6.87866,-7.690485 z M 278.623,-19.566596 c 0.6196,0 0.86765,0.834602 0.86765,2.91764 0,2.149607 -0.97068,3.797485 -2.73214,4.637458 -1.40378,0.669422 -4.79351,0.744775 -5.2958,0.117819 -0.51041,-0.637064 -1.91921,-3.488267 -1.78594,-3.614235 0.34081,-0.322077 8.57708,-4.058682 8.94623,-4.058682 z m -12.36255,5.720583 c 0.0455,0.05538 0.37116,0.718555 0.72347,1.473808 0.62294,1.335379 0.6218,1.408218 -0.0408,2.6458334 -0.43495,0.8122709 -1.251,1.5594013 -2.25568,2.0660254 -1.7907,0.9029965 -3.97748,1.022059 -5.37591,0.2924969 -1.16226,-0.6063721 -2.58672,-1.8972477 -2.3523,-2.1316685 0.28276,-0.2827602 9.21184,-4.4553452 9.30124,-4.3464952 z"
             id="path6748"
             inkscape:connector-curvature="0"
             sodipodi:nodetypes="csccccsssscsssccccccsssccccsscsccsccssssscccscssscccsssscsscsssccccscccccsssssssssscsccsccscscsccsscscccssscscssccssccsccscscsscccccccscssssssssssccscscscsc" />
        </g>
      </g>
      <g
         inkscape:transform-center-y="-7.9362481"
         inkscape:transform-center-x="13.900589"
         id="g6810-6"
         transform="matrix(0.75035754,0.15408006,-0.15408006,0.75035754,-345.5307,540.61291)"
         style="display:inline;opacity:1">
        <path
           sodipodi:nodetypes="cssssccccccsccsccccccsccc"
           inkscape:connector-curvature="0"
           id="path6786-2"
           d="m -10.76169,154.50794 -2.968888,-0.57682 c -0.323205,-0.0628 -1.357021,-0.38012 -2.318718,-0.62228 -2.042958,-0.51441 -2.009068,-0.48448 -2.32097,-2.03925 -0.254599,-1.26914 -0.388103,-1.54248 -0.75346,-1.54248 -0.458904,0 -0.536599,0.59533 -0.262369,2.0106 l 0.149829,0.77314 -0.92935,0.1923 c -1.099249,0.22729 -2.224799,0.72851 -2.831214,1.26094 -0.501195,0.44006 -0.547532,0.66661 -0.171232,0.83804 0.216684,0.0987 0.52774,0.0122 1.701969,-0.47383 0.790233,-0.32707 1.461068,-0.59466 1.49087,-0.59466 0.0298,0 -0.180806,0.41103 -0.46813,0.9133 -0.65545,1.14587 -0.720365,1.38739 -0.452074,1.68385 0.114936,0.12702 0.246072,0.23096 0.291366,0.23096 0.04531,0 0.442437,-0.53399 0.882579,-1.18672 l 0.800237,-1.18689 0.489017,1.21623 c 0.645372,1.60516 0.884399,2.00023 1.184126,1.95727 0.194758,-0.0279 0.234918,-0.11802 0.225258,-0.50524 -0.0095,-0.38019 -0.446054,-1.70152 -0.916402,-2.77372 -0.06036,-0.13765 0.239752,-0.0763 1.249208,0.25512 0.730766,0.23992 1.77939,0.52914 2.330279,0.64264 l 3.340179,0.72562 z"
           style="fill:url(#linearGradient7509);fill-opacity:1;stroke-width:0.11783762" />
      </g>
    </g>
    <g
       id="g4288-3"
       transform="matrix(1.2402172,0,0,1.2402172,545.3426,-184.02513)">
      <g
         id="g4283-5"
         transform="translate(-3.2252415,-94.338314)">
        <text
           sodipodi:linespacing="125%"
           id="text4300-0"
           style="font-style:normal;font-variant:normal;font-weight:bold;font-stretch:normal;font-size:12.29141808px;line-height:125%;font-family:Nina;-inkscape-font-specification:'Nina Bold';letter-spacing:0px;word-spacing:0px;fill:url(#linearGradient9389);fill-opacity:1;stroke:none;stroke-width:1px;stroke-linecap:butt;stroke-linejoin:miter;stroke-opacity:1"
           xml:space="preserve"
           x="-3.25"
           y="-5.25"
           transform="translate(0.75000001,-3.5)"><textPath
             xlink:href="#path4382-9"
             id="textPath4275-6">FReE THE COMMONS</textPath></text>
        <path
           sodipodi:nodetypes="cc"
           inkscape:connector-curvature="0"
           id="path18448"
           d="m 319.41129,724.30563 c 36.94886,-4.90757 97.84493,-5.41189 135.00145,0.0923"
           style="fill:none;fill-opacity:1;fill-rule:evenodd;stroke:none;stroke-width:1px;stroke-linecap:butt;stroke-linejoin:miter;stroke-opacity:1" />
      </g>
    </g>
  </g>
</svg>
